Data/ALL0033/F0033MTH.CSV

Record Length,1.024000e+03,,          0.00000, -24.96910,
Sample Interval,2.466067e-01,,          0.24661, -22.56910,
Trigger Point,0.000000000000e+00,,          0.49321, -28.96910,
,,,          0.73982, -60.96910,
,,,          0.98643, -60.96910,
,,,          1.23303, -60.96910,
Source,MATH,,          1.47964, -60.96910,
Vertical Units,dB,,          1.72625, -58.56910,
Vertical Scale,1.000000e+01,,          1.97285, -60.96910,
Vertical Offset,0.000000e+00,,          2.21946, -60.96910,
Horizontal Units,Hz,,          2.46607, -60.96910,
Horizontal Scale,2.525253e+01,,          2.71267, -58.56910,
Pt Fmt,Y,,          2.95928, -58.56910,
Yzero,-2.096910e+01,,          3.20589, -60.96910,
Probe Atten,1.000000e+00,,          3.45249, -60.96910,
Model Number,TDS1012C-EDU,,          3.69910, -58.56910,
Serial Number,C013699,,          3.94571, -60.96910,
Firmware Version,FV:v25.07,,          4.19231, -58.56910,
,,,4.43892, -55.36910,
,,,4.68553, -60.96910,
,,,4.93214, -60.96910,
,,,5.17875, -60.96910,
,,,5.42536, -60.96910,
,,,5.67197, -58.56910,
,,,5.91858, -60.96910,
,,,6.16519, -60.96910,
,,,6.41180, -60.96910,
,,,6.65841, -60.96910,
,,,6.90502, -60.96910,
,,,7.15163, -60.96910,
,,,7.39824, -60.96910,
,,,7.64485, -60.96910,
,,,7.89146, -60.96910,
,,,8.13807, -58.56910,
,,,8.38468, -54.56910,
,,,8.63129, -54.56910,
,,,8.87790, -55.36910,
,,,9.12451, -58.56910,
,,,9.37112, -60.96910,
,,,9.61773, -60.96910,
,,,9.86434, -60.96910,
,,,10.11095, -54.56910,
,,,10.35756, -54.56910,
,,,10.60417, -58.56910,
,,,10.85078, -60.96910,
,,,11.09739, -60.96910,
,,,11.34400, -60.96910,
,,,11.59061, -58.56910,
,,,11.83722, -60.96910,
,,,12.08383, -60.96910,
,,,12.33044, -60.96910,
,,,12.57705, -60.96910,
,,,12.82366, -58.56910,
,,,13.07027, -58.56910,
,,,13.31688, -58.56910,
,,,13.56349, -60.96910,
,,,13.81010, -60.96910,
,,,14.05671, -60.96910,
,,,14.30332, -60.96910,
,,,14.54993, -60.96910,
,,,14.79654, -60.96910,
,,,15.04315, -60.96910,
,,,15.28976, -60.96910,
,,,15.53637, -60.96910,
,,,15.78298, -58.56910,
,,,16.02959, -60.96910,
,,,16.27620, -58.56910,
,,,16.52281, -58.56910,
,,,16.76942, -58.56910,
,,,17.01603, -58.56910,
,,,17.26264, -60.96910,
,,,17.50925, -60.96910,
,,,17.75586, -60.96910,
,,,18.00247, -60.96910,
,,,18.24908, -60.96910,
,,,18.49569, -58.56910,
,,,18.74230, -60.96910,
,,,18.98891, -60.96910,
,,,19.23552, -58.56910,
,,,19.48213, -54.56910,
,,,19.72874, -51.76910,
,,,19.97535, -54.56910,
,,,20.22196, -55.36910,
,,,20.46857, -54.56910,
,,,20.71518, -55.36910,
,,,20.96179, -60.96910,
,,,21.20840, -60.96910,
,,,21.45501, -60.96910,
,,,21.70162, -60.96910,
,,,21.94823, -60.96910,
,,,22.19484, -60.96910,
,,,22.44145, -54.56910,
,,,22.68806, -58.56910,
,,,22.93467, -58.56910,
,,,23.18128, -60.96910,
,,,23.42789, -60.96910,
,,,23.67450, -60.96910,
,,,23.92111, -60.96910,
,,,24.16772, -60.96910,
,,,24.41433, -58.56910,
,,,24.66094, -60.96910,
,,,24.90755, -58.56910,
,,,25.15416, -60.96910,
,,,25.40077, -60.96910,
,,,25.64738, -60.96910,
,,,25.89399, -60.96910,
,,,26.14060, -60.96910,
,,,26.38721, -60.96910,
,,,26.63382, -54.56910,
,,,26.88043, -58.56910,
,,,27.12704, -58.56910,
,,,27.37365, -60.96910,
,,,27.62026, -60.96910,
,,,27.86687, -60.96910,
,,,28.11348, -60.96910,
,,,28.36009, -58.56910,
,,,28.60670, -54.56910,
,,,28.85331, -60.96910,
,,,29.09992, -60.96910,
,,,29.34653, -60.96910,
,,,29.59314, -60.96910,
,,,29.83975, -60.96910,
,,,30.08636, -60.96910,
,,,30.33297, -58.56910,
,,,30.57958, -54.56910,
,,,30.82619, -58.56910,
,,,31.07280, -60.96910,
,,,31.31941, -60.96910,
,,,31.56602, -60.96910,
,,,31.81263, -60.96910,
,,,32.05924, -58.56910,
,,,32.30585, -54.56910,
,,,32.55246, -54.56910,
,,,32.79907, -54.56910,
,,,33.04568, -58.56910,
,,,33.29229, -60.96910,
,,,33.53890, -58.56910,
,,,33.78551, -58.56910,
,,,34.03212, -60.96910,
,,,34.27873, -60.96910,
,,,34.52534, -58.56910,
,,,34.77195, -55.36910,
,,,35.01856, -58.56910,
,,,35.26517, -58.56910,
,,,35.51178, -58.56910,
,,,35.75839, -58.56910,
,,,36.00500, -60.96910,
,,,36.25161, -60.96910,
,,,36.49822, -60.96910,
,,,36.74483, -58.56910,
,,,36.99144, -60.96910,
,,,37.23805, -60.96910,
,,,37.48466, -60.96910,
,,,37.73127, -60.96910,
,,,37.97788, -60.96910,
,,,38.22449, -60.96910,
,,,38.47110, -60.96910,
,,,38.71771, -58.56910,
,,,38.96432, -60.96910,
,,,39.21093, -60.96910,
,,,39.45754, -60.96910,
,,,39.70415, -58.56910,
,,,39.95076, -54.56910,
,,,40.19737, -58.56910,
,,,40.44398, -58.56910,
,,,40.69059, -54.56910,
,,,40.93720, -60.96910,
,,,41.18381, -58.56910,
,,,41.43042, -58.56910,
,,,41.67703, -54.56910,
,,,41.92364, -54.56910,
,,,42.17025, -58.56910,
,,,42.41686, -58.56910,
,,,42.66347, -58.56910,
,,,42.91008, -60.96910,
,,,43.15669, -58.56910,
,,,43.40330, -60.96910,
,,,43.64991, -60.96910,
,,,43.89652, -58.56910,
,,,44.14313, -58.56910,
,,,44.38974, -60.96910,
,,,44.63635, -60.96910,
,,,44.88296, -60.96910,
,,,45.12957, -60.96910,
,,,45.37618, -58.56910,
,,,45.62279, -58.56910,
,,,45.86940, -60.96910,
,,,46.11601, -58.56910,
,,,46.36262, -60.96910,
,,,46.60923, -51.76910,
,,,46.85584, -48.96910,
,,,47.10245, -48.56910,
,,,47.34906, -51.36910,
,,,47.59567, -58.56910,
,,,47.84228, -58.56910,
,,,48.08889, -60.96910,
,,,48.33550, -60.96910,
,,,48.58211, -60.96910,
,,,48.82872, -58.56910,
,,,49.07533, -54.56910,
,,,49.32194, -60.96910,
,,,49.56855, -60.96910,
,,,49.81516, -55.36910,
,,,50.06177, -58.56910,
,,,50.30838, -60.96910,
,,,50.55499, -60.96910,
,,,50.80160, -60.96910,
,,,51.04821, -60.96910,
,,,51.29482, -58.56910,
,,,51.54143, -54.56910,
,,,51.78804, -54.56910,
,,,52.03465, -58.56910,
,,,52.28126, -60.96910,
,,,52.52787, -54.56910,
,,,52.77448, -48.56910,
,,,53.02109, -46.16910,
,,,53.26770, -46.16910,
,,,53.51431, -48.56910,
,,,53.76092, -54.56910,
,,,54.00753, -51.76910,
,,,54.25414, -54.56910,
,,,54.50075, -58.56910,
,,,54.74736, -55.36910,
,,,54.99397, -54.56910,
,,,55.24058, -51.76910,
,,,55.48719, -55.36910,
,,,55.73380, -54.56910,
,,,55.98041, -58.56910,
,,,56.22702, -60.96910,
,,,56.47363, -60.96910,
,,,56.72024, -60.96910,
,,,56.96685, -60.96910,
,,,57.21346, -60.96910,
,,,57.46007, -60.96910,
,,,57.70668, -60.96910,
,,,57.95329, -58.56910,
,,,58.19990, -60.96910,
,,,58.44651, -60.96910,
,,,58.69312, -58.56910,
,,,58.93973, -55.36910,
,,,59.18634, -60.96910,
,,,59.43295, -60.96910,
,,,59.67956, -60.96910,
,,,59.92617, -60.96910,
,,,60.17278, -60.96910,
,,,60.41939, -60.96910,
,,,60.66600, -60.96910,
,,,60.91261, -60.96910,
,,,61.15922, -58.56910,
,,,61.40583, -60.96910,
,,,61.65244, -60.96910,
,,,61.89905, -60.96910,
,,,62.14566, -54.56910,
,,,62.39227, -54.56910,
,,,62.63888, -54.56910,
,,,62.88549, -54.56910,
,,,63.13210, -60.96910,
,,,63.37871, -60.96910,
,,,63.62532, -58.56910,
,,,63.87193, -60.96910,
,,,64.11854, -60.96910,
,,,64.36515, -58.56910,
,,,64.61176, -60.96910,
,,,64.85837, -60.96910,
,,,65.10498, -60.96910,
,,,65.35159, -60.96910,
,,,65.59820, -60.96910,
,,,65.84481, -60.96910,
,,,66.09142, -60.96910,
,,,66.33803, -60.96910,
,,,66.58464, -58.56910,
,,,66.83125, -58.56910,
,,,67.07786, -55.36910,
,,,67.32447, -51.76910,
,,,67.57108, -55.36910,
,,,67.81769, -54.56910,
,,,68.06430, -60.96910,
,,,68.31091, -60.96910,
,,,68.55752, -60.96910,
,,,68.80413, -60.96910,
,,,69.05074, -60.96910,
,,,69.29735, -60.96910,
,,,69.54396, -60.96910,
,,,69.79057, -58.56910,
,,,70.03718, -58.56910,
,,,70.28379, -60.96910,
,,,70.53040, -58.56910,
,,,70.77701, -60.96910,
,,,71.02362, -55.36910,
,,,71.27023, -58.56910,
,,,71.51684, -60.96910,
,,,71.76345, -58.56910,
,,,72.01006, -58.56910,
,,,72.25667, -60.96910,
,,,72.50328, -60.96910,
,,,72.74989, -60.96910,
,,,72.99650, -54.56910,
,,,73.24311, -58.56910,
,,,73.48972, -60.96910,
,,,73.73633, -58.56910,
,,,73.98294, -60.96910,
,,,74.22955, -60.96910,
,,,74.47616, -58.56910,
,,,74.72277, -60.96910,
,,,74.96938, -60.96910,
,,,75.21599, -60.96910,
,,,75.46260, -60.96910,
,,,75.70921, -60.96910,
,,,75.95582, -60.96910,
,,,76.20243, -60.96910,
,,,76.44904, -58.56910,
,,,76.69565, -58.56910,
,,,76.94226, -60.96910,
,,,77.18887, -60.96910,
,,,77.43548, -60.96910,
,,,77.68209, -60.96910,
,,,77.92870, -60.96910,
,,,78.17531, -60.96910,
,,,78.42192, -60.96910,
,,,78.66853, -60.96910,
,,,78.91514, -60.96910,
,,,79.16175, -60.96910,
,,,79.40836, -55.36910,
,,,79.65497, -55.36910,
,,,79.90158, -58.56910,
,,,80.14819, -60.96910,
,,,80.39480, -60.96910,
,,,80.64141, -60.96910,
,,,80.88802, -58.56910,
,,,81.13463, -60.96910,
,,,81.38124, -60.96910,
,,,81.62785, -58.56910,
,,,81.87446, -60.96910,
,,,82.12107, -52.56910,
,,,82.36768, -60.96910,
,,,82.61429, -60.96910,
,,,82.86090, -60.96910,
,,,83.10751, -60.96910,
,,,83.35412, -60.96910,
,,,83.60073, -60.96910,
,,,83.84734, -58.56910,
,,,84.09395, -54.56910,
,,,84.34056, -60.96910,
,,,84.58717, -60.96910,
,,,84.83378, -58.56910,
,,,85.08039, -58.56910,
,,,85.32700, -60.96910,
,,,85.57361, -60.96910,
,,,85.82022, -60.96910,
,,,86.06683, -58.56910,
,,,86.31344, -54.56910,
,,,86.56005, -54.56910,
,,,86.80666, -60.96910,
,,,87.05327, -60.96910,
,,,87.29988, -60.96910,
,,,87.54649, -60.96910,
,,,87.79310, -60.96910,
,,,88.03971, -60.96910,
,,,88.28632, -60.96910,
,,,88.53293, -60.96910,
,,,88.77954, -60.96910,
,,,89.02615, -60.96910,
,,,89.27276, -55.36910,
,,,89.51937, -60.96910,
,,,89.76598, -60.96910,
,,,90.01259, -58.56910,
,,,90.25920, -60.96910,
,,,90.50581, -60.96910,
,,,90.75242, -60.96910,
,,,90.99903, -60.96910,
,,,91.24564, -58.56910,
,,,91.49225, -60.96910,
,,,91.73886, -60.96910,
,,,91.98547, -54.56910,
,,,92.23208, -60.96910,
,,,92.47869, -60.96910,
,,,92.72530, -60.96910,
,,,92.97191, -60.96910,
,,,93.21852, -60.96910,
,,,93.46513, -60.96910,
,,,93.71174, -54.56910,
,,,93.95835, -55.36910,
,,,94.20496, -60.96910,
,,,94.45157, -60.96910,
,,,94.69818, -58.56910,
,,,94.94479, -58.56910,
,,,95.19140, -54.56910,
,,,95.43801, -55.36910,
,,,95.68462, -54.56910,
,,,95.93123, -60.96910,
,,,96.17784, -58.56910,
,,,96.42445, -54.56910,
,,,96.67106, -55.36910,
,,,96.91767, -55.36910,
,,,97.16428, -58.56910,
,,,97.41089, -60.96910,
,,,97.65750, -60.96910,
,,,97.90411, -60.96910,
,,,98.15072, -52.56910,
,,,98.39733, -50.16910,
,,,98.64394, -46.96910,
,,,98.89055, -46.56910,
,,,99.13716, -50.16910,
,,,99.38377, -48.56910,
,,,99.63038, -49.36910,
,,,99.87699, -48.56910,
,,,100.12360, -48.96910,
,,,100.37021, -44.56910,
,,,100.61682, -40.96910,
,,,100.86343, -37.76910,
,,,101.11004, -43.76910,
,,,101.35665, -44.96910,
,,,101.60326, -33.36910,
,,,101.84987, -28.16910,
,,,102.09648, -27.36910,
,,,102.34309, -22.96910,
,,,102.58970,  -3.36910,
,,,102.83631,   2.63090,
,,,103.08292,   3.43090,
,,,103.32953,   2.63090,
,,,103.57614,  -4.16910,
,,,103.82275, -23.36910,
,,,104.06936, -26.96910,
,,,104.31597, -28.56910,
,,,104.56258, -34.16910,
,,,104.80919, -46.96910,
,,,105.05580, -41.36910,
,,,105.30241, -37.36910,
,,,105.54902, -40.56910,
,,,105.79563, -44.56910,
,,,106.04224, -48.96910,
,,,106.28885, -48.96910,
,,,106.53546, -51.76910,
,,,106.78207, -50.16910,
,,,107.02868, -54.56910,
,,,107.27529, -51.36910,
,,,107.52190, -51.36910,
,,,107.76851, -60.96910,
,,,108.01512, -60.96910,
,,,108.26173, -60.96910,
,,,108.50834, -58.56910,
,,,108.75495, -51.76910,
,,,109.00156, -54.56910,
,,,109.24817, -54.56910,
,,,109.49478, -55.36910,
,,,109.74139, -54.56910,
,,,109.98800, -58.56910,
,,,110.23461, -58.56910,
,,,110.48122, -54.56910,
,,,110.72783, -51.36910,
,,,110.97444, -54.56910,
,,,111.22105, -58.56910,
,,,111.46766, -60.96910,
,,,111.71427, -60.96910,
,,,111.96088, -58.56910,
,,,112.20749, -60.96910,
,,,112.45410, -60.96910,
,,,112.70071, -60.96910,
,,,112.94732, -54.56910,
,,,113.19393, -54.56910,
,,,113.44054, -51.36910,
,,,113.68715, -60.96910,
,,,113.93376, -55.36910,
,,,114.18037, -58.56910,
,,,114.42698, -54.56910,
,,,114.67359, -58.56910,
,,,114.92020, -54.56910,
,,,115.16681, -58.56910,
,,,115.41342, -60.96910,
,,,115.66003, -58.56910,
,,,115.90664, -60.96910,
,,,116.15325, -60.96910,
,,,116.39986, -60.96910,
,,,116.64647, -60.96910,
,,,116.89308, -60.96910,
,,,117.13969, -60.96910,
,,,117.38630, -58.56910,
,,,117.63291, -54.56910,
,,,117.87952, -54.56910,
,,,118.12613, -55.36910,
,,,118.37274, -60.96910,
,,,118.61935, -60.96910,
,,,118.86596, -60.96910,
,,,119.11257, -58.56910,
,,,119.35918, -58.56910,
,,,119.60579, -52.56910,
,,,119.85240, -58.56910,
,,,120.09901, -58.56910,
,,,120.34562, -60.96910,
,,,120.59223, -60.96910,
,,,120.83884, -60.96910,
,,,121.08545, -60.96910,
,,,121.33206, -60.96910,
,,,121.57867, -60.96910,
,,,121.82528, -58.56910,
,,,122.07189, -58.56910,
,,,122.31850, -60.96910,
,,,122.56511, -60.96910,
,,,122.81172, -60.96910,
,,,123.05833, -58.56910,
,,,123.30494, -60.96910,
,,,123.55155, -60.96910,
,,,123.79816, -55.36910,
,,,124.04477, -58.56910,
,,,124.29138, -60.96910,
,,,124.53799, -60.96910,
,,,124.78460, -60.96910,
,,,125.03121, -60.96910,
,,,125.27782, -60.96910,
,,,125.52443, -60.96910,
,,,125.77104, -58.56910,
,,,126.01765, -58.56910,
,,,126.26426, -54.56910,
,,,126.51087, -60.96910,
,,,126.75748, -58.56910,
,,,127.00409, -58.56910,
,,,127.25070, -58.56910,
,,,127.49731, -60.96910,
,,,127.74392, -60.96910,
,,,127.99053, -60.96910,
,,,128.23714, -60.96910,
,,,128.48375, -60.96910,
,,,128.73036, -58.56910,
,,,128.97697, -58.56910,
,,,129.22358, -60.96910,
,,,129.47019, -60.96910,
,,,129.71680, -58.56910,
,,,129.96341, -54.56910,
,,,130.21002, -60.96910,
,,,130.45663, -54.56910,
,,,130.70324, -60.96910,
,,,130.94985, -60.96910,
,,,131.19646, -58.56910,
,,,131.44307, -55.36910,
,,,131.68968, -55.36910,
,,,131.93629, -54.56910,
,,,132.18290, -58.56910,
,,,132.42951, -55.36910,
,,,132.67612, -58.56910,
,,,132.92273, -58.56910,
,,,133.16934, -60.96910,
,,,133.41595, -55.36910,
,,,133.66256, -58.56910,
,,,133.90917, -58.56910,
,,,134.15578, -58.56910,
,,,134.40239, -60.96910,
,,,134.64900, -60.96910,
,,,134.89561, -60.96910,
,,,135.14222, -58.56910,
,,,135.38883, -60.96910,
,,,135.63544, -60.96910,
,,,135.88205, -58.56910,
,,,136.12866, -60.96910,
,,,136.37527, -55.36910,
,,,136.62188, -54.56910,
,,,136.86849, -54.56910,
,,,137.11510, -55.36910,
,,,137.36171, -58.56910,
,,,137.60832, -60.96910,
,,,137.85493, -58.56910,
,,,138.10154, -60.96910,
,,,138.34815, -60.96910,
,,,138.59476, -60.96910,
,,,138.84137, -58.56910,
,,,139.08798, -54.56910,
,,,139.33459, -55.36910,
,,,139.58120, -55.36910,
,,,139.82781, -60.96910,
,,,140.07442, -60.96910,
,,,140.32103, -60.96910,
,,,140.56764, -58.56910,
,,,140.81425, -60.96910,
,,,141.06086, -60.96910,
,,,141.30747, -60.96910,
,,,141.55408, -60.96910,
,,,141.80069, -60.96910,
,,,142.04730, -60.96910,
,,,142.29391, -60.96910,
,,,142.54052, -60.96910,
,,,142.78713, -60.96910,
,,,143.03374, -60.96910,
,,,143.28035, -54.56910,
,,,143.52696, -58.56910,
,,,143.77357, -54.56910,
,,,144.02018, -60.96910,
,,,144.26679, -60.96910,
,,,144.51340, -60.96910,
,,,144.76001, -58.56910,
,,,145.00662, -60.96910,
,,,145.25323, -58.56910,
,,,145.49984, -60.96910,
,,,145.74645, -60.96910,
,,,145.99306, -60.96910,
,,,146.23967, -60.96910,
,,,146.48628, -60.96910,
,,,146.73289, -60.96910,
,,,146.97950, -58.56910,
,,,147.22611, -54.56910,
,,,147.47272, -55.36910,
,,,147.71933, -55.36910,
,,,147.96594, -60.96910,
,,,148.21255, -60.96910,
,,,148.45916, -60.96910,
,,,148.70577, -58.56910,
,,,148.95238, -60.96910,
,,,149.19899, -60.96910,
,,,149.44560, -60.96910,
,,,149.69221, -60.96910,
,,,149.93882, -60.96910,
,,,150.18543, -60.96910,
,,,150.43204, -60.96910,
,,,150.67865, -60.96910,
,,,150.92526, -60.96910,
,,,151.17187, -58.56910,
,,,151.41848, -58.56910,
,,,151.66509, -60.96910,
,,,151.91170, -60.96910,
,,,152.15831, -60.96910,
,,,152.40492, -60.96910,
,,,152.65153, -50.16910,
,,,152.89814, -48.56910,
,,,153.14475, -45.36910,
,,,153.39136, -47.36910,
,,,153.63797, -55.36910,
,,,153.88458, -60.96910,
,,,154.13119, -60.96910,
,,,154.37780, -60.96910,
,,,154.62441, -60.96910,
,,,154.87102, -58.56910,
,,,155.11763, -60.96910,
,,,155.36424, -60.96910,
,,,155.61085, -60.96910,
,,,155.85746, -60.96910,
,,,156.10407, -55.36910,
,,,156.35068, -55.36910,
,,,156.59729, -55.36910,
,,,156.84390, -60.96910,
,,,157.09051, -60.96910,
,,,157.33712, -60.96910,
,,,157.58373, -58.56910,
,,,157.83034, -58.56910,
,,,158.07695, -60.96910,
,,,158.32356, -60.96910,
,,,158.57017, -60.96910,
,,,158.81678, -58.56910,
,,,159.06339, -60.96910,
,,,159.31000, -60.96910,
,,,159.55661, -60.96910,
,,,159.80322, -58.56910,
,,,160.04983, -60.96910,
,,,160.29644, -60.96910,
,,,160.54305, -60.96910,
,,,160.78966, -60.96910,
,,,161.03627, -60.96910,
,,,161.28288, -60.96910,
,,,161.52949, -60.96910,
,,,161.77610, -60.96910,
,,,162.02271, -54.56910,
,,,162.26932, -60.96910,
,,,162.51593, -58.56910,
,,,162.76254, -58.56910,
,,,163.00915, -60.96910,
,,,163.25576, -60.96910,
,,,163.50237, -60.96910,
,,,163.74898, -60.96910,
,,,163.99559, -60.96910,
,,,164.24220, -60.96910,
,,,164.48881, -58.56910,
,,,164.73542, -58.56910,
,,,164.98203, -58.56910,
,,,165.22864, -60.96910,
,,,165.47525, -60.96910,
,,,165.72186, -60.96910,
,,,165.96847, -54.56910,
,,,166.21508, -54.56910,
,,,166.46169, -58.56910,
,,,166.70830, -58.56910,
,,,166.95491, -60.96910,
,,,167.20152, -60.96910,
,,,167.44813, -60.96910,
,,,167.69474, -60.96910,
,,,167.94135, -60.96910,
,,,168.18796, -60.96910,
,,,168.43457, -60.96910,
,,,168.68118, -60.96910,
,,,168.92779, -60.96910,
,,,169.17440, -60.96910,
,,,169.42101, -60.96910,
,,,169.66762, -60.96910,
,,,169.91423, -60.96910,
,,,170.16084, -60.96910,
,,,170.40745, -60.96910,
,,,170.65406, -60.96910,
,,,170.90067, -60.96910,
,,,171.14728, -55.36910,
,,,171.39389, -55.36910,
,,,171.64050, -55.36910,
,,,171.88711, -60.96910,
,,,172.13372, -58.56910,
,,,172.38033, -60.96910,
,,,172.62694, -55.36910,
,,,172.87355, -54.56910,
,,,173.12016, -60.96910,
,,,173.36677, -60.96910,
,,,173.61338, -60.96910,
,,,173.85999, -60.96910,
,,,174.10660, -60.96910,
,,,174.35321, -58.56910,
,,,174.59982, -58.56910,
,,,174.84643, -60.96910,
,,,175.09304, -60.96910,
,,,175.33965, -54.56910,
,,,175.58626, -58.56910,
,,,175.83287, -60.96910,
,,,176.07948, -58.56910,
,,,176.32609, -55.36910,
,,,176.57270, -60.96910,
,,,176.81931, -58.56910,
,,,177.06592, -60.96910,
,,,177.31253, -60.96910,
,,,177.55914, -60.96910,
,,,177.80575, -60.96910,
,,,178.05236, -60.96910,
,,,178.29897, -60.96910,
,,,178.54558, -58.56910,
,,,178.79219, -54.56910,
,,,179.03880, -58.56910,
,,,179.28541, -60.96910,
,,,179.53202, -54.56910,
,,,179.77863, -55.36910,
,,,180.02524, -60.96910,
,,,180.27185, -60.96910,
,,,180.51846, -60.96910,
,,,180.76507, -60.96910,
,,,181.01168, -60.96910,
,,,181.25829, -60.96910,
,,,181.50490, -60.96910,
,,,181.75151, -58.56910,
,,,181.99812, -60.96910,
,,,182.24473, -60.96910,
,,,182.49134, -60.96910,
,,,182.73795, -60.96910,
,,,182.98456, -58.56910,
,,,183.23117, -58.56910,
,,,183.47778, -58.56910,
,,,183.72439, -60.96910,
,,,183.97100, -60.96910,
,,,184.21761, -60.96910,
,,,184.46422, -60.96910,
,,,184.71083, -60.96910,
,,,184.95744, -60.96910,
,,,185.20405, -60.96910,
,,,185.45066, -60.96910,
,,,185.69727, -60.96910,
,,,185.94388, -60.96910,
,,,186.19049, -60.96910,
,,,186.43710, -60.96910,
,,,186.68371, -60.96910,
,,,186.93032, -60.96910,
,,,187.17693, -60.96910,
,,,187.42354, -60.96910,
,,,187.67015, -60.96910,
,,,187.91676, -60.96910,
,,,188.16337, -58.56910,
,,,188.40998, -58.56910,
,,,188.65659, -54.56910,
,,,188.90320, -58.56910,
,,,189.14981, -58.56910,
,,,189.39642, -60.96910,
,,,189.64303, -58.56910,
,,,189.88964, -60.96910,
,,,190.13625, -60.96910,
,,,190.38286, -60.96910,
,,,190.62947, -60.96910,
,,,190.87608, -60.96910,
,,,191.12269, -60.96910,
,,,191.36930, -54.56910,
,,,191.61591, -54.56910,
,,,191.86252, -51.36910,
,,,192.10913, -55.36910,
,,,192.35574, -60.96910,
,,,192.60235, -58.56910,
,,,192.84896, -60.96910,
,,,193.09557, -58.56910,
,,,193.34218, -60.96910,
,,,193.58879, -60.96910,
,,,193.83540, -60.96910,
,,,194.08201, -58.56910,
,,,194.32862, -58.56910,
,,,194.57523, -52.56910,
,,,194.82184, -54.56910,
,,,195.06845, -54.56910,
,,,195.31506, -55.36910,
,,,195.56167, -46.96910,
,,,195.80828, -46.96910,
,,,196.05489, -45.36910,
,,,196.30150, -54.56910,
