Data/ALL0041/F0041MTH.CSV

Record Length,1.024000e+03,,          0.00000, -25.36910,
Sample Interval,4.932134e+01,,         49.32134, -22.96910,
Trigger Point,0.000000000000e+00,,         98.64268, -29.36910,
,,,        147.96402, -60.96910,
,,,        197.28535, -58.56910,
,,,        246.60669, -60.96910,
Source,MATH,,        295.92803, -54.56910,
Vertical Units,dB,,        345.24937, -60.96910,
Vertical Scale,1.000000e+01,,        394.57071, -60.96910,
Vertical Offset,0.000000e+00,,        443.89205, -60.96910,
Horizontal Units,Hz,,        493.21338, -60.96910,
Horizontal Scale,5.050505e+03,,        542.53472, -60.96910,
Pt Fmt,Y,,        591.85606, -58.56910,
Yzero,-2.096910e+01,,        641.17740, -58.56910,
Probe Atten,1.000000e+00,,        690.49874, -60.96910,
Model Number,TDS1012C-EDU,,        739.82008, -58.56910,
Serial Number,C013699,,        789.14141, -58.56910,
Firmware Version,FV:v25.07,,        838.46275, -55.36910,
,,,887.78409, -54.56910,
,,,937.10543, -58.56910,
,,,986.42677, -58.56910,
,,,1035.74811, -60.96910,
,,,1085.06945, -60.96910,
,,,1134.39079, -60.96910,
,,,1183.71213, -60.96910,
,,,1233.03347, -58.56910,
,,,1282.35481, -60.96910,
,,,1331.67615, -60.96910,
,,,1380.99749, -60.96910,
,,,1430.31883, -60.96910,
,,,1479.64017, -60.96910,
,,,1528.96151, -60.96910,
,,,1578.28285, -60.96910,
,,,1627.60419, -60.96910,
,,,1676.92553, -60.96910,
,,,1726.24687, -60.96910,
,,,1775.56821, -60.96910,
,,,1824.88955, -60.96910,
,,,1874.21089, -58.56910,
,,,1923.53223, -58.56910,
,,,1972.85357, -58.56910,
,,,2022.17491, -60.96910,
,,,2071.49625, -60.96910,
,,,2120.81759, -60.96910,
,,,2170.13893, -58.56910,
,,,2219.46027, -60.96910,
,,,2268.78161, -60.96910,
,,,2318.10295, -60.96910,
,,,2367.42429, -55.36910,
,,,2416.74563, -54.56910,
,,,2466.06697, -60.96910,
,,,2515.38831, -60.96910,
,,,2564.70965, -60.96910,
,,,2614.03099, -60.96910,
,,,2663.35233, -60.96910,
,,,2712.67367, -58.56910,
,,,2761.99501, -60.96910,
,,,2811.31635, -58.56910,
,,,2860.63769, -60.96910,
,,,2909.95903, -60.96910,
,,,2959.28037, -54.56910,
,,,3008.60171, -54.56910,
,,,3057.92305, -60.96910,
,,,3107.24439, -60.96910,
,,,3156.56573, -60.96910,
,,,3205.88707, -60.96910,
,,,3255.20841, -60.96910,
,,,3304.52975, -60.96910,
,,,3353.85109, -55.36910,
,,,3403.17243, -60.96910,
,,,3452.49377, -60.96910,
,,,3501.81511, -60.96910,
,,,3551.13645, -60.96910,
,,,3600.45779, -58.56910,
,,,3649.77913, -60.96910,
,,,3699.10047, -60.96910,
,,,3748.42181, -60.96910,
,,,3797.74315, -58.56910,
,,,3847.06449, -58.56910,
,,,3896.38583, -60.96910,
,,,3945.70717, -60.96910,
,,,3995.02851, -58.56910,
,,,4044.34985, -60.96910,
,,,4093.67119, -60.96910,
,,,4142.99253, -60.96910,
,,,4192.31387, -60.96910,
,,,4241.63521, -60.96910,
,,,4290.95655, -60.96910,
,,,4340.27789, -60.96910,
,,,4389.59923, -58.56910,
,,,4438.92057, -58.56910,
,,,4488.24191, -58.56910,
,,,4537.56325, -60.96910,
,,,4586.88459, -60.96910,
,,,4636.20593, -60.96910,
,,,4685.52727, -60.96910,
,,,4734.84861, -60.96910,
,,,4784.16995, -60.96910,
,,,4833.49129, -60.96910,
,,,4882.81263, -60.96910,
,,,4932.13397, -60.96910,
,,,4981.45531, -60.96910,
,,,5030.77665, -60.96910,
,,,5080.09799, -60.96910,
,,,5129.41933, -60.96910,
,,,5178.74067, -60.96910,
,,,5228.06201, -60.96910,
,,,5277.38335, -58.56910,
,,,5326.70469, -58.56910,
,,,5376.02603, -60.96910,
,,,5425.34737, -55.36910,
,,,5474.66871, -60.96910,
,,,5523.99005, -60.96910,
,,,5573.31139, -58.56910,
,,,5622.63273, -58.56910,
,,,5671.95407, -60.96910,
,,,5721.27541, -55.36910,
,,,5770.59675, -60.96910,
,,,5819.91809, -58.56910,
,,,5869.23943, -60.96910,
,,,5918.56077, -60.96910,
,,,5967.88211, -60.96910,
,,,6017.20345, -58.56910,
,,,6066.52479, -60.96910,
,,,6115.84613, -58.56910,
,,,6165.16747, -58.56910,
,,,6214.48881, -60.96910,
,,,6263.81015, -60.96910,
,,,6313.13149, -60.96910,
,,,6362.45283, -60.96910,
,,,6411.77417, -60.96910,
,,,6461.09551, -60.96910,
,,,6510.41685, -60.96910,
,,,6559.73819, -60.96910,
,,,6609.05953, -60.96910,
,,,6658.38087, -60.96910,
,,,6707.70221, -58.56910,
,,,6757.02355, -60.96910,
,,,6806.34489, -60.96910,
,,,6855.66623, -60.96910,
,,,6904.98757, -54.56910,
,,,6954.30891, -54.56910,
,,,7003.63025, -58.56910,
,,,7052.95159, -60.96910,
,,,7102.27293, -58.56910,
,,,7151.59427, -58.56910,
,,,7200.91561, -60.96910,
,,,7250.23695, -60.96910,
,,,7299.55829, -60.96910,
,,,7348.87963, -60.96910,
,,,7398.20097, -60.96910,
,,,7447.52231, -58.56910,
,,,7496.84365, -60.96910,
,,,7546.16499, -60.96910,
,,,7595.48633, -60.96910,
,,,7644.80767, -60.96910,
,,,7694.12901, -58.56910,
,,,7743.45035, -60.96910,
,,,7792.77169, -60.96910,
,,,7842.09303, -60.96910,
,,,7891.41437, -60.96910,
,,,7940.73571, -60.96910,
,,,7990.05705, -60.96910,
,,,8039.37839, -60.96910,
,,,8088.69973, -60.96910,
,,,8138.02107, -60.96910,
,,,8187.34241, -60.96910,
,,,8236.66375, -58.56910,
,,,8285.98509, -58.56910,
,,,8335.30643, -60.96910,
,,,8384.62777, -60.96910,
,,,8433.94911, -60.96910,
,,,8483.27045, -60.96910,
,,,8532.59179, -60.96910,
,,,8581.91313, -60.96910,
,,,8631.23447, -60.96910,
,,,8680.55581, -58.56910,
,,,8729.87715, -60.96910,
,,,8779.19849, -60.96910,
,,,8828.51983, -60.96910,
,,,8877.84117, -58.56910,
,,,8927.16251, -55.36910,
,,,8976.48385, -55.36910,
,,,9025.80519, -60.96910,
,,,9075.12653, -58.56910,
,,,9124.44787, -60.96910,
,,,9173.76921, -60.96910,
,,,9223.09055, -60.96910,
,,,9272.41189, -60.96910,
,,,9321.73323, -58.56910,
,,,9371.05457, -60.96910,
,,,9420.37591, -58.56910,
,,,9469.69725, -60.96910,
,,,9519.01859, -58.56910,
,,,9568.33993, -54.56910,
,,,9617.66127, -60.96910,
,,,9666.98261, -51.36910,
,,,9716.30395, -48.56910,
,,,9765.62529, -39.76910,
,,,9814.94663, -34.56910,
,,,9864.26797, -19.36910,
,,,9913.58931,  -0.56910,
,,,9962.91065,   3.03090,
,,,10012.23199,   3.43090,
,,,10061.55333,   1.83090,
,,,10110.87467,  -8.56910,
,,,10160.19601, -28.16910,
,,,10209.51735, -40.56910,
,,,10258.83869, -44.16910,
,,,10308.16003, -46.96910,
,,,10357.48137, -55.36910,
,,,10406.80271, -60.96910,
,,,10456.12405, -54.56910,
,,,10505.44539, -58.56910,
,,,10554.76673, -55.36910,
,,,10604.08807, -60.96910,
,,,10653.40941, -60.96910,
,,,10702.73075, -60.96910,
,,,10752.05209, -60.96910,
,,,10801.37343, -58.56910,
,,,10850.69477, -60.96910,
,,,10900.01611, -60.96910,
,,,10949.33745, -60.96910,
,,,10998.65879, -51.76910,
,,,11047.98013, -54.56910,
,,,11097.30147, -54.56910,
,,,11146.62281, -54.56910,
,,,11195.94415, -60.96910,
,,,11245.26549, -58.56910,
,,,11294.58683, -60.96910,
,,,11343.90817, -60.96910,
,,,11393.22951, -60.96910,
,,,11442.55085, -60.96910,
,,,11491.87219, -60.96910,
,,,11541.19353, -60.96910,
,,,11590.51487, -60.96910,
,,,11639.83621, -60.96910,
,,,11689.15755, -60.96910,
,,,11738.47889, -60.96910,
,,,11787.80023, -60.96910,
,,,11837.12157, -60.96910,
,,,11886.44291, -60.96910,
,,,11935.76425, -58.56910,
,,,11985.08559, -60.96910,
,,,12034.40693, -58.56910,
,,,12083.72827, -60.96910,
,,,12133.04961, -60.96910,
,,,12182.37095, -60.96910,
,,,12231.69229, -60.96910,
,,,12281.01363, -60.96910,
,,,12330.33497, -60.96910,
,,,12379.65631, -60.96910,
,,,12428.97765, -60.96910,
,,,12478.29899, -60.96910,
,,,12527.62033, -60.96910,
,,,12576.94167, -60.96910,
,,,12626.26301, -60.96910,
,,,12675.58435, -60.96910,
,,,12724.90569, -60.96910,
,,,12774.22703, -60.96910,
,,,12823.54837, -60.96910,
,,,12872.86971, -60.96910,
,,,12922.19105, -60.96910,
,,,12971.51239, -60.96910,
,,,13020.83373, -60.96910,
,,,13070.15507, -60.96910,
,,,13119.47641, -60.96910,
,,,13168.79775, -60.96910,
,,,13218.11909, -58.56910,
,,,13267.44043, -58.56910,
,,,13316.76177, -58.56910,
,,,13366.08311, -60.96910,
,,,13415.40445, -60.96910,
,,,13464.72579, -60.96910,
,,,13514.04713, -60.96910,
,,,13563.36847, -60.96910,
,,,13612.68981, -58.56910,
,,,13662.01115, -54.56910,
,,,13711.33249, -60.96910,
,,,13760.65383, -60.96910,
,,,13809.97517, -60.96910,
,,,13859.29651, -60.96910,
,,,13908.61785, -60.96910,
,,,13957.93919, -54.56910,
,,,14007.26053, -58.56910,
,,,14056.58187, -60.96910,
,,,14105.90321, -60.96910,
,,,14155.22455, -60.96910,
,,,14204.54589, -55.36910,
,,,14253.86723, -60.96910,
,,,14303.18857, -60.96910,
,,,14352.50991, -60.96910,
,,,14401.83125, -60.96910,
,,,14451.15259, -58.56910,
,,,14500.47393, -60.96910,
,,,14549.79527, -60.96910,
,,,14599.11661, -60.96910,
,,,14648.43795, -58.56910,
,,,14697.75929, -60.96910,
,,,14747.08063, -60.96910,
,,,14796.40197, -58.56910,
,,,14845.72331, -58.56910,
,,,14895.04465, -58.56910,
,,,14944.36599, -58.56910,
,,,14993.68733, -54.56910,
,,,15043.00867, -60.96910,
,,,15092.33001, -55.36910,
,,,15141.65135, -60.96910,
,,,15190.97269, -60.96910,
,,,15240.29403, -60.96910,
,,,15289.61537, -60.96910,
,,,15338.93671, -60.96910,
,,,15388.25805, -58.56910,
,,,15437.57939, -60.96910,
,,,15486.90073, -60.96910,
,,,15536.22207, -54.56910,
,,,15585.54341, -58.56910,
,,,15634.86475, -60.96910,
,,,15684.18609, -60.96910,
,,,15733.50743, -60.96910,
,,,15782.82877, -60.96910,
,,,15832.15011, -60.96910,
,,,15881.47145, -58.56910,
,,,15930.79279, -58.56910,
,,,15980.11413, -58.56910,
,,,16029.43547, -60.96910,
,,,16078.75681, -58.56910,
,,,16128.07815, -58.56910,
,,,16177.39949, -58.56910,
,,,16226.72083, -60.96910,
,,,16276.04217, -60.96910,
,,,16325.36351, -60.96910,
,,,16374.68485, -60.96910,
,,,16424.00619, -60.96910,
,,,16473.32753, -60.96910,
,,,16522.64887, -60.96910,
,,,16571.97021, -60.96910,
,,,16621.29155, -60.96910,
,,,16670.61289, -60.96910,
,,,16719.93423, -60.96910,
,,,16769.25557, -60.96910,
,,,16818.57691, -60.96910,
,,,16867.89825, -58.56910,
,,,16917.21959, -58.56910,
,,,16966.54093, -60.96910,
,,,17015.86227, -60.96910,
,,,17065.18361, -60.96910,
,,,17114.50495, -60.96910,
,,,17163.82629, -60.96910,
,,,17213.14763, -60.96910,
,,,17262.46897, -60.96910,
,,,17311.79031, -60.96910,
,,,17361.11165, -60.96910,
,,,17410.43299, -58.56910,
,,,17459.75433, -58.56910,
,,,17509.07567, -60.96910,
,,,17558.39701, -60.96910,
,,,17607.71835, -58.56910,
,,,17657.03969, -58.56910,
,,,17706.36103, -60.96910,
,,,17755.68237, -58.56910,
,,,17805.00371, -60.96910,
,,,17854.32505, -60.96910,
,,,17903.64639, -60.96910,
,,,17952.96773, -60.96910,
,,,18002.28907, -60.96910,
,,,18051.61041, -60.96910,
,,,18100.93175, -60.96910,
,,,18150.25309, -60.96910,
,,,18199.57443, -60.96910,
,,,18248.89577, -58.56910,
,,,18298.21711, -58.56910,
,,,18347.53845, -60.96910,
,,,18396.85979, -60.96910,
,,,18446.18113, -60.96910,
,,,18495.50247, -60.96910,
,,,18544.82381, -60.96910,
,,,18594.14515, -55.36910,
,,,18643.46649, -55.36910,
,,,18692.78783, -60.96910,
,,,18742.10917, -60.96910,
,,,18791.43051, -58.56910,
,,,18840.75185, -60.96910,
,,,18890.07319, -60.96910,
,,,18939.39453, -60.96910,
,,,18988.71587, -60.96910,
,,,19038.03721, -60.96910,
,,,19087.35855, -60.96910,
,,,19136.67989, -60.96910,
,,,19186.00123, -60.96910,
,,,19235.32257, -60.96910,
,,,19284.64391, -60.96910,
,,,19333.96525, -60.96910,
,,,19383.28659, -60.96910,
,,,19432.60793, -60.96910,
,,,19481.92927, -60.96910,
,,,19531.25061, -60.96910,
,,,19580.57195, -58.56910,
,,,19629.89329, -54.56910,
,,,19679.21463, -54.56910,
,,,19728.53597, -54.56910,
,,,19777.85731, -58.56910,
,,,19827.17865, -60.96910,
,,,19876.49999, -60.96910,
,,,19925.82133, -51.76910,
,,,19975.14267, -49.36910,
,,,20024.46401, -47.36910,
,,,20073.78535, -51.76910,
,,,20123.10669, -60.96910,
,,,20172.42803, -60.96910,
,,,20221.74937, -58.56910,
,,,20271.07071, -60.96910,
,,,20320.39205, -60.96910,
,,,20369.71339, -60.96910,
,,,20419.03473, -58.56910,
,,,20468.35607, -60.96910,
,,,20517.67741, -55.36910,
,,,20566.99875, -54.56910,
,,,20616.32009, -58.56910,
,,,20665.64143, -60.96910,
,,,20714.96277, -58.56910,
,,,20764.28411, -58.56910,
,,,20813.60545, -60.96910,
,,,20862.92679, -60.96910,
,,,20912.24813, -58.56910,
,,,20961.56947, -60.96910,
,,,21010.89081, -54.56910,
,,,21060.21215, -54.56910,
,,,21109.53349, -54.56910,
,,,21158.85483, -60.96910,
,,,21208.17617, -60.96910,
,,,21257.49751, -58.56910,
,,,21306.81885, -54.56910,
,,,21356.14019, -58.56910,
,,,21405.46153, -54.56910,
,,,21454.78287, -60.96910,
,,,21504.10421, -60.96910,
,,,21553.42555, -60.96910,
,,,21602.74689, -60.96910,
,,,21652.06823, -60.96910,
,,,21701.38957, -60.96910,
,,,21750.71091, -58.56910,
,,,21800.03225, -60.96910,
,,,21849.35359, -60.96910,
,,,21898.67493, -60.96910,
,,,21947.99627, -60.96910,
,,,21997.31761, -58.56910,
,,,22046.63895, -54.56910,
,,,22095.96029, -58.56910,
,,,22145.28163, -60.96910,
,,,22194.60297, -60.96910,
,,,22243.92431, -60.96910,
,,,22293.24565, -60.96910,
,,,22342.56699, -60.96910,
,,,22391.88833, -58.56910,
,,,22441.20967, -60.96910,
,,,22490.53101, -60.96910,
,,,22539.85235, -60.96910,
,,,22589.17369, -60.96910,
,,,22638.49503, -60.96910,
,,,22687.81637, -60.96910,
,,,22737.13771, -60.96910,
,,,22786.45905, -60.96910,
,,,22835.78039, -58.56910,
,,,22885.10173, -58.56910,
,,,22934.42307, -58.56910,
,,,22983.74441, -58.56910,
,,,23033.06575, -60.96910,
,,,23082.38709, -60.96910,
,,,23131.70843, -60.96910,
,,,23181.02977, -60.96910,
,,,23230.35111, -60.96910,
,,,23279.67245, -60.96910,
,,,23328.99379, -60.96910,
,,,23378.31513, -60.96910,
,,,23427.63647, -60.96910,
,,,23476.95781, -60.96910,
,,,23526.27915, -55.36910,
,,,23575.60049, -58.56910,
,,,23624.92183, -58.56910,
,,,23674.24317, -60.96910,
,,,23723.56451, -58.56910,
,,,23772.88585, -60.96910,
,,,23822.20719, -54.56910,
,,,23871.52853, -58.56910,
,,,23920.84987, -60.96910,
,,,23970.17121, -54.56910,
,,,24019.49255, -51.76910,
,,,24068.81389, -60.96910,
,,,24118.13523, -58.56910,
,,,24167.45657, -55.36910,
,,,24216.77791, -60.96910,
,,,24266.09925, -60.96910,
,,,24315.42059, -60.96910,
,,,24364.74193, -60.96910,
,,,24414.06327, -60.96910,
,,,24463.38461, -58.56910,
,,,24512.70595, -54.56910,
,,,24562.02729, -55.36910,
,,,24611.34863, -60.96910,
,,,24660.66997, -60.96910,
,,,24709.99131, -60.96910,
,,,24759.31265, -60.96910,
,,,24808.63399, -60.96910,
,,,24857.95533, -60.96910,
,,,24907.27667, -60.96910,
,,,24956.59801, -60.96910,
,,,25005.91935, -58.56910,
,,,25055.24069, -60.96910,
,,,25104.56203, -60.96910,
,,,25153.88337, -58.56910,
,,,25203.20471, -60.96910,
,,,25252.52605, -60.96910,
,,,25301.84739, -60.96910,
,,,25351.16873, -60.96910,
,,,25400.49007, -60.96910,
,,,25449.81141, -60.96910,
,,,25499.13275, -60.96910,
,,,25548.45409, -60.96910,
,,,25597.77543, -60.96910,
,,,25647.09677, -60.96910,
,,,25696.41811, -58.56910,
,,,25745.73945, -58.56910,
,,,25795.06079, -60.96910,
,,,25844.38213, -60.96910,
,,,25893.70347, -60.96910,
,,,25943.02481, -60.96910,
,,,25992.34615, -54.56910,
,,,26041.66749, -58.56910,
,,,26090.98883, -60.96910,
,,,26140.31017, -60.96910,
,,,26189.63151, -58.56910,
,,,26238.95285, -60.96910,
,,,26288.27419, -58.56910,
,,,26337.59553, -58.56910,
,,,26386.91687, -60.96910,
,,,26436.23821, -60.96910,
,,,26485.55955, -60.96910,
,,,26534.88089, -60.96910,
,,,26584.20223, -60.96910,
,,,26633.52357, -60.96910,
,,,26682.84491, -60.96910,
,,,26732.16625, -60.96910,
,,,26781.48759, -60.96910,
,,,26830.80893, -60.96910,
,,,26880.13027, -60.96910,
,,,26929.45161, -60.96910,
,,,26978.77295, -60.96910,
,,,27028.09429, -60.96910,
,,,27077.41563, -60.96910,
,,,27126.73697, -60.96910,
,,,27176.05831, -60.96910,
,,,27225.37965, -60.96910,
,,,27274.70099, -58.56910,
,,,27324.02233, -60.96910,
,,,27373.34367, -60.96910,
,,,27422.66501, -60.96910,
,,,27471.98635, -60.96910,
,,,27521.30769, -60.96910,
,,,27570.62903, -60.96910,
,,,27619.95037, -60.96910,
,,,27669.27171, -60.96910,
,,,27718.59305, -60.96910,
,,,27767.91439, -58.56910,
,,,27817.23573, -58.56910,
,,,27866.55707, -60.96910,
,,,27915.87841, -60.96910,
,,,27965.19975, -54.56910,
,,,28014.52109, -55.36910,
,,,28063.84243, -55.36910,
,,,28113.16377, -55.36910,
,,,28162.48511, -55.36910,
,,,28211.80645, -55.36910,
,,,28261.12779, -60.96910,
,,,28310.44913, -54.56910,
,,,28359.77047, -55.36910,
,,,28409.09181, -55.36910,
,,,28458.41315, -54.56910,
,,,28507.73449, -55.36910,
,,,28557.05583, -60.96910,
,,,28606.37717, -60.96910,
,,,28655.69851, -60.96910,
,,,28705.01985, -60.96910,
,,,28754.34119, -58.56910,
,,,28803.66253, -58.56910,
,,,28852.98387, -60.96910,
,,,28902.30521, -60.96910,
,,,28951.62655, -60.96910,
,,,29000.94789, -60.96910,
,,,29050.26923, -60.96910,
,,,29099.59057, -60.96910,
,,,29148.91191, -60.96910,
,,,29198.23325, -60.96910,
,,,29247.55459, -60.96910,
,,,29296.87593, -58.56910,
,,,29346.19727, -58.56910,
,,,29395.51861, -60.96910,
,,,29444.83995, -60.96910,
,,,29494.16129, -60.96910,
,,,29543.48263, -60.96910,
,,,29592.80397, -60.96910,
,,,29642.12531, -60.96910,
,,,29691.44665, -60.96910,
,,,29740.76799, -58.56910,
,,,29790.08933, -60.96910,
,,,29839.41067, -60.96910,
,,,29888.73201, -54.56910,
,,,29938.05335, -46.16910,
,,,29987.37469, -46.16910,
,,,30036.69603, -46.16910,
,,,30086.01737, -50.16910,
,,,30135.33871, -60.96910,
,,,30184.66005, -58.56910,
,,,30233.98139, -60.96910,
,,,30283.30273, -60.96910,
,,,30332.62407, -60.96910,
,,,30381.94541, -60.96910,
,,,30431.26675, -58.56910,
,,,30480.58809, -58.56910,
,,,30529.90943, -58.56910,
,,,30579.23077, -60.96910,
,,,30628.55211, -60.96910,
,,,30677.87345, -60.96910,
,,,30727.19479, -60.96910,
,,,30776.51613, -60.96910,
,,,30825.83747, -60.96910,
,,,30875.15881, -55.36910,
,,,30924.48015, -58.56910,
,,,30973.80149, -55.36910,
,,,31023.12283, -55.36910,
,,,31072.44417, -55.36910,
,,,31121.76551, -60.96910,
,,,31171.08685, -60.96910,
,,,31220.40819, -58.56910,
,,,31269.72953, -60.96910,
,,,31319.05087, -60.96910,
,,,31368.37221, -60.96910,
,,,31417.69355, -58.56910,
,,,31467.01489, -58.56910,
,,,31516.33623, -60.96910,
,,,31565.65757, -58.56910,
,,,31614.97891, -60.96910,
,,,31664.30025, -60.96910,
,,,31713.62159, -60.96910,
,,,31762.94293, -60.96910,
,,,31812.26427, -60.96910,
,,,31861.58561, -58.56910,
,,,31910.90695, -58.56910,
,,,31960.22829, -58.56910,
,,,32009.54963, -60.96910,
,,,32058.87097, -58.56910,
,,,32108.19231, -60.96910,
,,,32157.51365, -60.96910,
,,,32206.83499, -60.96910,
,,,32256.15633, -60.96910,
,,,32305.47767, -60.96910,
,,,32354.79901, -58.56910,
,,,32404.12035, -60.96910,
,,,32453.44169, -60.96910,
,,,32502.76303, -60.96910,
,,,32552.08437, -60.96910,
,,,32601.40571, -60.96910,
,,,32650.72705, -58.56910,
,,,32700.04839, -60.96910,
,,,32749.36973, -60.96910,
,,,32798.69107, -60.96910,
,,,32848.01241, -58.56910,
,,,32897.33375, -60.96910,
,,,32946.65509, -60.96910,
,,,32995.97643, -60.96910,
,,,33045.29777, -58.56910,
,,,33094.61911, -58.56910,
,,,33143.94045, -58.56910,
,,,33193.26179, -54.56910,
,,,33242.58313, -60.96910,
,,,33291.90447, -60.96910,
,,,33341.22581, -60.96910,
,,,33390.54715, -60.96910,
,,,33439.86849, -60.96910,
,,,33489.18983, -60.96910,
,,,33538.51117, -60.96910,
,,,33587.83251, -60.96910,
,,,33637.15385, -60.96910,
,,,33686.47519, -60.96910,
,,,33735.79653, -60.96910,
,,,33785.11787, -60.96910,
,,,33834.43921, -60.96910,
,,,33883.76055, -60.96910,
,,,33933.08189, -60.96910,
,,,33982.40323, -60.96910,
,,,34031.72457, -60.96910,
,,,34081.04591, -58.56910,
,,,34130.36725, -60.96910,
,,,34179.68859, -60.96910,
,,,34229.00993, -60.96910,
,,,34278.33127, -60.96910,
,,,34327.65261, -58.56910,
,,,34376.97395, -60.96910,
,,,34426.29529, -60.96910,
,,,34475.61663, -60.96910,
,,,34524.93797, -60.96910,
,,,34574.25931, -60.96910,
,,,34623.58065, -60.96910,
,,,34672.90199, -60.96910,
,,,34722.22333, -60.96910,
,,,34771.54467, -60.96910,
,,,34820.86601, -60.96910,
,,,34870.18735, -60.96910,
,,,34919.50869, -60.96910,
,,,34968.83003, -58.56910,
,,,35018.15137, -60.96910,
,,,35067.47271, -58.56910,
,,,35116.79405, -58.56910,
,,,35166.11539, -60.96910,
,,,35215.43673, -60.96910,
,,,35264.75807, -55.36910,
,,,35314.07941, -58.56910,
,,,35363.40075, -58.56910,
,,,35412.72209, -55.36910,
,,,35462.04343, -58.56910,
,,,35511.36477, -60.96910,
,,,35560.68611, -60.96910,
,,,35610.00745, -60.96910,
,,,35659.32879, -58.56910,
,,,35708.65013, -60.96910,
,,,35757.97147, -58.56910,
,,,35807.29281, -60.96910,
,,,35856.61415, -60.96910,
,,,35905.93549, -55.36910,
,,,35955.25683, -60.96910,
,,,36004.57817, -58.56910,
