Data/ALL0054/F0054MTH.CSV

Record Length,1.024000e+03,,          0.00000, -60.96910,
Sample Interval,4.932134e+02,,        493.21338, -46.16910,
Trigger Point,0.000000000000e+00,,        986.42677, -44.16910,
,,,       1479.64015, -41.36910,
,,,       1972.85354, -44.56910,
,,,       2466.06692, -45.36910,
Source,MATH,,       2959.28030, -46.16910,
Vertical Units,dB,,       3452.49369, -50.16910,
Vertical Scale,1.000000e+01,,       3945.70707, -45.36910,
Vertical Offset,0.000000e+00,,       4438.92045, -50.16910,
Horizontal Units,Hz,,       4932.13384, -38.96910,
Horizontal Scale,5.050505e+04,,       5425.34722, -35.76910,
Pt Fmt,Y,,       5918.56061, -34.16910,
Yzero,-2.096910e+01,,       6411.77399, -36.16910,
Probe Atten,1.000000e+00,,       6904.98737, -42.56910,
Model Number,TDS1012C-EDU,,       7398.20076, -40.96910,
Serial Number,C013699,,       7891.41414, -36.16910,
Firmware Version,FV:v25.07,,       8384.62753, -25.36910,
,,,8877.84091,  -8.16910,
,,,9371.05429,   3.83090,
,,,9864.26767,   5.43090,
,,,10357.48105,   5.43090,
,,,10850.69443,   2.23090,
,,,11343.90781, -13.76910,
,,,11837.12119, -29.36910,
,,,12330.33457, -36.56910,
,,,12823.54795, -41.76910,
,,,13316.76133, -41.76910,
,,,13809.97471, -35.76910,
,,,14303.18809, -33.76910,
,,,14796.40147, -36.56910,
,,,15289.61485, -40.56910,
,,,15782.82823, -47.36910,
,,,16276.04161, -47.36910,
,,,16769.25499, -50.16910,
,,,17262.46837, -45.76910,
,,,17755.68175, -45.36910,
,,,18248.89513, -42.96910,
,,,18742.10851, -42.56910,
,,,19235.32189, -45.36910,
,,,19728.53527, -48.96910,
,,,20221.74865, -48.96910,
,,,20714.96203, -45.76910,
,,,21208.17541, -43.76910,
,,,21701.38879, -41.36910,
,,,22194.60217, -44.56910,
,,,22687.81555, -45.36910,
,,,23181.02893, -47.36910,
,,,23674.24231, -51.36910,
,,,24167.45569, -45.36910,
,,,24660.66907, -45.76910,
,,,25153.88245, -38.16910,
,,,25647.09583, -35.76910,
,,,26140.30921, -34.16910,
,,,26633.52259, -39.36910,
,,,27126.73597, -45.76910,
,,,27619.94935, -48.96910,
,,,28113.16273, -52.56910,
,,,28606.37611, -35.76910,
,,,29099.58949, -13.76910,
,,,29592.80287,  -4.96910,
,,,30086.01625,  -4.16910,
,,,30579.22963,  -4.16910,
,,,31072.44301,  -8.96910,
,,,31565.65639, -31.76910,
,,,32058.86977, -52.56910,
,,,32552.08315, -48.56910,
,,,33045.29653, -46.56910,
,,,33538.50991, -40.16910,
,,,34031.72329, -34.16910,
,,,34524.93667, -33.76910,
,,,35018.15005, -36.56910,
,,,35511.36343, -42.56910,
,,,36004.57681, -46.56910,
,,,36497.79019, -47.36910,
,,,36991.00357, -48.96910,
,,,37484.21695, -45.76910,
,,,37977.43033, -45.76910,
,,,38470.64371, -42.16910,
,,,38963.85709, -41.36910,
,,,39457.07047, -46.16910,
,,,39950.28385, -49.36910,
,,,40443.49723, -48.56910,
,,,40936.71061, -45.76910,
,,,41429.92399, -43.36910,
,,,41923.13737, -41.76910,
,,,42416.35075, -44.96910,
,,,42909.56413, -45.36910,
,,,43402.77751, -48.56910,
,,,43895.99089, -50.16910,
,,,44389.20427, -48.96910,
,,,44882.41765, -43.76910,
,,,45375.63103, -38.16910,
,,,45868.84441, -34.96910,
,,,46362.05779, -35.36910,
,,,46855.27117, -42.16910,
,,,47348.48455, -50.16910,
,,,47841.69793, -58.56910,
,,,48334.91131, -50.16910,
,,,48828.12469, -50.16910,
,,,49321.33807, -14.96910,
,,,49814.55145,  -8.96910,
,,,50307.76483,  -8.56910,
,,,50800.97821,  -8.96910,
,,,51294.19159, -16.16910,
,,,51787.40497, -51.36910,
,,,52280.61835, -52.56910,
,,,52773.83173, -48.96910,
,,,53267.04511, -45.36910,
,,,53760.25849, -38.56910,
,,,54253.47187, -33.36910,
,,,54746.68525, -34.56910,
,,,55239.89863, -37.36910,
,,,55733.11201, -44.16910,
,,,56226.32539, -45.76910,
,,,56719.53877, -47.36910,
,,,57212.75215, -47.36910,
,,,57705.96553, -44.96910,
,,,58199.17891, -43.76910,
,,,58692.39229, -40.96910,
,,,59185.60567, -42.96910,
,,,59678.81905, -46.16910,
,,,60172.03243, -50.16910,
,,,60665.24581, -47.36910,
,,,61158.45919, -44.56910,
,,,61651.67257, -41.36910,
,,,62144.88595, -42.16910,
,,,62638.09933, -44.56910,
,,,63131.31271, -45.76910,
,,,63624.52609, -47.36910,
,,,64117.73947, -48.96910,
,,,64610.95285, -50.16910,
,,,65104.16623, -42.16910,
,,,65597.37961, -37.76910,
,,,66090.59299, -34.96910,
,,,66583.80637, -36.16910,
,,,67077.01975, -42.96910,
,,,67570.23313, -48.56910,
,,,68063.44651, -51.36910,
,,,68556.65989, -43.76910,
,,,69049.87327, -36.96910,
,,,69543.08665, -15.76910,
,,,70036.30003, -11.76910,
,,,70529.51341, -11.36910,
,,,71022.72679, -12.56910,
,,,71515.94017, -22.16910,
,,,72009.15355, -48.56910,
,,,72502.36693, -50.16910,
,,,72995.58031, -48.96910,
,,,73488.79369, -44.96910,
,,,73982.00707, -36.56910,
,,,74475.22045, -32.96910,
,,,74968.43383, -34.96910,
,,,75461.64721, -37.76910,
,,,75954.86059, -47.36910,
,,,76448.07397, -45.36910,
,,,76941.28735, -51.36910,
,,,77434.50073, -46.56910,
,,,77927.71411, -46.56910,
,,,78420.92749, -43.76910,
,,,78914.14087, -39.76910,
,,,79407.35425, -42.16910,
,,,79900.56763, -45.76910,
,,,80393.78101, -54.56910,
,,,80886.99439, -48.56910,
,,,81380.20777, -44.56910,
,,,81873.42115, -41.36910,
,,,82366.63453, -42.96910,
,,,82859.84791, -45.76910,
,,,83353.06129, -45.76910,
,,,83846.27467, -48.56910,
,,,84339.48805, -45.76910,
,,,84832.70143, -51.76910,
,,,85325.91481, -40.16910,
,,,85819.12819, -36.56910,
,,,86312.34157, -34.96910,
,,,86805.55495, -37.36910,
,,,87298.76833, -44.16910,
,,,87791.98171, -48.96910,
,,,88285.19509, -54.56910,
,,,88778.40847, -40.56910,
,,,89271.62185, -30.96910,
,,,89764.83523, -16.56910,
,,,90258.04861, -13.76910,
,,,90751.26199, -13.36910,
,,,91244.47537, -15.76910,
,,,91737.68875, -28.96910,
,,,92230.90213, -52.56910,
,,,92724.11551, -51.76910,
,,,93217.32889, -47.36910,
,,,93710.54227, -42.96910,
,,,94203.75565, -35.36910,
,,,94696.96903, -32.96910,
,,,95190.18241, -34.96910,
,,,95683.39579, -38.16910,
,,,96176.60917, -48.96910,
,,,96669.82255, -45.36910,
,,,97163.03593, -50.16910,
,,,97656.24931, -45.36910,
,,,98149.46269, -46.16910,
,,,98642.67607, -42.56910,
,,,99135.88945, -40.16910,
,,,99629.10283, -44.16910,
,,,100122.31621, -46.16910,
,,,100615.52959, -55.36910,
,,,101108.74297, -47.36910,
,,,101601.95635, -43.76910,
,,,102095.16973, -41.36910,
,,,102588.38311, -44.96910,
,,,103081.59649, -47.36910,
,,,103574.80987, -46.96910,
,,,104068.02325, -50.16910,
,,,104561.23663, -45.36910,
,,,105054.45001, -48.96910,
,,,105547.66339, -39.76910,
,,,106040.87677, -36.96910,
,,,106534.09015, -34.56910,
,,,107027.30353, -38.56910,
,,,107520.51691, -44.56910,
,,,108013.73029, -48.96910,
,,,108506.94367, -60.96910,
,,,109000.15705, -40.96910,
,,,109493.37043, -27.36910,
,,,109986.58381, -16.96910,
,,,110479.79719, -15.36910,
,,,110973.01057, -15.36910,
,,,111466.22395, -19.36910,
,,,111959.43733, -35.76910,
,,,112452.65071, -54.56910,
,,,112945.86409, -52.56910,
,,,113439.07747, -47.36910,
,,,113932.29085, -40.56910,
,,,114425.50423, -34.16910,
,,,114918.71761, -32.96910,
,,,115411.93099, -35.36910,
,,,115905.14437, -39.76910,
,,,116398.35775, -48.96910,
,,,116891.57113, -46.16910,
,,,117384.78451, -48.56910,
,,,117877.99789, -46.96910,
,,,118371.21127, -45.36910,
,,,118864.42465, -41.76910,
,,,119357.63803, -41.36910,
,,,119850.85141, -44.56910,
,,,120344.06479, -46.56910,
,,,120837.27817, -51.36910,
,,,121330.49155, -46.96910,
,,,121823.70493, -42.56910,
,,,122316.91831, -42.16910,
,,,122810.13169, -45.36910,
,,,123303.34507, -45.36910,
,,,123796.55845, -46.56910,
,,,124289.77183, -48.96910,
,,,124782.98521, -46.96910,
,,,125276.19859, -45.76910,
,,,125769.41197, -38.96910,
,,,126262.62535, -35.76910,
,,,126755.83873, -34.96910,
,,,127249.05211, -40.16910,
,,,127742.26549, -45.76910,
,,,128235.47887, -51.36910,
,,,128728.69225, -54.56910,
,,,129221.90563, -44.56910,
,,,129715.11901, -24.96910,
,,,130208.33239, -17.76910,
,,,130701.54577, -16.96910,
,,,131194.75915, -16.96910,
,,,131687.97253, -22.96910,
,,,132181.18591, -44.16910,
,,,132674.39929, -51.76910,
,,,133167.61267, -51.76910,
,,,133660.82605, -46.16910,
,,,134154.03943, -39.36910,
,,,134647.25281, -33.36910,
,,,135140.46619, -33.36910,
,,,135633.67957, -35.76910,
,,,136126.89295, -41.76910,
,,,136620.10633, -46.56910,
,,,137113.31971, -51.76910,
,,,137606.53309, -48.96910,
,,,138099.74647, -47.36910,
,,,138592.95985, -44.56910,
,,,139086.17323, -42.16910,
,,,139579.38661, -41.36910,
,,,140072.59999, -45.36910,
,,,140565.81337, -48.96910,
,,,141059.02675, -50.16910,
,,,141552.24013, -45.36910,
,,,142045.45351, -42.56910,
,,,142538.66689, -42.56910,
,,,143031.88027, -46.16910,
,,,143525.09365, -46.16910,
,,,144018.30703, -48.56910,
,,,144511.52041, -47.36910,
,,,145004.73379, -45.76910,
,,,145497.94717, -42.96910,
,,,145991.16055, -38.16910,
,,,146484.37393, -35.36910,
,,,146977.58731, -35.36910,
,,,147470.80069, -41.76910,
,,,147964.01407, -47.36910,
,,,148457.22745, -52.56910,
,,,148950.44083, -47.36910,
,,,149443.65421, -50.16910,
,,,149936.86759, -23.76910,
,,,150430.08097, -18.56910,
,,,150923.29435, -17.76910,
,,,151416.50773, -18.56910,
,,,151909.72111, -26.56910,
,,,152402.93449, -48.56910,
,,,152896.14787, -54.56910,
,,,153389.36125, -48.96910,
,,,153882.57463, -44.56910,
,,,154375.78801, -37.36910,
,,,154869.00139, -32.56910,
,,,155362.21477, -33.76910,
,,,155855.42815, -36.56910,
,,,156348.64153, -44.16910,
,,,156841.85491, -45.76910,
,,,157335.06829, -54.56910,
,,,157828.28167, -48.96910,
,,,158321.49505, -46.96910,
,,,158814.70843, -43.36910,
,,,159307.92181, -40.56910,
,,,159801.13519, -41.76910,
,,,160294.34857, -46.16910,
,,,160787.56195, -48.56910,
,,,161280.77533, -47.36910,
,,,161773.98871, -46.56910,
,,,162267.20209, -42.16910,
,,,162760.41547, -42.96910,
,,,163253.62885, -45.36910,
,,,163746.84223, -45.36910,
,,,164240.05561, -47.36910,
,,,164733.26899, -45.36910,
,,,165226.48237, -50.16910,
,,,165719.69575, -42.56910,
,,,166212.90913, -38.56910,
,,,166706.12251, -35.36910,
,,,167199.33589, -36.96910,
,,,167692.54927, -43.76910,
,,,168185.76265, -46.16910,
,,,168678.97603, -54.56910,
,,,169172.18941, -44.16910,
,,,169665.40279, -41.76910,
,,,170158.61617, -22.96910,
,,,170651.82955, -19.36910,
,,,171145.04293, -18.96910,
,,,171638.25631, -20.56910,
,,,172131.46969, -31.36910,
,,,172624.68307, -51.76910,
,,,173117.89645, -54.56910,
,,,173611.10983, -48.96910,
,,,174104.32321, -43.36910,
,,,174597.53659, -35.76910,
,,,175090.74997, -32.56910,
,,,175583.96335, -34.16910,
,,,176077.17673, -36.96910,
,,,176570.39011, -49.36910,
,,,177063.60349, -45.36910,
,,,177556.81687, -51.36910,
,,,178050.03025, -48.56910,
,,,178543.24363, -46.16910,
,,,179036.45701, -43.76910,
,,,179529.67039, -41.76910,
,,,180022.88377, -43.76910,
,,,180516.09715, -47.36910,
,,,181009.31053, -52.56910,
,,,181502.52391, -45.36910,
,,,181995.73729, -45.36910,
,,,182488.95067, -41.36910,
,,,182982.16405, -43.36910,
,,,183475.37743, -45.76910,
,,,183968.59081, -45.76910,
,,,184461.80419, -48.96910,
,,,184955.01757, -46.96910,
,,,185448.23095, -49.36910,
,,,185941.44433, -41.36910,
,,,186434.65771, -37.36910,
,,,186927.87109, -35.36910,
,,,187421.08447, -38.96910,
,,,187914.29785, -46.16910,
,,,188407.51123, -48.96910,
,,,188900.72461, -60.96910,
,,,189393.93799, -42.16910,
,,,189887.15137, -35.36910,
,,,190380.36475, -22.56910,
,,,190873.57813, -20.16910,
,,,191366.79151, -19.76910,
,,,191860.00489, -22.96910,
,,,192353.21827, -36.56910,
,,,192846.43165, -55.36910,
,,,193339.64503, -58.56910,
,,,193832.85841, -49.36910,
,,,194326.07179, -42.96910,
,,,194819.28517, -34.56910,
,,,195312.49855, -32.16910,
,,,195805.71193, -34.16910,
,,,196298.92531, -37.36910,
,,,196792.13869, -50.16910,
,,,197285.35207, -46.16910,
,,,197778.56545, -50.16910,
,,,198271.77883, -46.56910,
,,,198764.99221, -44.56910,
,,,199258.20559, -42.16910,
,,,199751.41897, -40.16910,
,,,200244.63235, -44.16910,
,,,200737.84573, -48.96910,
,,,201231.05911, -48.96910,
,,,201724.27249, -46.56910,
,,,202217.48587, -43.36910,
,,,202710.69925, -42.56910,
,,,203203.91263, -44.16910,
,,,203697.12601, -44.16910,
,,,204190.33939, -45.76910,
,,,204683.55277, -48.96910,
,,,205176.76615, -45.36910,
,,,205669.97953, -47.36910,
,,,206163.19291, -40.16910,
,,,206656.40629, -37.36910,
,,,207149.61967, -36.16910,
,,,207642.83305, -39.76910,
,,,208136.04643, -45.76910,
,,,208629.25981, -49.36910,
,,,209122.47319, -54.56910,
,,,209615.68657, -42.96910,
,,,210108.89995, -31.76910,
,,,210602.11333, -22.56910,
,,,211095.32671, -21.36910,
,,,211588.54009, -20.96910,
,,,212081.75347, -25.76910,
,,,212574.96685, -41.76910,
,,,213068.18023, -54.56910,
,,,213561.39361, -55.36910,
,,,214054.60699, -47.36910,
,,,214547.82037, -39.76910,
,,,215041.03375, -32.96910,
,,,215534.24713, -32.16910,
,,,216027.46051, -34.56910,
,,,216520.67389, -39.76910,
,,,217013.88727, -48.96910,
,,,217507.10065, -48.56910,
,,,218000.31403, -48.56910,
,,,218493.52741, -46.96910,
,,,218986.74079, -44.16910,
,,,219479.95417, -41.36910,
,,,219973.16755, -40.16910,
,,,220466.38093, -44.56910,
,,,220959.59431, -51.36910,
,,,221452.80769, -50.16910,
,,,221946.02107, -46.96910,
,,,222439.23445, -43.76910,
,,,222932.44783, -42.96910,
,,,223425.66121, -44.16910,
,,,223918.87459, -44.16910,
,,,224412.08797, -45.36910,
,,,224905.30135, -47.36910,
,,,225398.51473, -48.56910,
,,,225891.72811, -47.36910,
,,,226384.94149, -40.56910,
,,,226878.15487, -36.96910,
,,,227371.36825, -36.16910,
,,,227864.58163, -42.16910,
,,,228357.79501, -47.36910,
,,,228851.00839, -51.76910,
,,,229344.22177, -48.96910,
,,,229837.43515, -46.56910,
,,,230330.64853, -28.96910,
,,,230823.86191, -22.56910,
,,,231317.07529, -21.76910,
,,,231810.28867, -22.16910,
,,,232303.50205, -28.56910,
,,,232796.71543, -46.16910,
,,,233289.92881, -51.36910,
,,,233783.14219, -51.36910,
,,,234276.35557, -46.16910,
,,,234769.56895, -37.76910,
,,,235262.78233, -32.16910,
,,,235755.99571, -32.96910,
,,,236249.20909, -34.96910,
,,,236742.42247, -41.76910,
,,,237235.63585, -45.36910,
,,,237728.84923, -51.36910,
,,,238222.06261, -47.36910,
,,,238715.27599, -44.56910,
,,,239208.48937, -43.36910,
,,,239701.70275, -40.16910,
,,,240194.91613, -40.16910,
,,,240688.12951, -45.36910,
,,,241181.34289, -50.16910,
,,,241674.55627, -48.56910,
,,,242167.76965, -45.36910,
,,,242660.98303, -42.56910,
,,,243154.19641, -43.36910,
,,,243647.40979, -45.36910,
,,,244140.62317, -45.36910,
,,,244633.83655, -47.36910,
,,,245127.04993, -48.96910,
,,,245620.26331, -49.36910,
,,,246113.47669, -45.76910,
,,,246606.69007, -40.96910,
,,,247099.90345, -36.56910,
,,,247593.11683, -37.36910,
,,,248086.33021, -42.96910,
,,,248579.54359, -47.36910,
,,,249072.75697, -51.36910,
,,,249565.97035, -47.36910,
,,,250059.18373, -50.16910,
,,,250552.39711, -27.36910,
,,,251045.61049, -22.96910,
,,,251538.82387, -22.56910,
,,,252032.03725, -23.36910,
,,,252525.25063, -32.16910,
,,,253018.46401, -48.56910,
,,,253511.67739, -54.56910,
,,,254004.89077, -52.56910,
,,,254498.10415, -45.36910,
,,,254991.31753, -35.76910,
,,,255484.53091, -31.76910,
,,,255977.74429, -32.56910,
,,,256470.95767, -35.36910,
,,,256964.17105, -45.36910,
,,,257457.38443, -45.36910,
,,,257950.59781, -52.56910,
,,,258443.81119, -47.36910,
,,,258937.02457, -45.36910,
,,,259430.23795, -42.16910,
,,,259923.45133, -38.96910,
,,,260416.66471, -42.16910,
,,,260909.87809, -47.36910,
,,,261403.09147, -55.36910,
,,,261896.30485, -47.36910,
,,,262389.51823, -46.56910,
,,,262882.73161, -43.36910,
,,,263375.94499, -44.16910,
,,,263869.15837, -45.36910,
,,,264362.37175, -45.36910,
,,,264855.58513, -48.96910,
,,,265348.79851, -47.36910,
,,,265842.01189, -50.16910,
,,,266335.22527, -43.36910,
,,,266828.43865, -39.36910,
,,,267321.65203, -36.16910,
,,,267814.86541, -38.96910,
,,,268308.07879, -44.96910,
,,,268801.29217, -50.16910,
,,,269294.50555, -60.96910,
,,,269787.71893, -44.16910,
,,,270280.93231, -42.96910,
,,,270774.14569, -26.56910,
,,,271267.35907, -23.76910,
,,,271760.57245, -22.96910,
,,,272253.78583, -25.36910,
,,,272746.99921, -36.56910,
,,,273240.21259, -51.36910,
,,,273733.42597, -54.56910,
,,,274226.63935, -50.16910,
,,,274719.85273, -42.16910,
,,,275213.06611, -33.76910,
,,,275706.27949, -31.36910,
,,,276199.49287, -32.96910,
,,,276692.70625, -36.16910,
,,,277185.91963, -47.36910,
,,,277679.13301, -45.76910,
,,,278172.34639, -51.36910,
,,,278665.55977, -46.16910,
,,,279158.77315, -44.96910,
,,,279651.98653, -40.96910,
,,,280145.19991, -39.76910,
,,,280638.41329, -42.56910,
,,,281131.62667, -46.96910,
,,,281624.84005, -54.56910,
,,,282118.05343, -47.36910,
,,,282611.26681, -45.36910,
,,,283104.48019, -43.36910,
,,,283597.69357, -44.56910,
,,,284090.90695, -45.76910,
,,,284584.12033, -45.76910,
,,,285077.33371, -51.36910,
,,,285570.54709, -47.36910,
,,,286063.76047, -51.76910,
,,,286556.97385, -43.76910,
,,,287050.18723, -38.56910,
,,,287543.40061, -36.16910,
,,,288036.61399, -39.76910,
,,,288529.82737, -45.36910,
,,,289023.04075, -48.56910,
,,,289516.25413, -58.56910,
,,,290009.46751, -43.36910,
,,,290502.68089, -36.96910,
,,,290995.89427, -25.76910,
,,,291489.10765, -24.16910,
,,,291982.32103, -23.36910,
,,,292475.53441, -27.36910,
,,,292968.74779, -40.16910,
,,,293461.96117, -52.56910,
,,,293955.17455, -55.36910,
,,,294448.38793, -48.96910,
,,,294941.60131, -40.56910,
,,,295434.81469, -32.56910,
,,,295928.02807, -30.96910,
,,,296421.24145, -32.96910,
,,,296914.45483, -36.56910,
,,,297407.66821, -48.56910,
,,,297900.88159, -46.16910,
,,,298394.09497, -50.16910,
,,,298887.30835, -46.56910,
,,,299380.52173, -44.56910,
,,,299873.73511, -40.56910,
,,,300366.94849, -38.96910,
,,,300860.16187, -43.36910,
,,,301353.37525, -47.36910,
,,,301846.58863, -48.96910,
,,,302339.80201, -47.36910,
,,,302833.01539, -45.76910,
,,,303326.22877, -43.76910,
,,,303819.44215, -45.76910,
,,,304312.65553, -47.36910,
,,,304805.86891, -45.76910,
,,,305299.08229, -48.56910,
,,,305792.29567, -48.56910,
,,,306285.50905, -48.56910,
,,,306778.72243, -41.76910,
,,,307271.93581, -37.76910,
,,,307765.14919, -36.96910,
,,,308258.36257, -40.96910,
,,,308751.57595, -46.96910,
,,,309244.78933, -54.56910,
,,,309738.00271, -55.36910,
,,,310231.21609, -44.96910,
,,,310724.42947, -33.36910,
,,,311217.64285, -25.76910,
,,,311710.85623, -24.56910,
,,,312204.06961, -24.16910,
,,,312697.28299, -30.16910,
,,,313190.49637, -45.36910,
,,,313683.70975, -54.56910,
,,,314176.92313, -54.56910,
,,,314670.13651, -45.76910,
,,,315163.34989, -37.76910,
,,,315656.56327, -31.36910,
,,,316149.77665, -31.36910,
,,,316642.99003, -33.76910,
,,,317136.20341, -39.76910,
,,,317629.41679, -45.76910,
,,,318122.63017, -52.56910,
,,,318615.84355, -48.56910,
,,,319109.05693, -46.16910,
,,,319602.27031, -44.16910,
,,,320095.48369, -39.76910,
,,,320588.69707, -40.16910,
,,,321081.91045, -44.56910,
,,,321575.12383, -48.96910,
,,,322068.33721, -48.96910,
,,,322561.55059, -46.96910,
,,,323054.76397, -44.16910,
,,,323547.97735, -43.36910,
,,,324041.19073, -46.16910,
,,,324534.40411, -45.36910,
,,,325027.61749, -46.16910,
,,,325520.83087, -48.96910,
,,,326014.04425, -47.36910,
,,,326507.25763, -46.16910,
,,,327000.47101, -40.56910,
,,,327493.68439, -36.96910,
,,,327986.89777, -37.36910,
,,,328480.11115, -42.16910,
,,,328973.32453, -45.76910,
,,,329466.53791, -55.36910,
,,,329959.75129, -48.56910,
,,,330452.96467, -47.36910,
,,,330946.17805, -30.96910,
,,,331439.39143, -25.76910,
,,,331932.60481, -24.96910,
,,,332425.81819, -25.36910,
,,,332919.03157, -32.96910,
,,,333412.24495, -48.56910,
,,,333905.45833, -55.36910,
,,,334398.67171, -51.76910,
,,,334891.88509, -44.16910,
,,,335385.09847, -35.36910,
,,,335878.31185, -30.56910,
,,,336371.52523, -31.36910,
,,,336864.73861, -33.36910,
,,,337357.95199, -41.36910,
,,,337851.16537, -45.36910,
,,,338344.37875, -51.76910,
,,,338837.59213, -48.56910,
,,,339330.80551, -45.36910,
,,,339824.01889, -42.96910,
,,,340317.23227, -38.96910,
,,,340810.44565, -40.96910,
,,,341303.65903, -44.56910,
,,,341796.87241, -52.56910,
,,,342290.08579, -48.56910,
,,,342783.29917, -47.36910,
,,,343276.51255, -43.76910,
,,,343769.72593, -45.36910,
,,,344262.93931, -45.36910,
,,,344756.15269, -45.36910,
,,,345249.36607, -47.36910,
,,,345742.57945, -48.96910,
,,,346235.79283, -48.96910,
,,,346729.00621, -44.56910,
,,,347222.21959, -40.16910,
,,,347715.43297, -36.56910,
