Data/ALL0068/F0068CH1.CSV

Record Length,2.500000e+03,,  -0.000020400000,   3.48000,
Sample Interval,2.000000e-08,,  -0.000020380000,   3.48000,
Trigger Point,1.020000000000e+03,,  -0.000020360000,   3.48000,
,,,  -0.000020340000,   3.60000,
,,,  -0.000020320000,   3.48000,
,,,  -0.000020300000,   3.56000,
Source,CH1,,  -0.000020280000,   3.44000,
Vertical Units,V,,  -0.000020260000,   3.44000,
Vertical Scale,1.000000e+00,,  -0.000020240000,   3.52000,
Vertical Offset,-1.720000e+00,,  -0.000020220000,   3.48000,
Horizontal Units,s,,  -0.000020200000,   3.48000,
Horizontal Scale,5.000000e-06,,  -0.000020180000,   3.44000,
Pt Fmt,Y,,  -0.000020160000,   3.48000,
Yzero,0.000000e+00,,  -0.000020140000,   3.52000,
Probe Atten,1.000000e+01,,  -0.000020120000,   3.52000,
Model Number,TDS1012C-EDU,,  -0.000020100000,   3.52000,
Serial Number,C013699,,  -0.000020080000,   3.44000,
Firmware Version,FV:v25.07,,  -0.000020060000,   3.48000,
,,,-00.000020040000,   3.48000,
,,,-00.000020020000,   3.52000,
,,,-00.000020000000,   3.48000,
,,,-00.000019980000,   3.44000,
,,,-00.000019960000,   3.48000,
,,,-00.000019940000,   3.48000,
,,,-00.000019920000,   3.52000,
,,,-00.000019900000,   3.48000,
,,,-00.000019880000,   3.48000,
,,,-00.000019860000,   3.52000,
,,,-00.000019840000,   3.48000,
,,,-00.000019820000,   3.44000,
,,,-00.000019800000,   3.48000,
,,,-00.000019780000,   3.48000,
,,,-00.000019760000,   3.48000,
,,,-00.000019740000,   3.48000,
,,,-00.000019720000,   3.48000,
,,,-00.000019700000,   3.56000,
,,,-00.000019680000,   3.48000,
,,,-00.000019660000,   3.44000,
,,,-00.000019640000,   3.48000,
,,,-00.000019620000,   3.48000,
,,,-00.000019600000,   3.48000,
,,,-00.000019580000,   3.52000,
,,,-00.000019560000,   3.48000,
,,,-00.000019540000,   3.48000,
,,,-00.000019520000,   3.44000,
,,,-00.000019500000,   3.52000,
,,,-00.000019480000,   3.44000,
,,,-00.000019460000,   3.52000,
,,,-00.000019440000,   3.52000,
,,,-00.000019420000,   3.48000,
,,,-00.000019400000,   3.56000,
,,,-00.000019380000,   3.44000,
,,,-00.000019360000,   3.44000,
,,,-00.000019340000,   3.48000,
,,,-00.000019320000,   3.44000,
,,,-00.000019300000,   3.52000,
,,,-00.000019280000,   3.44000,
,,,-00.000019260000,   3.48000,
,,,-00.000019240000,   3.44000,
,,,-00.000019220000,   3.48000,
,,,-00.000019200000,   3.48000,
,,,-00.000019180000,   3.48000,
,,,-00.000019160000,   3.48000,
,,,-00.000019140000,   3.48000,
,,,-00.000019120000,   3.44000,
,,,-00.000019100000,   3.44000,
,,,-00.000019080000,   3.44000,
,,,-00.000019060000,   3.48000,
,,,-00.000019040000,   3.44000,
,,,-00.000019020000,   3.48000,
,,,-00.000019000000,   3.48000,
,,,-00.000018980000,   3.52000,
,,,-00.000018960000,   3.48000,
,,,-00.000018940000,   3.48000,
,,,-00.000018920000,   3.48000,
,,,-00.000018900000,   3.56000,
,,,-00.000018880000,   3.48000,
,,,-00.000018860000,   3.48000,
,,,-00.000018840000,   3.52000,
,,,-00.000018820000,   3.48000,
,,,-00.000018800000,   3.48000,
,,,-00.000018780000,   3.48000,
,,,-00.000018760000,   3.48000,
,,,-00.000018740000,   3.48000,
,,,-00.000018720000,   3.52000,
,,,-00.000018700000,   3.48000,
,,,-00.000018680000,   3.52000,
,,,-00.000018660000,   3.48000,
,,,-00.000018640000,   3.48000,
,,,-00.000018620000,   3.52000,
,,,-00.000018600000,   3.56000,
,,,-00.000018580000,   3.52000,
,,,-00.000018560000,   3.52000,
,,,-00.000018540000,   3.52000,
,,,-00.000018520000,   3.52000,
,,,-00.000018500000,   3.48000,
,,,-00.000018480000,   3.48000,
,,,-00.000018460000,   3.52000,
,,,-00.000018440000,   3.52000,
,,,-00.000018420000,   3.48000,
,,,-00.000018400000,   3.44000,
,,,-00.000018380000,   3.48000,
,,,-00.000018360000,   3.52000,
,,,-00.000018340000,   3.44000,
,,,-00.000018320000,   3.48000,
,,,-00.000018300000,   3.48000,
,,,-00.000018280000,   3.44000,
,,,-00.000018260000,   3.52000,
,,,-00.000018240000,   3.48000,
,,,-00.000018220000,   3.52000,
,,,-00.000018200000,   3.44000,
,,,-00.000018180000,   3.44000,
,,,-00.000018160000,   3.52000,
,,,-00.000018140000,   3.48000,
,,,-00.000018120000,   3.44000,
,,,-00.000018100000,   3.44000,
,,,-00.000018080000,   3.48000,
,,,-00.000018060000,   3.52000,
,,,-00.000018040000,   3.56000,
,,,-00.000018020000,   3.48000,
,,,-00.000018000000,   3.44000,
,,,-00.000017980000,   3.48000,
,,,-00.000017960000,   3.48000,
,,,-00.000017940000,   3.56000,
,,,-00.000017920000,   3.44000,
,,,-00.000017900000,   3.48000,
,,,-00.000017880000,   3.52000,
,,,-00.000017860000,   3.48000,
,,,-00.000017840000,   3.52000,
,,,-00.000017820000,   3.60000,
,,,-00.000017800000,   3.44000,
,,,-00.000017780000,   0.40000,
,,,-00.000017760000,   0.08000,
,,,-00.000017740000,   0.08000,
,,,-00.000017720000,   0.12000,
,,,-00.000017700000,   0.12000,
,,,-00.000017680000,   0.08000,
,,,-00.000017660000,   0.12000,
,,,-00.000017640000,   0.12000,
,,,-00.000017620000,   0.08000,
,,,-00.000017600000,   0.16000,
,,,-00.000017580000,   0.08000,
,,,-00.000017560000,   0.12000,
,,,-00.000017540000,   0.04000,
,,,-00.000017520000,   0.08000,
,,,-00.000017500000,   0.08000,
,,,-00.000017480000,   0.12000,
,,,-00.000017460000,   0.12000,
,,,-00.000017440000,   0.20000,
,,,-00.000017420000,   0.16000,
,,,-00.000017400000,   0.12000,
,,,-00.000017380000,   0.04000,
,,,-00.000017360000,   0.12000,
,,,-00.000017340000,   0.08000,
,,,-00.000017320000,   0.12000,
,,,-00.000017300000,   0.12000,
,,,-00.000017280000,   0.08000,
,,,-00.000017260000,   0.08000,
,,,-00.000017240000,   0.08000,
,,,-00.000017220000,   0.08000,
,,,-00.000017200000,   0.08000,
,,,-00.000017180000,   0.12000,
,,,-00.000017160000,   0.12000,
,,,-00.000017140000,   0.04000,
,,,-00.000017120000,   0.08000,
,,,-00.000017100000,   0.08000,
,,,-00.000017080000,   0.08000,
,,,-00.000017060000,   0.12000,
,,,-00.000017040000,   0.12000,
,,,-00.000017020000,   0.12000,
,,,-00.000017000000,   0.12000,
,,,-00.000016980000,   0.12000,
,,,-00.000016960000,   0.12000,
,,,-00.000016940000,   0.12000,
,,,-00.000016920000,   0.16000,
,,,-00.000016900000,   0.16000,
,,,-00.000016880000,   0.12000,
,,,-00.000016860000,   0.12000,
,,,-00.000016840000,   0.12000,
,,,-00.000016820000,   0.12000,
,,,-00.000016800000,   0.12000,
,,,-00.000016780000,   0.16000,
,,,-00.000016760000,   0.16000,
,,,-00.000016740000,   0.12000,
,,,-00.000016720000,   0.12000,
,,,-00.000016700000,   0.12000,
,,,-00.000016680000,   0.12000,
,,,-00.000016660000,   0.12000,
,,,-00.000016640000,   0.12000,
,,,-00.000016620000,   0.20000,
,,,-00.000016600000,   0.12000,
,,,-00.000016580000,   0.08000,
,,,-00.000016560000,   0.12000,
,,,-00.000016540000,   0.16000,
,,,-00.000016520000,   0.08000,
,,,-00.000016500000,   0.12000,
,,,-00.000016480000,   0.12000,
,,,-00.000016460000,   0.12000,
,,,-00.000016440000,   0.08000,
,,,-00.000016420000,   0.08000,
,,,-00.000016400000,   0.08000,
,,,-00.000016380000,   0.16000,
,,,-00.000016360000,   0.08000,
,,,-00.000016340000,   0.12000,
,,,-00.000016320000,   0.12000,
,,,-00.000016300000,   0.08000,
,,,-00.000016280000,   0.08000,
,,,-00.000016260000,   0.04000,
,,,-00.000016240000,   0.16000,
,,,-00.000016220000,   0.12000,
,,,-00.000016200000,   0.12000,
,,,-00.000016180000,   0.12000,
,,,-00.000016160000,   0.12000,
,,,-00.000016140000,   0.08000,
,,,-00.000016120000,   0.08000,
,,,-00.000016100000,   0.12000,
,,,-00.000016080000,   0.08000,
,,,-00.000016060000,   0.16000,
,,,-00.000016040000,   0.08000,
,,,-00.000016020000,   0.04000,
,,,-00.000016000000,   0.12000,
,,,-00.000015980000,   0.08000,
,,,-00.000015960000,   0.12000,
,,,-00.000015940000,   0.12000,
,,,-00.000015920000,   0.04000,
,,,-00.000015900000,   0.12000,
,,,-00.000015880000,   0.08000,
,,,-00.000015860000,   0.08000,
,,,-00.000015840000,   0.12000,
,,,-00.000015820000,   0.08000,
,,,-00.000015800000,   0.12000,
,,,-00.000015780000,   0.08000,
,,,-00.000015760000,   0.08000,
,,,-00.000015740000,   0.12000,
,,,-00.000015720000,   0.16000,
,,,-00.000015700000,   0.08000,
,,,-00.000015680000,   0.12000,
,,,-00.000015660000,   0.08000,
,,,-00.000015640000,   0.12000,
,,,-00.000015620000,   0.08000,
,,,-00.000015600000,   0.08000,
,,,-00.000015580000,   0.12000,
,,,-00.000015560000,   0.04000,
,,,-00.000015540000,   0.08000,
,,,-00.000015520000,   0.08000,
,,,-00.000015500000,   0.16000,
,,,-00.000015480000,   0.08000,
,,,-00.000015460000,   0.12000,
,,,-00.000015440000,   0.16000,
,,,-00.000015420000,   0.12000,
,,,-00.000015400000,   0.04000,
,,,-00.000015380000,   0.12000,
,,,-00.000015360000,   0.08000,
,,,-00.000015340000,   0.12000,
,,,-00.000015320000,   0.04000,
,,,-00.000015300000,   0.12000,
,,,-00.000015280000,   0.08000,
,,,-00.000015260000,   0.08000,
,,,-00.000015240000,   0.08000,
,,,-00.000015220000,   0.08000,
,,,-00.000015200000,   0.08000,
,,,-00.000015180000,   0.16000,
,,,-00.000015160000,   0.08000,
,,,-00.000015140000,   0.08000,
,,,-00.000015120000,   0.08000,
,,,-00.000015100000,   0.08000,
,,,-00.000015080000,   0.08000,
,,,-00.000015060000,   0.08000,
,,,-00.000015040000,   0.12000,
,,,-00.000015020000,   0.12000,
,,,-00.000015000000,   0.12000,
,,,-00.000014980000,   0.12000,
,,,-00.000014960000,   0.12000,
,,,-00.000014940000,   0.16000,
,,,-00.000014920000,   0.12000,
,,,-00.000014900000,   0.16000,
,,,-00.000014880000,   0.12000,
,,,-00.000014860000,   0.12000,
,,,-00.000014840000,   0.16000,
,,,-00.000014820000,   0.12000,
,,,-00.000014800000,   0.08000,
,,,-00.000014780000,   0.16000,
,,,-00.000014760000,   0.16000,
,,,-00.000014740000,   0.12000,
,,,-00.000014720000,   0.12000,
,,,-00.000014700000,   0.12000,
,,,-00.000014680000,   0.12000,
,,,-00.000014660000,   0.12000,
,,,-00.000014640000,   0.16000,
,,,-00.000014620000,   0.12000,
,,,-00.000014600000,   0.12000,
,,,-00.000014580000,   0.12000,
,,,-00.000014560000,   0.16000,
,,,-00.000014540000,   0.12000,
,,,-00.000014520000,   0.16000,
,,,-00.000014500000,   0.12000,
,,,-00.000014480000,   0.08000,
,,,-00.000014460000,   0.12000,
,,,-00.000014440000,   0.04000,
,,,-00.000014420000,   0.12000,
,,,-00.000014400000,   0.16000,
,,,-00.000014380000,   0.12000,
,,,-00.000014360000,   0.08000,
,,,-00.000014340000,   0.08000,
,,,-00.000014320000,   0.12000,
,,,-00.000014300000,   0.12000,
,,,-00.000014280000,   0.08000,
,,,-00.000014260000,   0.12000,
,,,-00.000014240000,   0.12000,
,,,-00.000014220000,   0.04000,
,,,-00.000014200000,   0.16000,
,,,-00.000014180000,   0.04000,
,,,-00.000014160000,   0.08000,
,,,-00.000014140000,   0.12000,
,,,-00.000014120000,   0.12000,
,,,-00.000014100000,   0.12000,
,,,-00.000014080000,   0.16000,
,,,-00.000014060000,   0.12000,
,,,-00.000014040000,   0.12000,
,,,-00.000014020000,   0.12000,
,,,-00.000014000000,   0.08000,
,,,-00.000013980000,   0.12000,
,,,-00.000013960000,   0.08000,
,,,-00.000013940000,   0.08000,
,,,-00.000013920000,   0.12000,
,,,-00.000013900000,   0.04000,
,,,-00.000013880000,   0.12000,
,,,-00.000013860000,   0.12000,
,,,-00.000013840000,   0.16000,
,,,-00.000013820000,   0.28000,
,,,-00.000013800000,   3.32000,
,,,-00.000013780000,   3.48000,
,,,-00.000013760000,   3.48000,
,,,-00.000013740000,   3.48000,
,,,-00.000013720000,   3.48000,
,,,-00.000013700000,   3.52000,
,,,-00.000013680000,   3.48000,
,,,-00.000013660000,   3.48000,
,,,-00.000013640000,   3.52000,
,,,-00.000013620000,   3.48000,
,,,-00.000013600000,   3.48000,
,,,-00.000013580000,   3.44000,
,,,-00.000013560000,   3.44000,
,,,-00.000013540000,   3.44000,
,,,-00.000013520000,   3.52000,
,,,-00.000013500000,   3.48000,
,,,-00.000013480000,   3.44000,
,,,-00.000013460000,   3.56000,
,,,-00.000013440000,   3.44000,
,,,-00.000013420000,   3.40000,
,,,-00.000013400000,   3.44000,
,,,-00.000013380000,   3.48000,
,,,-00.000013360000,   3.48000,
,,,-00.000013340000,   3.44000,
,,,-00.000013320000,   3.48000,
,,,-00.000013300000,   3.40000,
,,,-00.000013280000,   3.44000,
,,,-00.000013260000,   3.44000,
,,,-00.000013240000,   3.44000,
,,,-00.000013220000,   3.48000,
,,,-00.000013200000,   3.48000,
,,,-00.000013180000,   3.44000,
,,,-00.000013160000,   3.44000,
,,,-00.000013140000,   3.44000,
,,,-00.000013120000,   3.48000,
,,,-00.000013100000,   3.48000,
,,,-00.000013080000,   3.52000,
,,,-00.000013060000,   3.44000,
,,,-00.000013040000,   3.48000,
,,,-00.000013020000,   3.52000,
,,,-00.000013000000,   3.44000,
,,,-00.000012980000,   3.52000,
,,,-00.000012960000,   3.52000,
,,,-00.000012940000,   3.48000,
,,,-00.000012920000,   3.44000,
,,,-00.000012900000,   3.52000,
,,,-00.000012880000,   3.52000,
,,,-00.000012860000,   3.48000,
,,,-00.000012840000,   3.52000,
,,,-00.000012820000,   3.44000,
,,,-00.000012800000,   3.52000,
,,,-00.000012780000,   3.52000,
,,,-00.000012760000,   3.48000,
,,,-00.000012740000,   3.44000,
,,,-00.000012720000,   3.44000,
,,,-00.000012700000,   3.52000,
,,,-00.000012680000,   3.48000,
,,,-00.000012660000,   3.52000,
,,,-00.000012640000,   3.48000,
,,,-00.000012620000,   3.48000,
,,,-00.000012600000,   3.52000,
,,,-00.000012580000,   3.48000,
,,,-00.000012560000,   3.48000,
,,,-00.000012540000,   3.44000,
,,,-00.000012520000,   3.52000,
,,,-00.000012500000,   3.52000,
,,,-00.000012480000,   3.48000,
,,,-00.000012460000,   3.40000,
,,,-00.000012440000,   3.44000,
,,,-00.000012420000,   3.52000,
,,,-00.000012400000,   3.44000,
,,,-00.000012380000,   3.48000,
,,,-00.000012360000,   3.44000,
,,,-00.000012340000,   3.44000,
,,,-00.000012320000,   3.52000,
,,,-00.000012300000,   3.44000,
,,,-00.000012280000,   3.48000,
,,,-00.000012260000,   3.44000,
,,,-00.000012240000,   3.44000,
,,,-00.000012220000,   3.44000,
,,,-00.000012200000,   3.48000,
,,,-00.000012180000,   3.48000,
,,,-00.000012160000,   3.44000,
,,,-00.000012140000,   3.44000,
,,,-00.000012120000,   3.48000,
,,,-00.000012100000,   3.56000,
,,,-00.000012080000,   3.48000,
,,,-00.000012060000,   3.40000,
,,,-00.000012040000,   3.48000,
,,,-00.000012020000,   3.48000,
,,,-00.000012000000,   3.48000,
,,,-00.000011980000,   3.44000,
,,,-00.000011960000,   3.44000,
,,,-00.000011940000,   3.48000,
,,,-00.000011920000,   3.44000,
,,,-00.000011900000,   3.52000,
,,,-00.000011880000,   3.48000,
,,,-00.000011860000,   3.44000,
,,,-00.000011840000,   3.48000,
,,,-00.000011820000,   0.76000,
,,,-00.000011800000,   0.08000,
,,,-00.000011780000,   0.08000,
,,,-00.000011760000,   0.12000,
,,,-00.000011740000,   0.04000,
,,,-00.000011720000,   0.12000,
,,,-00.000011700000,   0.08000,
,,,-00.000011680000,   0.12000,
,,,-00.000011660000,   0.12000,
,,,-00.000011640000,   0.08000,
,,,-00.000011620000,   0.12000,
,,,-00.000011600000,   0.08000,
,,,-00.000011580000,   0.08000,
,,,-00.000011560000,   0.08000,
,,,-00.000011540000,   0.12000,
,,,-00.000011520000,   0.12000,
,,,-00.000011500000,   0.12000,
,,,-00.000011480000,   0.20000,
,,,-00.000011460000,   0.12000,
,,,-00.000011440000,   0.08000,
,,,-00.000011420000,   0.12000,
,,,-00.000011400000,   0.08000,
,,,-00.000011380000,   0.08000,
,,,-00.000011360000,   0.08000,
,,,-00.000011340000,   0.08000,
,,,-00.000011320000,   0.08000,
,,,-00.000011300000,   0.08000,
,,,-00.000011280000,   0.12000,
,,,-00.000011260000,   0.12000,
,,,-00.000011240000,   0.08000,
,,,-00.000011220000,   0.16000,
,,,-00.000011200000,   0.04000,
,,,-00.000011180000,   0.08000,
,,,-00.000011160000,   0.08000,
,,,-00.000011140000,   0.08000,
,,,-00.000011120000,   0.12000,
,,,-00.000011100000,   0.12000,
,,,-00.000011080000,   0.08000,
,,,-00.000011060000,   0.08000,
,,,-00.000011040000,   0.12000,
,,,-00.000011020000,   0.16000,
,,,-00.000011000000,   0.08000,
,,,-00.000010980000,   0.16000,
,,,-00.000010960000,   0.12000,
,,,-00.000010940000,   0.12000,
,,,-00.000010920000,   0.12000,
,,,-00.000010900000,   0.12000,
,,,-00.000010880000,   0.12000,
,,,-00.000010860000,   0.16000,
,,,-00.000010840000,   0.16000,
,,,-00.000010820000,   0.12000,
,,,-00.000010800000,   0.08000,
,,,-00.000010780000,   0.12000,
,,,-00.000010760000,   0.08000,
,,,-00.000010740000,   0.12000,
,,,-00.000010720000,   0.08000,
,,,-00.000010700000,   0.16000,
,,,-00.000010680000,   0.16000,
,,,-00.000010660000,   0.12000,
,,,-00.000010640000,   0.16000,
,,,-00.000010620000,   0.16000,
,,,-00.000010600000,   0.12000,
,,,-00.000010580000,   0.08000,
,,,-00.000010560000,   0.12000,
,,,-00.000010540000,   0.12000,
,,,-00.000010520000,   0.12000,
,,,-00.000010500000,   0.12000,
,,,-00.000010480000,   0.04000,
,,,-00.000010460000,   0.08000,
,,,-00.000010440000,   0.20000,
,,,-00.000010420000,   0.12000,
,,,-00.000010400000,   0.16000,
,,,-00.000010380000,   0.12000,
,,,-00.000010360000,   0.08000,
,,,-00.000010340000,   0.16000,
,,,-00.000010320000,   0.12000,
,,,-00.000010300000,   0.16000,
,,,-00.000010280000,   0.08000,
,,,-00.000010260000,   0.08000,
,,,-00.000010240000,   0.12000,
,,,-00.000010220000,   0.12000,
,,,-00.000010200000,   0.08000,
,,,-00.000010180000,   0.08000,
,,,-00.000010160000,   0.08000,
,,,-00.000010140000,   0.08000,
,,,-00.000010120000,   0.16000,
,,,-00.000010100000,   0.08000,
,,,-00.000010080000,   0.08000,
,,,-00.000010060000,   0.12000,
,,,-00.000010040000,   0.12000,
,,,-00.000010020000,   0.12000,
,,,-00.000010000000,   0.08000,
,,,-00.000009980000,   0.08000,
,,,-00.000009960000,   0.12000,
,,,-00.000009940000,   0.04000,
,,,-00.000009920000,   0.08000,
,,,-00.000009900000,   0.16000,
,,,-00.000009880000,   0.16000,
,,,-00.000009860000,   0.12000,
,,,-00.000009840000,   0.84000,
,,,-00.000009820000,   3.36000,
,,,-00.000009800000,   3.48000,
,,,-00.000009780000,   3.48000,
,,,-00.000009760000,   3.48000,
,,,-00.000009740000,   3.52000,
,,,-00.000009720000,   3.48000,
,,,-00.000009700000,   3.52000,
,,,-00.000009680000,   3.52000,
,,,-00.000009660000,   3.48000,
,,,-00.000009640000,   3.48000,
,,,-00.000009620000,   3.44000,
,,,-00.000009600000,   3.44000,
,,,-00.000009580000,   3.44000,
,,,-00.000009560000,   3.48000,
,,,-00.000009540000,   3.52000,
,,,-00.000009520000,   3.44000,
,,,-00.000009500000,   3.52000,
,,,-00.000009480000,   3.48000,
,,,-00.000009460000,   3.44000,
,,,-00.000009440000,   3.48000,
,,,-00.000009420000,   3.44000,
,,,-00.000009400000,   3.48000,
,,,-00.000009380000,   3.40000,
,,,-00.000009360000,   3.44000,
,,,-00.000009340000,   3.40000,
,,,-00.000009320000,   3.44000,
,,,-00.000009300000,   3.52000,
,,,-00.000009280000,   3.48000,
,,,-00.000009260000,   3.48000,
,,,-00.000009240000,   3.52000,
,,,-00.000009220000,   3.48000,
,,,-00.000009200000,   3.44000,
,,,-00.000009180000,   3.48000,
,,,-00.000009160000,   3.48000,
,,,-00.000009140000,   3.44000,
,,,-00.000009120000,   3.48000,
,,,-00.000009100000,   3.48000,
,,,-00.000009080000,   3.48000,
,,,-00.000009060000,   3.48000,
,,,-00.000009040000,   3.48000,
,,,-00.000009020000,   3.48000,
,,,-00.000009000000,   3.52000,
,,,-00.000008980000,   3.48000,
,,,-00.000008960000,   3.48000,
,,,-00.000008940000,   3.52000,
,,,-00.000008920000,   3.48000,
,,,-00.000008900000,   3.48000,
,,,-00.000008880000,   3.48000,
,,,-00.000008860000,   3.44000,
,,,-00.000008840000,   3.52000,
,,,-00.000008820000,   3.48000,
,,,-00.000008800000,   3.48000,
,,,-00.000008780000,   3.44000,
,,,-00.000008760000,   3.48000,
,,,-00.000008740000,   3.48000,
,,,-00.000008720000,   3.48000,
,,,-00.000008700000,   3.56000,
,,,-00.000008680000,   3.48000,
,,,-00.000008660000,   3.52000,
,,,-00.000008640000,   3.48000,
,,,-00.000008620000,   3.48000,
,,,-00.000008600000,   3.48000,
,,,-00.000008580000,   3.48000,
,,,-00.000008560000,   3.52000,
,,,-00.000008540000,   3.48000,
,,,-00.000008520000,   3.48000,
,,,-00.000008500000,   3.48000,
,,,-00.000008480000,   3.44000,
,,,-00.000008460000,   3.52000,
,,,-00.000008440000,   3.48000,
,,,-00.000008420000,   3.56000,
,,,-00.000008400000,   3.44000,
,,,-00.000008380000,   3.40000,
,,,-00.000008360000,   3.48000,
,,,-00.000008340000,   3.48000,
,,,-00.000008320000,   3.48000,
,,,-00.000008300000,   3.48000,
,,,-00.000008280000,   3.48000,
,,,-00.000008260000,   3.48000,
,,,-00.000008240000,   3.44000,
,,,-00.000008220000,   3.44000,
,,,-00.000008200000,   3.44000,
,,,-00.000008180000,   3.52000,
,,,-00.000008160000,   3.48000,
,,,-00.000008140000,   3.52000,
