Data/ALL0005/F0005CH1.CSV

Record Length,2.500000e+03,,  -0.000039320000,   3.51640,
Sample Interval,4.000000e-08,,  -0.000039280000,   3.51640,
Trigger Point,9.830000000000e+02,,  -0.000039240000,   3.51640,
,,,  -0.000039200000,   3.49280,
,,,  -0.000039160000,   3.49280,
,,,  -0.000039120000,   3.54000,
Source,CH1,,  -0.000039080000,   3.51640,
Vertical Units,V,,  -0.000039040000,   3.51640,
Vertical Scale,5.900000e-01,,  -0.000039000000,   3.56360,
Vertical Offset,-1.840800e+00,,  -0.000038960000,   3.51640,
Horizontal Units,s,,  -0.000038920000,   3.49280,
Horizontal Scale,1.000000e-05,,  -0.000038880000,   3.49280,
Pt Fmt,Y,,  -0.000038840000,   3.54000,
Yzero,0.000000e+00,,  -0.000038800000,   3.46920,
Probe Atten,1.000000e+01,,  -0.000038760000,   3.51640,
Model Number,TDS1012C-EDU,,  -0.000038720000,   3.51640,
Serial Number,C013699,,  -0.000038680000,   3.46920,
Firmware Version,FV:v25.07,,  -0.000038640000,   3.51640,
,,,-00.000038600000,   3.51640,
,,,-00.000038560000,   3.49280,
,,,-00.000038520000,   3.49280,
,,,-00.000038480000,   3.49280,
,,,-00.000038440000,   3.58720,
,,,-00.000038400000,   3.49280,
,,,-00.000038360000,   3.51640,
,,,-00.000038320000,   3.54000,
,,,-00.000038280000,   3.51640,
,,,-00.000038240000,   3.51640,
,,,-00.000038200000,   3.51640,
,,,-00.000038160000,   3.49280,
,,,-00.000038120000,   3.46920,
,,,-00.000038080000,   3.54000,
,,,-00.000038040000,   3.51640,
,,,-00.000038000000,   3.51640,
,,,-00.000037960000,   3.49280,
,,,-00.000037920000,   3.49280,
,,,-00.000037880000,   3.54000,
,,,-00.000037840000,   3.44560,
,,,-00.000037800000,   3.51640,
,,,-00.000037760000,   3.46920,
,,,-00.000037720000,   3.51640,
,,,-00.000037680000,   3.51640,
,,,-00.000037640000,   3.51640,
,,,-00.000037600000,   3.49280,
,,,-00.000037560000,   3.49280,
,,,-00.000037520000,   0.16520,
,,,-00.000037480000,   0.09440,
,,,-00.000037440000,   0.11800,
,,,-00.000037400000,   0.09440,
,,,-00.000037360000,   0.09440,
,,,-00.000037320000,   0.14160,
,,,-00.000037280000,   0.11800,
,,,-00.000037240000,   0.14160,
,,,-00.000037200000,   0.14160,
,,,-00.000037160000,   0.16520,
,,,-00.000037120000,   0.11800,
,,,-00.000037080000,   0.09440,
,,,-00.000037040000,   0.11800,
,,,-00.000037000000,   0.09440,
,,,-00.000036960000,   0.14160,
,,,-00.000036920000,   0.11800,
,,,-00.000036880000,   0.09440,
,,,-00.000036840000,   0.11800,
,,,-00.000036800000,   0.09440,
,,,-00.000036760000,   0.14160,
,,,-00.000036720000,   0.11800,
,,,-00.000036680000,   0.09440,
,,,-00.000036640000,   0.11800,
,,,-00.000036600000,   0.09440,
,,,-00.000036560000,   0.14160,
,,,-00.000036520000,   0.11800,
,,,-00.000036480000,   0.14160,
,,,-00.000036440000,   0.09440,
,,,-00.000036400000,   0.16520,
,,,-00.000036360000,   0.07080,
,,,-00.000036320000,   0.11800,
,,,-00.000036280000,   0.07080,
,,,-00.000036240000,   0.11800,
,,,-00.000036200000,   0.04720,
,,,-00.000036160000,   0.14160,
,,,-00.000036120000,   0.11800,
,,,-00.000036080000,   0.11800,
,,,-00.000036040000,   0.14160,
,,,-00.000036000000,   0.14160,
,,,-00.000035960000,   0.09440,
,,,-00.000035920000,   0.11800,
,,,-00.000035880000,   0.11800,
,,,-00.000035840000,   0.11800,
,,,-00.000035800000,   0.14160,
,,,-00.000035760000,   0.14160,
,,,-00.000035720000,   0.14160,
,,,-00.000035680000,   0.09440,
,,,-00.000035640000,   0.14160,
,,,-00.000035600000,   0.09440,
,,,-00.000035560000,   0.07080,
,,,-00.000035520000,   0.14160,
,,,-00.000035480000,   0.14160,
,,,-00.000035440000,   0.16520,
,,,-00.000035400000,   0.14160,
,,,-00.000035360000,   0.09440,
,,,-00.000035320000,   0.11800,
,,,-00.000035280000,   0.11800,
,,,-00.000035240000,   0.11800,
,,,-00.000035200000,   0.16520,
,,,-00.000035160000,   0.14160,
,,,-00.000035120000,   0.07080,
,,,-00.000035080000,   0.11800,
,,,-00.000035040000,   0.11800,
,,,-00.000035000000,   0.14160,
,,,-00.000034960000,   0.11800,
,,,-00.000034920000,   0.11800,
,,,-00.000034880000,   0.11800,
,,,-00.000034840000,   0.11800,
,,,-00.000034800000,   0.14160,
,,,-00.000034760000,   0.11800,
,,,-00.000034720000,   0.11800,
,,,-00.000034680000,   0.11800,
,,,-00.000034640000,   0.16520,
,,,-00.000034600000,   0.14160,
,,,-00.000034560000,   0.11800,
,,,-00.000034520000,   0.07080,
,,,-00.000034480000,   0.14160,
,,,-00.000034440000,   0.11800,
,,,-00.000034400000,   0.09440,
,,,-00.000034360000,   0.14160,
,,,-00.000034320000,   0.07080,
,,,-00.000034280000,   0.11800,
,,,-00.000034240000,   0.07080,
,,,-00.000034200000,   0.11800,
,,,-00.000034160000,   0.14160,
,,,-00.000034120000,   0.14160,
,,,-00.000034080000,   0.11800,
,,,-00.000034040000,   0.09440,
,,,-00.000034000000,   0.11800,
,,,-00.000033960000,   0.11800,
,,,-00.000033920000,   0.11800,
,,,-00.000033880000,   0.11800,
,,,-00.000033840000,   0.11800,
,,,-00.000033800000,   0.11800,
,,,-00.000033760000,   0.11800,
,,,-00.000033720000,   0.11800,
,,,-00.000033680000,   0.11800,
,,,-00.000033640000,   0.09440,
,,,-00.000033600000,   0.14160,
,,,-00.000033560000,   0.11800,
,,,-00.000033520000,   0.09440,
,,,-00.000033480000,   0.09440,
,,,-00.000033440000,   0.09440,
,,,-00.000033400000,   0.14160,
,,,-00.000033360000,   0.11800,
,,,-00.000033320000,   0.09440,
,,,-00.000033280000,   0.14160,
,,,-00.000033240000,   0.14160,
,,,-00.000033200000,   0.14160,
,,,-00.000033160000,   0.14160,
,,,-00.000033120000,   0.09440,
,,,-00.000033080000,   0.11800,
,,,-00.000033040000,   0.09440,
,,,-00.000033000000,   0.14160,
,,,-00.000032960000,   0.11800,
,,,-00.000032920000,   0.09440,
,,,-00.000032880000,   0.04720,
,,,-00.000032840000,   0.11800,
,,,-00.000032800000,   0.09440,
,,,-00.000032760000,   0.11800,
,,,-00.000032720000,   0.11800,
,,,-00.000032680000,   0.09440,
,,,-00.000032640000,   0.11800,
,,,-00.000032600000,   0.11800,
,,,-00.000032560000,   0.14160,
,,,-00.000032520000,   0.11800,
,,,-00.000032480000,   0.11800,
,,,-00.000032440000,   0.11800,
,,,-00.000032400000,   0.11800,
,,,-00.000032360000,   0.07080,
,,,-00.000032320000,   0.09440,
,,,-00.000032280000,   0.09440,
,,,-00.000032240000,   0.11800,
,,,-00.000032200000,   0.09440,
,,,-00.000032160000,   0.11800,
,,,-00.000032120000,   0.11800,
,,,-00.000032080000,   0.07080,
,,,-00.000032040000,   0.11800,
,,,-00.000032000000,   0.09440,
,,,-00.000031960000,   0.11800,
,,,-00.000031920000,   0.11800,
,,,-00.000031880000,   0.14160,
,,,-00.000031840000,   0.04720,
,,,-00.000031800000,   0.07080,
,,,-00.000031760000,   0.14160,
,,,-00.000031720000,   0.14160,
,,,-00.000031680000,   0.16520,
,,,-00.000031640000,   0.14160,
,,,-00.000031600000,   0.09440,
,,,-00.000031560000,   0.09440,
,,,-00.000031520000,   0.11800,
,,,-00.000031480000,   0.16520,
,,,-00.000031440000,   0.11800,
,,,-00.000031400000,   0.09440,
,,,-00.000031360000,   0.07080,
,,,-00.000031320000,   0.09440,
,,,-00.000031280000,   0.07080,
,,,-00.000031240000,   0.11800,
,,,-00.000031200000,   0.11800,
,,,-00.000031160000,   0.11800,
,,,-00.000031120000,   0.09440,
,,,-00.000031080000,   0.11800,
,,,-00.000031040000,   0.07080,
,,,-00.000031000000,   0.16520,
,,,-00.000030960000,   0.11800,
,,,-00.000030920000,   0.11800,
,,,-00.000030880000,   0.09440,
,,,-00.000030840000,   0.11800,
,,,-00.000030800000,   0.07080,
,,,-00.000030760000,   0.09440,
,,,-00.000030720000,   0.11800,
,,,-00.000030680000,   0.07080,
,,,-00.000030640000,   0.09440,
,,,-00.000030600000,   0.09440,
,,,-00.000030560000,   0.09440,
,,,-00.000030520000,   0.14160,
,,,-00.000030480000,   0.11800,
,,,-00.000030440000,   0.11800,
,,,-00.000030400000,   0.14160,
,,,-00.000030360000,   0.09440,
,,,-00.000030320000,   0.09440,
,,,-00.000030280000,   0.09440,
,,,-00.000030240000,   0.09440,
,,,-00.000030200000,   0.11800,
,,,-00.000030160000,   0.09440,
,,,-00.000030120000,   0.09440,
,,,-00.000030080000,   0.11800,
,,,-00.000030040000,   0.11800,
,,,-00.000030000000,   0.09440,
,,,-00.000029960000,   0.14160,
,,,-00.000029920000,   0.09440,
,,,-00.000029880000,   0.11800,
,,,-00.000029840000,   0.11800,
,,,-00.000029800000,   0.11800,
,,,-00.000029760000,   0.11800,
,,,-00.000029720000,   0.09440,
,,,-00.000029680000,   0.11800,
,,,-00.000029640000,   0.11800,
,,,-00.000029600000,   0.16520,
,,,-00.000029560000,   3.46920,
,,,-00.000029520000,   3.54000,
,,,-00.000029480000,   3.49280,
,,,-00.000029440000,   3.46920,
,,,-00.000029400000,   3.56360,
,,,-00.000029360000,   3.44560,
,,,-00.000029320000,   3.46920,
,,,-00.000029280000,   3.51640,
,,,-00.000029240000,   3.61080,
,,,-00.000029200000,   3.51640,
,,,-00.000029160000,   3.49280,
,,,-00.000029120000,   3.49280,
,,,-00.000029080000,   3.44560,
,,,-00.000029040000,   3.49280,
,,,-00.000029000000,   3.54000,
,,,-00.000028960000,   3.51640,
,,,-00.000028920000,   3.49280,
,,,-00.000028880000,   3.44560,
,,,-00.000028840000,   3.49280,
,,,-00.000028800000,   3.49280,
,,,-00.000028760000,   3.51640,
,,,-00.000028720000,   3.54000,
,,,-00.000028680000,   3.46920,
,,,-00.000028640000,   3.49280,
,,,-00.000028600000,   3.49280,
,,,-00.000028560000,   3.49280,
,,,-00.000028520000,   3.49280,
,,,-00.000028480000,   3.51640,
,,,-00.000028440000,   3.49280,
,,,-00.000028400000,   3.49280,
,,,-00.000028360000,   3.51640,
,,,-00.000028320000,   3.49280,
,,,-00.000028280000,   3.46920,
,,,-00.000028240000,   3.42200,
,,,-00.000028200000,   3.54000,
,,,-00.000028160000,   3.46920,
,,,-00.000028120000,   3.46920,
,,,-00.000028080000,   3.49280,
,,,-00.000028040000,   3.49280,
,,,-00.000028000000,   3.49280,
,,,-00.000027960000,   3.54000,
,,,-00.000027920000,   3.54000,
,,,-00.000027880000,   3.49280,
,,,-00.000027840000,   3.49280,
,,,-00.000027800000,   3.49280,
,,,-00.000027760000,   3.46920,
,,,-00.000027720000,   3.49280,
,,,-00.000027680000,   3.54000,
,,,-00.000027640000,   3.46920,
,,,-00.000027600000,   3.46920,
,,,-00.000027560000,   3.49280,
,,,-00.000027520000,   3.51640,
,,,-00.000027480000,   3.46920,
,,,-00.000027440000,   3.49280,
,,,-00.000027400000,   3.51640,
,,,-00.000027360000,   3.46920,
,,,-00.000027320000,   3.51640,
,,,-00.000027280000,   3.44560,
,,,-00.000027240000,   3.49280,
,,,-00.000027200000,   3.49280,
,,,-00.000027160000,   3.51640,
,,,-00.000027120000,   3.54000,
,,,-00.000027080000,   3.46920,
,,,-00.000027040000,   3.51640,
,,,-00.000027000000,   3.49280,
,,,-00.000026960000,   3.54000,
,,,-00.000026920000,   3.49280,
,,,-00.000026880000,   3.51640,
,,,-00.000026840000,   3.54000,
,,,-00.000026800000,   3.49280,
,,,-00.000026760000,   3.51640,
,,,-00.000026720000,   3.51640,
,,,-00.000026680000,   3.49280,
,,,-00.000026640000,   3.51640,
,,,-00.000026600000,   3.49280,
,,,-00.000026560000,   3.54000,
,,,-00.000026520000,   3.51640,
,,,-00.000026480000,   3.51640,
,,,-00.000026440000,   3.46920,
,,,-00.000026400000,   3.51640,
,,,-00.000026360000,   3.56360,
,,,-00.000026320000,   3.51640,
,,,-00.000026280000,   3.51640,
,,,-00.000026240000,   3.46920,
,,,-00.000026200000,   3.46920,
,,,-00.000026160000,   3.51640,
,,,-00.000026120000,   3.54000,
,,,-00.000026080000,   3.49280,
,,,-00.000026040000,   3.49280,
,,,-00.000026000000,   3.51640,
,,,-00.000025960000,   3.44560,
,,,-00.000025920000,   3.49280,
,,,-00.000025880000,   3.54000,
,,,-00.000025840000,   3.51640,
,,,-00.000025800000,   3.54000,
,,,-00.000025760000,   3.46920,
,,,-00.000025720000,   3.51640,
,,,-00.000025680000,   3.44560,
,,,-00.000025640000,   3.49280,
,,,-00.000025600000,   3.49280,
,,,-00.000025560000,   3.49280,
,,,-00.000025520000,   3.46920,
,,,-00.000025480000,   3.49280,
,,,-00.000025440000,   3.54000,
,,,-00.000025400000,   3.46920,
,,,-00.000025360000,   3.49280,
,,,-00.000025320000,   3.51640,
,,,-00.000025280000,   3.54000,
,,,-00.000025240000,   3.46920,
,,,-00.000025200000,   3.49280,
,,,-00.000025160000,   3.51640,
,,,-00.000025120000,   3.44560,
,,,-00.000025080000,   3.54000,
,,,-00.000025040000,   3.54000,
,,,-00.000025000000,   3.51640,
,,,-00.000024960000,   3.49280,
,,,-00.000024920000,   3.46920,
,,,-00.000024880000,   3.51640,
,,,-00.000024840000,   3.46920,
,,,-00.000024800000,   3.49280,
,,,-00.000024760000,   3.54000,
,,,-00.000024720000,   3.54000,
,,,-00.000024680000,   3.51640,
,,,-00.000024640000,   3.49280,
,,,-00.000024600000,   3.49280,
,,,-00.000024560000,   3.54000,
,,,-00.000024520000,   3.54000,
,,,-00.000024480000,   3.54000,
,,,-00.000024440000,   3.46920,
,,,-00.000024400000,   3.51640,
,,,-00.000024360000,   3.46920,
,,,-00.000024320000,   3.49280,
,,,-00.000024280000,   3.49280,
,,,-00.000024240000,   3.51640,
,,,-00.000024200000,   3.51640,
,,,-00.000024160000,   3.56360,
,,,-00.000024120000,   3.49280,
,,,-00.000024080000,   3.46920,
,,,-00.000024040000,   3.51640,
,,,-00.000024000000,   3.54000,
,,,-00.000023960000,   3.54000,
,,,-00.000023920000,   3.51640,
,,,-00.000023880000,   3.51640,
,,,-00.000023840000,   3.46920,
,,,-00.000023800000,   3.46920,
,,,-00.000023760000,   3.54000,
,,,-00.000023720000,   3.51640,
,,,-00.000023680000,   3.46920,
,,,-00.000023640000,   3.49280,
,,,-00.000023600000,   0.14160,
,,,-00.000023560000,   0.14160,
,,,-00.000023520000,   0.09440,
,,,-00.000023480000,   0.16520,
,,,-00.000023440000,   0.14160,
,,,-00.000023400000,   0.11800,
,,,-00.000023360000,   0.14160,
,,,-00.000023320000,   0.11800,
,,,-00.000023280000,   0.11800,
,,,-00.000023240000,   0.14160,
,,,-00.000023200000,   0.14160,
,,,-00.000023160000,   0.16520,
,,,-00.000023120000,   0.14160,
,,,-00.000023080000,   0.11800,
,,,-00.000023040000,   0.11800,
,,,-00.000023000000,   0.18880,
,,,-00.000022960000,   0.11800,
,,,-00.000022920000,   0.16520,
,,,-00.000022880000,   0.14160,
,,,-00.000022840000,   0.11800,
,,,-00.000022800000,   0.11800,
,,,-00.000022760000,   0.09440,
,,,-00.000022720000,   0.14160,
,,,-00.000022680000,   0.14160,
,,,-00.000022640000,   0.11800,
,,,-00.000022600000,   0.18880,
,,,-00.000022560000,   0.14160,
,,,-00.000022520000,   0.16520,
,,,-00.000022480000,   0.16520,
,,,-00.000022440000,   0.14160,
,,,-00.000022400000,   0.11800,
,,,-00.000022360000,   0.11800,
,,,-00.000022320000,   0.11800,
,,,-00.000022280000,   0.11800,
,,,-00.000022240000,   0.09440,
,,,-00.000022200000,   0.14160,
,,,-00.000022160000,   0.14160,
,,,-00.000022120000,   0.16520,
,,,-00.000022080000,   0.14160,
,,,-00.000022040000,   0.18880,
,,,-00.000022000000,   0.11800,
,,,-00.000021960000,   0.14160,
,,,-00.000021920000,   0.11800,
,,,-00.000021880000,   0.11800,
,,,-00.000021840000,   0.11800,
,,,-00.000021800000,   0.14160,
,,,-00.000021760000,   0.16520,
,,,-00.000021720000,   0.14160,
,,,-00.000021680000,   0.11800,
,,,-00.000021640000,   0.77880,
,,,-00.000021600000,   3.51640,
,,,-00.000021560000,   3.51640,
,,,-00.000021520000,   3.51640,
,,,-00.000021480000,   3.51640,
,,,-00.000021440000,   3.49280,
,,,-00.000021400000,   3.49280,
,,,-00.000021360000,   3.54000,
,,,-00.000021320000,   3.54000,
,,,-00.000021280000,   3.54000,
,,,-00.000021240000,   3.51640,
,,,-00.000021200000,   3.56360,
,,,-00.000021160000,   3.49280,
,,,-00.000021120000,   3.54000,
,,,-00.000021080000,   3.51640,
,,,-00.000021040000,   3.51640,
,,,-00.000021000000,   3.54000,
,,,-00.000020960000,   3.46920,
,,,-00.000020920000,   3.51640,
,,,-00.000020880000,   3.49280,
,,,-00.000020840000,   3.49280,
,,,-00.000020800000,   3.54000,
,,,-00.000020760000,   3.51640,
,,,-00.000020720000,   3.51640,
,,,-00.000020680000,   3.46920,
,,,-00.000020640000,   3.51640,
,,,-00.000020600000,   3.51640,
,,,-00.000020560000,   3.51640,
,,,-00.000020520000,   3.54000,
,,,-00.000020480000,   3.46920,
,,,-00.000020440000,   3.54000,
,,,-00.000020400000,   3.49280,
,,,-00.000020360000,   3.51640,
,,,-00.000020320000,   3.51640,
,,,-00.000020280000,   3.51640,
,,,-00.000020240000,   3.54000,
,,,-00.000020200000,   3.54000,
,,,-00.000020160000,   3.54000,
,,,-00.000020120000,   3.46920,
,,,-00.000020080000,   3.49280,
,,,-00.000020040000,   3.54000,
,,,-00.000020000000,   3.56360,
,,,-00.000019960000,   3.51640,
,,,-00.000019920000,   3.51640,
,,,-00.000019880000,   3.56360,
,,,-00.000019840000,   3.49280,
,,,-00.000019800000,   3.54000,
,,,-00.000019760000,   3.56360,
,,,-00.000019720000,   3.51640,
,,,-00.000019680000,   3.56360,
,,,-00.000019640000,   3.49280,
,,,-00.000019600000,   3.51640,
,,,-00.000019560000,   3.49280,
,,,-00.000019520000,   3.51640,
,,,-00.000019480000,   3.54000,
,,,-00.000019440000,   3.46920,
,,,-00.000019400000,   3.51640,
,,,-00.000019360000,   3.51640,
,,,-00.000019320000,   3.54000,
,,,-00.000019280000,   3.51640,
,,,-00.000019240000,   3.51640,
,,,-00.000019200000,   3.56360,
,,,-00.000019160000,   3.49280,
,,,-00.000019120000,   3.54000,
,,,-00.000019080000,   3.51640,
,,,-00.000019040000,   3.54000,
,,,-00.000019000000,   3.49280,
,,,-00.000018960000,   3.56360,
,,,-00.000018920000,   3.51640,
,,,-00.000018880000,   3.54000,
,,,-00.000018840000,   3.51640,
,,,-00.000018800000,   3.49280,
,,,-00.000018760000,   3.56360,
,,,-00.000018720000,   3.51640,
,,,-00.000018680000,   3.54000,
,,,-00.000018640000,   3.56360,
,,,-00.000018600000,   3.51640,
,,,-00.000018560000,   3.49280,
,,,-00.000018520000,   3.54000,
,,,-00.000018480000,   3.51640,
,,,-00.000018440000,   3.54000,
,,,-00.000018400000,   3.54000,
,,,-00.000018360000,   3.51640,
,,,-00.000018320000,   3.54000,
,,,-00.000018280000,   3.49280,
,,,-00.000018240000,   3.51640,
,,,-00.000018200000,   3.51640,
,,,-00.000018160000,   3.49280,
,,,-00.000018120000,   3.51640,
,,,-00.000018080000,   3.54000,
,,,-00.000018040000,   3.46920,
,,,-00.000018000000,   3.51640,
,,,-00.000017960000,   3.51640,
,,,-00.000017920000,   3.51640,
,,,-00.000017880000,   3.56360,
,,,-00.000017840000,   3.51640,
,,,-00.000017800000,   3.51640,
,,,-00.000017760000,   3.46920,
,,,-00.000017720000,   3.51640,
,,,-00.000017680000,   3.49280,
,,,-00.000017640000,   0.21240,
,,,-00.000017600000,   0.07080,
,,,-00.000017560000,   0.11800,
,,,-00.000017520000,   0.16520,
,,,-00.000017480000,   0.14160,
,,,-00.000017440000,   0.14160,
,,,-00.000017400000,   0.14160,
,,,-00.000017360000,   0.16520,
,,,-00.000017320000,   0.11800,
,,,-00.000017280000,   0.11800,
,,,-00.000017240000,   0.14160,
,,,-00.000017200000,   0.11800,
,,,-00.000017160000,   0.16520,
,,,-00.000017120000,   0.11800,
,,,-00.000017080000,   0.16520,
,,,-00.000017040000,   0.14160,
,,,-00.000017000000,   0.11800,
,,,-00.000016960000,   0.11800,
,,,-00.000016920000,   0.14160,
,,,-00.000016880000,   0.14160,
,,,-00.000016840000,   0.14160,
,,,-00.000016800000,   0.11800,
,,,-00.000016760000,   0.16520,
,,,-00.000016720000,   0.14160,
,,,-00.000016680000,   0.11800,
,,,-00.000016640000,   0.14160,
,,,-00.000016600000,   0.14160,
,,,-00.000016560000,   0.09440,
,,,-00.000016520000,   0.14160,
,,,-00.000016480000,   0.14160,
,,,-00.000016440000,   0.11800,
,,,-00.000016400000,   0.14160,
,,,-00.000016360000,   0.14160,
,,,-00.000016320000,   0.09440,
,,,-00.000016280000,   0.07080,
,,,-00.000016240000,   0.11800,
,,,-00.000016200000,   0.14160,
,,,-00.000016160000,   0.11800,
,,,-00.000016120000,   0.14160,
,,,-00.000016080000,   0.09440,
,,,-00.000016040000,   0.14160,
,,,-00.000016000000,   0.14160,
,,,-00.000015960000,   0.14160,
,,,-00.000015920000,   0.07080,
,,,-00.000015880000,   0.11800,
,,,-00.000015840000,   0.16520,
,,,-00.000015800000,   0.11800,
,,,-00.000015760000,   0.11800,
,,,-00.000015720000,   0.14160,
,,,-00.000015680000,   0.14160,
,,,-00.000015640000,   0.11800,
,,,-00.000015600000,   0.11800,
,,,-00.000015560000,   0.09440,
,,,-00.000015520000,   0.11800,
,,,-00.000015480000,   0.14160,
,,,-00.000015440000,   0.11800,
,,,-00.000015400000,   0.11800,
,,,-00.000015360000,   0.14160,
,,,-00.000015320000,   0.23600,
,,,-00.000015280000,   0.11800,
,,,-00.000015240000,   0.11800,
,,,-00.000015200000,   0.16520,
,,,-00.000015160000,   0.11800,
,,,-00.000015120000,   0.09440,
,,,-00.000015080000,   0.14160,
,,,-00.000015040000,   0.11800,
,,,-00.000015000000,   0.11800,
,,,-00.000014960000,   0.11800,
,,,-00.000014920000,   0.14160,
,,,-00.000014880000,   0.14160,
,,,-00.000014840000,   0.14160,
,,,-00.000014800000,   0.14160,
