Data/ALL0023/F0023MTH.CSV

Record Length,1.024000e+03,,          0.00000, -30.56910,
Sample Interval,1.220703e+03,,       1220.70313, -34.16910,
Trigger Point,0.000000000000e+00,,       2441.40625, -56.96910,
,,,       3662.10938, -60.96910,
,,,       4882.81250, -50.16910,
,,,       6103.51563, -40.16910,
Source,MATH,,       7324.21875, -30.16910,
Vertical Units,dB,,       8544.92188,  -5.36910,
Vertical Scale,1.000000e+01,,       9765.62500,   3.03090,
Vertical Offset,0.000000e+00,,      10986.32813,  -0.56910,
Horizontal Units,Hz,,      12207.03125, -23.76910,
Horizontal Scale,1.250000e+05,,      13427.73438, -36.96910,
Pt Fmt,Y,,      14648.43750, -49.36910,
Yzero,-2.096910e+01,,      15869.14063, -47.76910,
Probe Atten,1.000000e+00,,      17089.84375, -56.96910,
Model Number,TDS1012C-EDU,,      18310.54688, -60.96910,
Serial Number,C013699,,      19531.25000, -50.16910,
Firmware Version,FV:v25.07,,      20751.95313, -54.96910,
,,,21972.65626, -60.96910,
,,,23193.35939, -57.36910,
,,,24414.06252, -60.96910,
,,,25634.76565, -60.96910,
,,,26855.46878, -60.96910,
,,,28076.17191, -59.76910,
,,,29296.87504, -46.16910,
,,,30517.57817, -44.56910,
,,,31738.28130, -54.96910,
,,,32958.98443, -60.96910,
,,,34179.68756, -60.96910,
,,,35400.39069, -59.76910,
,,,36621.09382, -60.96910,
,,,37841.79695, -60.96910,
,,,39062.50008, -60.96910,
,,,40283.20321, -56.96910,
,,,41503.90634, -56.96910,
,,,42724.60947, -56.96910,
,,,43945.31260, -54.56910,
,,,45166.01573, -54.56910,
,,,46386.71886, -59.76910,
,,,47607.42199, -59.76910,
,,,48828.12512, -59.76910,
,,,50048.82825, -54.96910,
,,,51269.53138, -59.76910,
,,,52490.23451, -60.96910,
,,,53710.93764, -60.96910,
,,,54931.64077, -60.96910,
,,,56152.34390, -60.96910,
,,,57373.04703, -60.96910,
,,,58593.75016, -60.96910,
,,,59814.45329, -60.96910,
,,,61035.15642, -60.96910,
,,,62255.85955, -60.96910,
,,,63476.56268, -55.76910,
,,,64697.26581, -60.96910,
,,,65917.96894, -57.36910,
,,,67138.67207, -57.36910,
,,,68359.37520, -55.76910,
,,,69580.07833, -54.56910,
,,,70800.78146, -60.96910,
,,,72021.48459, -60.96910,
,,,73242.18772, -59.76910,
,,,74462.89085, -52.96910,
,,,75683.59398, -51.76910,
,,,76904.29711, -56.96910,
,,,78125.00024, -60.96910,
,,,79345.70337, -60.96910,
,,,80566.40650, -60.96910,
,,,81787.10963, -60.96910,
,,,83007.81276, -57.36910,
,,,84228.51589, -59.76910,
,,,85449.21902, -60.96910,
,,,86669.92215, -60.96910,
,,,87890.62528, -60.96910,
,,,89111.32841, -59.76910,
,,,90332.03154, -54.56910,
,,,91552.73467, -57.76910,
,,,92773.43780, -59.76910,
,,,93994.14093, -59.76910,
,,,95214.84406, -60.96910,
,,,96435.54719, -60.96910,
,,,97656.25032, -60.96910,
,,,98876.95345, -60.96910,
,,,100097.65658, -59.76910,
,,,101318.35971, -52.96910,
,,,102539.06284, -54.56910,
,,,103759.76597, -60.96910,
,,,104980.46910, -60.96910,
,,,106201.17223, -60.96910,
,,,107421.87536, -60.96910,
,,,108642.57849, -57.76910,
,,,109863.28162, -57.36910,
,,,111083.98475, -59.76910,
,,,112304.68788, -55.76910,
,,,113525.39101, -56.96910,
,,,114746.09414, -60.96910,
,,,115966.79727, -60.96910,
,,,117187.50040, -60.96910,
,,,118408.20353, -60.96910,
,,,119628.90666, -54.56910,
,,,120849.60979, -54.56910,
,,,122070.31292, -60.96910,
,,,123291.01605, -60.96910,
,,,124511.71918, -60.96910,
,,,125732.42231, -60.96910,
,,,126953.12544, -60.96910,
,,,128173.82857, -60.96910,
,,,129394.53170, -60.96910,
,,,130615.23483, -59.76910,
,,,131835.93796, -57.76910,
,,,133056.64109, -56.96910,
,,,134277.34422, -59.76910,
,,,135498.04735, -60.96910,
,,,136718.75048, -60.96910,
,,,137939.45361, -60.96910,
,,,139160.15674, -59.76910,
,,,140380.85987, -60.96910,
,,,141601.56300, -60.96910,
,,,142822.26613, -60.96910,
,,,144042.96926, -60.96910,
,,,145263.67239, -59.76910,
,,,146484.37552, -60.96910,
,,,147705.07865, -59.76910,
,,,148925.78178, -56.96910,
,,,150146.48491, -59.76910,
,,,151367.18804, -56.96910,
,,,152587.89117, -59.76910,
,,,153808.59430, -60.96910,
,,,155029.29743, -60.96910,
,,,156250.00056, -57.36910,
,,,157470.70369, -60.96910,
,,,158691.40682, -57.76910,
,,,159912.10995, -60.96910,
,,,161132.81308, -59.76910,
,,,162353.51621, -60.96910,
,,,163574.21934, -60.96910,
,,,164794.92247, -57.76910,
,,,166015.62560, -60.96910,
,,,167236.32873, -56.96910,
,,,168457.03186, -54.96910,
,,,169677.73499, -56.96910,
,,,170898.43812, -56.96910,
,,,172119.14125, -59.76910,
,,,173339.84438, -60.96910,
,,,174560.54751, -60.96910,
,,,175781.25064, -60.96910,
,,,177001.95377, -60.96910,
,,,178222.65690, -59.76910,
,,,179443.36003, -60.96910,
,,,180664.06316, -60.96910,
,,,181884.76629, -60.96910,
,,,183105.46942, -59.76910,
,,,184326.17255, -56.96910,
,,,185546.87568, -59.76910,
,,,186767.57881, -59.76910,
,,,187988.28194, -57.76910,
,,,189208.98507, -55.76910,
,,,190429.68820, -56.96910,
,,,191650.39133, -60.96910,
,,,192871.09446, -60.96910,
,,,194091.79759, -60.96910,
,,,195312.50072, -60.96910,
,,,196533.20385, -55.76910,
,,,197753.90698, -60.96910,
,,,198974.61011, -60.96910,
,,,200195.31324, -60.96910,
,,,201416.01637, -60.96910,
,,,202636.71950, -59.76910,
,,,203857.42263, -56.96910,
,,,205078.12576, -60.96910,
,,,206298.82889, -60.96910,
,,,207519.53202, -60.96910,
,,,208740.23515, -60.96910,
,,,209960.93828, -60.96910,
,,,211181.64141, -59.76910,
,,,212402.34454, -55.76910,
,,,213623.04767, -53.76910,
,,,214843.75080, -57.36910,
,,,216064.45393, -59.76910,
,,,217285.15706, -57.36910,
,,,218505.86019, -60.96910,
,,,219726.56332, -60.96910,
,,,220947.26645, -59.76910,
,,,222167.96958, -59.76910,
,,,223388.67271, -60.96910,
,,,224609.37584, -60.96910,
,,,225830.07897, -59.76910,
,,,227050.78210, -59.76910,
,,,228271.48523, -60.96910,
,,,229492.18836, -59.76910,
,,,230712.89149, -57.36910,
,,,231933.59462, -60.96910,
,,,233154.29775, -60.96910,
,,,234375.00088, -59.76910,
,,,235595.70401, -60.96910,
,,,236816.40714, -60.96910,
,,,238037.11027, -54.56910,
,,,239257.81340, -59.76910,
,,,240478.51653, -60.96910,
,,,241699.21966, -59.76910,
,,,242919.92279, -60.96910,
,,,244140.62592, -60.96910,
,,,245361.32905, -60.96910,
,,,246582.03218, -60.96910,
,,,247802.73531, -60.96910,
,,,249023.43844, -60.96910,
,,,250244.14157, -60.96910,
,,,251464.84470, -60.96910,
,,,252685.54783, -55.76910,
,,,253906.25096, -59.76910,
,,,255126.95409, -59.76910,
,,,256347.65722, -60.96910,
,,,257568.36035, -60.96910,
,,,258789.06348, -60.96910,
,,,260009.76661, -60.96910,
,,,261230.46974, -60.96910,
,,,262451.17287, -59.76910,
,,,263671.87600, -60.96910,
,,,264892.57913, -60.96910,
,,,266113.28226, -60.96910,
,,,267333.98539, -60.96910,
,,,268554.68852, -56.96910,
,,,269775.39165, -59.76910,
,,,270996.09478, -60.96910,
,,,272216.79791, -60.96910,
,,,273437.50104, -60.96910,
,,,274658.20417, -60.96910,
,,,275878.90730, -60.96910,
,,,277099.61043, -60.96910,
,,,278320.31356, -60.96910,
,,,279541.01669, -60.96910,
,,,280761.71982, -60.96910,
,,,281982.42295, -57.76910,
,,,283203.12608, -60.96910,
,,,284423.82921, -54.56910,
,,,285644.53234, -59.76910,
,,,286865.23547, -60.96910,
,,,288085.93860, -60.96910,
,,,289306.64173, -59.76910,
,,,290527.34486, -60.96910,
,,,291748.04799, -60.96910,
,,,292968.75112, -60.96910,
,,,294189.45425, -60.96910,
,,,295410.15738, -60.96910,
,,,296630.86051, -60.96910,
,,,297851.56364, -60.96910,
,,,299072.26677, -60.96910,
,,,300292.96990, -56.96910,
,,,301513.67303, -60.96910,
,,,302734.37616, -54.56910,
,,,303955.07929, -56.96910,
,,,305175.78242, -60.96910,
,,,306396.48555, -60.96910,
,,,307617.18868, -60.96910,
,,,308837.89181, -60.96910,
,,,310058.59494, -56.96910,
,,,311279.29807, -57.36910,
,,,312500.00120, -60.96910,
,,,313720.70433, -59.76910,
,,,314941.40746, -60.96910,
,,,316162.11059, -60.96910,
,,,317382.81372, -60.96910,
,,,318603.51685, -59.76910,
,,,319824.21998, -60.96910,
,,,321044.92311, -60.96910,
,,,322265.62624, -60.96910,
,,,323486.32937, -59.76910,
,,,324707.03250, -55.76910,
,,,325927.73563, -59.76910,
,,,327148.43876, -59.76910,
,,,328369.14189, -59.76910,
,,,329589.84502, -54.96910,
,,,330810.54815, -60.96910,
,,,332031.25128, -60.96910,
,,,333251.95441, -54.56910,
,,,334472.65754, -56.96910,
,,,335693.36067, -59.76910,
,,,336914.06380, -60.96910,
,,,338134.76693, -60.96910,
,,,339355.47006, -60.96910,
,,,340576.17319, -60.96910,
,,,341796.87632, -60.96910,
,,,343017.57945, -59.76910,
,,,344238.28258, -60.96910,
,,,345458.98571, -60.96910,
,,,346679.68884, -55.76910,
,,,347900.39197, -59.76910,
,,,349121.09510, -60.96910,
,,,350341.79823, -57.36910,
,,,351562.50136, -60.96910,
,,,352783.20449, -59.76910,
,,,354003.90762, -60.96910,
,,,355224.61075, -57.76910,
,,,356445.31388, -60.96910,
,,,357666.01701, -60.96910,
,,,358886.72014, -60.96910,
,,,360107.42327, -60.96910,
,,,361328.12640, -60.96910,
,,,362548.82953, -60.96910,
,,,363769.53266, -60.96910,
,,,364990.23579, -60.96910,
,,,366210.93892, -60.96910,
,,,367431.64205, -60.96910,
,,,368652.34518, -60.96910,
,,,369873.04831, -59.76910,
,,,371093.75144, -60.96910,
,,,372314.45457, -60.96910,
,,,373535.15770, -60.96910,
,,,374755.86083, -60.96910,
,,,375976.56396, -60.96910,
,,,377197.26709, -60.96910,
,,,378417.97022, -59.76910,
,,,379638.67335, -60.96910,
,,,380859.37648, -56.96910,
,,,382080.07961, -53.76910,
,,,383300.78274, -60.96910,
,,,384521.48587, -59.76910,
,,,385742.18900, -56.96910,
,,,386962.89213, -60.96910,
,,,388183.59526, -60.96910,
,,,389404.29839, -60.96910,
,,,390625.00152, -60.96910,
,,,391845.70465, -60.96910,
,,,393066.40778, -60.96910,
,,,394287.11091, -60.96910,
,,,395507.81404, -55.76910,
,,,396728.51717, -59.76910,
,,,397949.22030, -60.96910,
,,,399169.92343, -60.96910,
,,,400390.62656, -59.76910,
,,,401611.32969, -57.36910,
,,,402832.03282, -55.76910,
,,,404052.73595, -49.36910,
,,,405273.43908, -54.56910,
,,,406494.14221, -60.96910,
,,,407714.84534, -60.96910,
,,,408935.54847, -60.96910,
,,,410156.25160, -59.76910,
,,,411376.95473, -60.96910,
,,,412597.65786, -60.96910,
,,,413818.36099, -60.96910,
,,,415039.06412, -59.76910,
,,,416259.76725, -56.96910,
,,,417480.47038, -57.76910,
,,,418701.17351, -60.96910,
,,,419921.87664, -59.76910,
,,,421142.57977, -55.76910,
,,,422363.28290, -55.76910,
,,,423583.98603, -60.96910,
,,,424804.68916, -59.76910,
,,,426025.39229, -60.96910,
,,,427246.09542, -59.76910,
,,,428466.79855, -59.76910,
,,,429687.50168, -60.96910,
,,,430908.20481, -60.96910,
,,,432128.90794, -60.96910,
,,,433349.61107, -60.96910,
,,,434570.31420, -60.96910,
,,,435791.01733, -60.96910,
,,,437011.72046, -59.76910,
,,,438232.42359, -59.76910,
,,,439453.12672, -56.96910,
,,,440673.82985, -60.96910,
,,,441894.53298, -56.96910,
,,,443115.23611, -57.36910,
,,,444335.93924, -56.96910,
,,,445556.64237, -60.96910,
,,,446777.34550, -60.96910,
,,,447998.04863, -60.96910,
,,,449218.75176, -60.96910,
,,,450439.45489, -56.96910,
,,,451660.15802, -60.96910,
,,,452880.86115, -60.96910,
,,,454101.56428, -60.96910,
,,,455322.26741, -60.96910,
,,,456542.97054, -60.96910,
,,,457763.67367, -57.36910,
,,,458984.37680, -60.96910,
,,,460205.07993, -59.76910,
,,,461425.78306, -54.56910,
,,,462646.48619, -54.56910,
,,,463867.18932, -56.96910,
,,,465087.89245, -57.36910,
,,,466308.59558, -60.96910,
,,,467529.29871, -60.96910,
,,,468750.00184, -59.76910,
,,,469970.70497, -60.96910,
,,,471191.40810, -60.96910,
,,,472412.11123, -54.56910,
,,,473632.81436, -54.96910,
,,,474853.51749, -59.76910,
,,,476074.22062, -60.96910,
,,,477294.92375, -59.76910,
,,,478515.62688, -60.96910,
,,,479736.33001, -57.36910,
,,,480957.03314, -54.56910,
,,,482177.73627, -54.56910,
,,,483398.43940, -57.36910,
,,,484619.14253, -59.76910,
,,,485839.84566, -60.96910,
,,,487060.54879, -60.96910,
,,,488281.25192, -60.96910,
,,,489501.95505, -59.76910,
,,,490722.65818, -60.96910,
,,,491943.36131, -56.96910,
,,,493164.06444, -56.96910,
,,,494384.76757, -59.76910,
,,,495605.47070, -57.76910,
,,,496826.17383, -57.76910,
,,,498046.87696, -53.76910,
,,,499267.58009, -54.96910,
,,,500488.28322, -56.96910,
,,,501708.98635, -57.76910,
,,,502929.68948, -59.76910,
,,,504150.39261, -59.76910,
,,,505371.09574, -56.96910,
,,,506591.79887, -59.76910,
,,,507812.50200, -60.96910,
,,,509033.20513, -59.76910,
,,,510253.90826, -60.96910,
,,,511474.61139, -56.96910,
,,,512695.31452, -60.96910,
,,,513916.01765, -60.96910,
,,,515136.72078, -60.96910,
,,,516357.42391, -60.96910,
,,,517578.12704, -60.96910,
,,,518798.83017, -60.96910,
,,,520019.53330, -59.76910,
,,,521240.23643, -60.96910,
,,,522460.93956, -60.96910,
,,,523681.64269, -60.96910,
,,,524902.34582, -56.96910,
,,,526123.04895, -59.76910,
,,,527343.75208, -60.96910,
,,,528564.45521, -60.96910,
,,,529785.15834, -59.76910,
,,,531005.86147, -57.76910,
,,,532226.56460, -60.96910,
,,,533447.26773, -60.96910,
,,,534667.97086, -57.76910,
,,,535888.67399, -59.76910,
,,,537109.37712, -60.96910,
,,,538330.08025, -60.96910,
,,,539550.78338, -54.56910,
,,,540771.48651, -57.36910,
,,,541992.18964, -60.96910,
,,,543212.89277, -59.76910,
,,,544433.59590, -60.96910,
,,,545654.29903, -57.76910,
,,,546875.00216, -57.76910,
,,,548095.70529, -59.76910,
,,,549316.40842, -56.96910,
,,,550537.11155, -60.96910,
,,,551757.81468, -59.76910,
,,,552978.51781, -59.76910,
,,,554199.22094, -60.96910,
,,,555419.92407, -60.96910,
,,,556640.62720, -60.96910,
,,,557861.33033, -59.76910,
,,,559082.03346, -59.76910,
,,,560302.73659, -56.96910,
,,,561523.43972, -55.76910,
,,,562744.14285, -54.56910,
,,,563964.84598, -56.96910,
,,,565185.54911, -60.96910,
,,,566406.25224, -60.96910,
,,,567626.95537, -60.96910,
,,,568847.65850, -60.96910,
,,,570068.36163, -60.96910,
,,,571289.06476, -55.76910,
,,,572509.76789, -60.96910,
,,,573730.47102, -60.96910,
,,,574951.17415, -60.96910,
,,,576171.87728, -60.96910,
,,,577392.58041, -60.96910,
,,,578613.28354, -59.76910,
,,,579833.98667, -59.76910,
,,,581054.68980, -60.96910,
,,,582275.39293, -60.96910,
,,,583496.09606, -59.76910,
,,,584716.79919, -60.96910,
,,,585937.50232, -60.96910,
,,,587158.20545, -60.96910,
,,,588378.90858, -60.96910,
,,,589599.61171, -57.36910,
,,,590820.31484, -60.96910,
,,,592041.01797, -57.36910,
,,,593261.72110, -60.96910,
,,,594482.42423, -59.76910,
,,,595703.12736, -54.56910,
,,,596923.83049, -53.76910,
,,,598144.53362, -60.96910,
,,,599365.23675, -54.56910,
,,,600585.93988, -59.76910,
,,,601806.64301, -60.96910,
,,,603027.34614, -60.96910,
,,,604248.04927, -54.96910,
,,,605468.75240, -45.76910,
,,,606689.45553, -44.56910,
,,,607910.15866, -57.36910,
,,,609130.86179, -60.96910,
,,,610351.56492, -60.96910,
,,,611572.26805, -60.96910,
,,,612792.97118, -60.96910,
,,,614013.67431, -56.96910,
,,,615234.37744, -50.96910,
,,,616455.08057, -50.96910,
,,,617675.78370, -59.76910,
,,,618896.48683, -60.96910,
,,,620117.18996, -60.96910,
,,,621337.89309, -60.96910,
,,,622558.59622, -60.96910,
,,,623779.29935, -60.96910,
,,,625000.00248, -59.76910,
,,,626220.70561, -54.56910,
,,,627441.40874, -60.96910,
,,,628662.11187, -59.76910,
,,,629882.81500, -59.76910,
,,,631103.51813, -59.76910,
,,,632324.22126, -60.96910,
,,,633544.92439, -60.96910,
,,,634765.62752, -60.96910,
,,,635986.33065, -60.96910,
,,,637207.03378, -60.96910,
,,,638427.73691, -60.96910,
,,,639648.44004, -60.96910,
,,,640869.14317, -60.96910,
,,,642089.84630, -60.96910,
,,,643310.54943, -59.76910,
,,,644531.25256, -56.96910,
,,,645751.95569, -54.56910,
,,,646972.65882, -56.96910,
,,,648193.36195, -60.96910,
,,,649414.06508, -60.96910,
,,,650634.76821, -59.76910,
,,,651855.47134, -60.96910,
,,,653076.17447, -60.96910,
,,,654296.87760, -60.96910,
,,,655517.58073, -60.96910,
,,,656738.28386, -60.96910,
,,,657958.98699, -60.96910,
,,,659179.69012, -60.96910,
,,,660400.39325, -59.76910,
,,,661621.09638, -60.96910,
,,,662841.79951, -59.76910,
,,,664062.50264, -60.96910,
,,,665283.20577, -60.96910,
,,,666503.90890, -55.76910,
,,,667724.61203, -59.76910,
,,,668945.31516, -60.96910,
,,,670166.01829, -59.76910,
,,,671386.72142, -57.36910,
,,,672607.42455, -55.76910,
,,,673828.12768, -55.76910,
,,,675048.83081, -56.96910,
,,,676269.53394, -59.76910,
,,,677490.23707, -60.96910,
,,,678710.94020, -60.96910,
,,,679931.64333, -60.96910,
,,,681152.34646, -60.96910,
,,,682373.04959, -60.96910,
,,,683593.75272, -60.96910,
,,,684814.45585, -60.96910,
,,,686035.15898, -60.96910,
,,,687255.86211, -60.96910,
,,,688476.56524, -60.96910,
,,,689697.26837, -60.96910,
,,,690917.97150, -60.96910,
,,,692138.67463, -54.96910,
,,,693359.37776, -53.76910,
,,,694580.08089, -60.96910,
,,,695800.78402, -60.96910,
,,,697021.48715, -60.96910,
,,,698242.19028, -60.96910,
,,,699462.89341, -59.76910,
,,,700683.59654, -60.96910,
,,,701904.29967, -60.96910,
,,,703125.00280, -59.76910,
,,,704345.70593, -60.96910,
,,,705566.40906, -60.96910,
,,,706787.11219, -52.96910,
,,,708007.81532, -52.96910,
,,,709228.51845, -57.36910,
,,,710449.22158, -60.96910,
,,,711669.92471, -60.96910,
,,,712890.62784, -60.96910,
,,,714111.33097, -60.96910,
,,,715332.03410, -57.36910,
,,,716552.73723, -60.96910,
,,,717773.44036, -60.96910,
,,,718994.14349, -60.96910,
,,,720214.84662, -60.96910,
,,,721435.54975, -60.96910,
,,,722656.25288, -59.76910,
,,,723876.95601, -60.96910,
,,,725097.65914, -59.76910,
,,,726318.36227, -57.76910,
,,,727539.06540, -57.36910,
,,,728759.76853, -60.96910,
,,,729980.47166, -60.96910,
,,,731201.17479, -59.76910,
,,,732421.87792, -55.76910,
,,,733642.58105, -56.96910,
,,,734863.28418, -60.96910,
,,,736083.98731, -59.76910,
,,,737304.69044, -60.96910,
,,,738525.39357, -60.96910,
,,,739746.09670, -57.76910,
,,,740966.79983, -60.96910,
,,,742187.50296, -60.96910,
,,,743408.20609, -59.76910,
,,,744628.90922, -55.76910,
,,,745849.61235, -60.96910,
,,,747070.31548, -60.96910,
,,,748291.01861, -59.76910,
,,,749511.72174, -57.76910,
,,,750732.42487, -60.96910,
,,,751953.12800, -59.76910,
,,,753173.83113, -60.96910,
,,,754394.53426, -60.96910,
,,,755615.23739, -60.96910,
,,,756835.94052, -53.76910,
,,,758056.64365, -53.76910,
,,,759277.34678, -59.76910,
,,,760498.04991, -57.36910,
,,,761718.75304, -54.96910,
,,,762939.45617, -56.96910,
,,,764160.15930, -60.96910,
,,,765380.86243, -60.96910,
,,,766601.56556, -60.96910,
,,,767822.26869, -57.76910,
,,,769042.97182, -60.96910,
,,,770263.67495, -59.76910,
,,,771484.37808, -57.76910,
,,,772705.08121, -60.96910,
,,,773925.78434, -60.96910,
,,,775146.48747, -60.96910,
,,,776367.19060, -60.96910,
,,,777587.89373, -60.96910,
,,,778808.59686, -60.96910,
,,,780029.29999, -57.76910,
,,,781250.00312, -60.96910,
,,,782470.70625, -54.96910,
,,,783691.40938, -60.96910,
,,,784912.11251, -60.96910,
,,,786132.81564, -59.76910,
,,,787353.51877, -60.96910,
,,,788574.22190, -60.96910,
,,,789794.92503, -60.96910,
,,,791015.62816, -57.36910,
,,,792236.33129, -59.76910,
,,,793457.03442, -56.96910,
,,,794677.73755, -57.76910,
,,,795898.44068, -60.96910,
,,,797119.14381, -60.96910,
,,,798339.84694, -60.96910,
,,,799560.55007, -60.96910,
,,,800781.25320, -56.96910,
,,,802001.95633, -54.56910,
,,,803222.65946, -60.96910,
,,,804443.36259, -60.96910,
,,,805664.06572, -59.76910,
,,,806884.76885, -59.76910,
,,,808105.47198, -60.96910,
,,,809326.17511, -60.96910,
,,,810546.87824, -60.96910,
,,,811767.58137, -60.96910,
,,,812988.28450, -59.76910,
,,,814208.98763, -60.96910,
,,,815429.69076, -59.76910,
,,,816650.39389, -60.96910,
,,,817871.09702, -60.96910,
,,,819091.80015, -55.76910,
,,,820312.50328, -57.76910,
,,,821533.20641, -60.96910,
,,,822753.90954, -60.96910,
,,,823974.61267, -59.76910,
,,,825195.31580, -57.76910,
,,,826416.01893, -56.96910,
,,,827636.72206, -57.36910,
,,,828857.42519, -60.96910,
,,,830078.12832, -60.96910,
,,,831298.83145, -60.96910,
,,,832519.53458, -60.96910,
,,,833740.23771, -60.96910,
,,,834960.94084, -60.96910,
,,,836181.64397, -60.96910,
,,,837402.34710, -60.96910,
,,,838623.05023, -60.96910,
,,,839843.75336, -60.96910,
,,,841064.45649, -60.96910,
,,,842285.15962, -60.96910,
,,,843505.86275, -56.96910,
,,,844726.56588, -57.36910,
,,,845947.26901, -60.96910,
,,,847167.97214, -60.96910,
,,,848388.67527, -59.76910,
,,,849609.37840, -57.76910,
,,,850830.08153, -59.76910,
,,,852050.78466, -55.76910,
,,,853271.48779, -59.76910,
,,,854492.19092, -60.96910,
