Data/ALL0037/F0037MTH.CSV

Record Length,1.024000e+03,,          0.00000, -25.36910,
Sample Interval,2.466067e-02,,          0.02466, -22.96910,
Trigger Point,0.000000000000e+00,,          0.04932, -29.76910,
,,,          0.07398, -49.36910,
,,,          0.09864, -60.96910,
,,,          0.12330, -60.96910,
Source,MATH,,          0.14796, -51.76910,
Vertical Units,dB,,          0.17262, -54.56910,
Vertical Scale,1.000000e+01,,          0.19729, -51.36910,
Vertical Offset,0.000000e+00,,          0.22195, -54.56910,
Horizontal Units,Hz,,          0.24661, -58.56910,
Horizontal Scale,2.525253e+00,,          0.27127, -60.96910,
Pt Fmt,Y,,          0.29593, -54.56910,
Yzero,-2.096910e+01,,          0.32059, -54.56910,
Probe Atten,1.000000e+00,,          0.34525, -60.96910,
Model Number,TDS1012C-EDU,,          0.36991, -54.56910,
Serial Number,C013699,,          0.39457, -58.56910,
Firmware Version,FV:v25.07,,          0.41923, -55.36910,
,,,0.44389, -54.56910,
,,,0.46855, -51.36910,
,,,0.49321, -54.56910,
,,,0.51787, -60.96910,
,,,0.54253, -54.56910,
,,,0.56719, -52.56910,
,,,0.59185, -48.96910,
,,,0.61651, -48.96910,
,,,0.64117, -47.36910,
,,,0.66583, -48.96910,
,,,0.69049, -50.16910,
,,,0.71515, -51.76910,
,,,0.73981, -54.56910,
,,,0.76447, -48.96910,
,,,0.78913, -47.36910,
,,,0.81379, -48.56910,
,,,0.83845, -54.56910,
,,,0.86311, -50.16910,
,,,0.88777, -52.56910,
,,,0.91243, -55.36910,
,,,0.93709, -51.36910,
,,,0.96175, -52.56910,
,,,0.98641, -50.16910,
,,,1.01107, -48.96910,
,,,1.03573, -46.96910,
,,,1.06039, -49.36910,
,,,1.08505, -55.36910,
,,,1.10971, -48.56910,
,,,1.13437, -45.36910,
,,,1.15903, -45.36910,
,,,1.18369, -49.36910,
,,,1.20835, -52.56910,
,,,1.23301, -55.36910,
,,,1.25767, -51.36910,
,,,1.28233, -58.56910,
,,,1.30699, -54.56910,
,,,1.33165, -48.96910,
,,,1.35631, -48.56910,
,,,1.38097, -48.56910,
,,,1.40563, -54.56910,
,,,1.43029, -60.96910,
,,,1.45495, -48.56910,
,,,1.47961, -43.76910,
,,,1.50427, -46.16910,
,,,1.52893, -50.16910,
,,,1.55359, -55.36910,
,,,1.57825, -58.56910,
,,,1.60291, -48.96910,
,,,1.62757, -41.76910,
,,,1.65223, -41.76910,
,,,1.67689, -46.96910,
,,,1.70155, -54.56910,
,,,1.72621, -60.96910,
,,,1.75087, -55.36910,
,,,1.77553, -48.96910,
,,,1.80019, -51.36910,
,,,1.82485, -45.76910,
,,,1.84951, -39.76910,
,,,1.87417, -37.76910,
,,,1.89883, -39.76910,
,,,1.92349, -48.96910,
,,,1.94815, -55.36910,
,,,1.97281, -51.36910,
,,,1.99747, -54.56910,
,,,2.02213, -45.36910,
,,,2.04679, -39.36910,
,,,2.07145, -35.76910,
,,,2.09611, -34.56910,
,,,2.12077, -35.76910,
,,,2.14543, -44.16910,
,,,2.17009, -42.96910,
,,,2.19475, -38.56910,
,,,2.21941, -41.76910,
,,,2.24407, -42.16910,
,,,2.26873, -41.36910,
,,,2.29339, -37.76910,
,,,2.31805, -34.96910,
,,,2.34271, -38.16910,
,,,2.36737, -43.36910,
,,,2.39203, -33.36910,
,,,2.41669, -32.16910,
,,,2.44135, -33.36910,
,,,2.46601, -36.16910,
,,,2.49067, -38.56910,
,,,2.51533, -34.96910,
,,,2.53999, -30.96910,
,,,2.56465, -26.96910,
,,,2.58931, -25.76910,
,,,2.61397, -26.96910,
,,,2.63863, -26.56910,
,,,2.66329, -25.36910,
,,,2.68795, -26.16910,
,,,2.71261, -27.76910,
,,,2.73727, -35.36910,
,,,2.76193, -34.96910,
,,,2.78659, -36.16910,
,,,2.81125, -28.56910,
,,,2.83591, -22.96910,
,,,2.86057, -19.36910,
,,,2.88523, -18.16910,
,,,2.90989, -18.16910,
,,,2.93455, -17.76910,
,,,2.95921, -12.56910,
,,,2.98387,  -7.36910,
,,,3.00853,  -6.16910,
,,,3.03319,  -5.36910,
,,,3.05785,   0.63090,
,,,3.08251,   3.43090,
,,,3.10717,   1.43090,
,,,3.13183,  -2.56910,
,,,3.15649,  -4.96910,
,,,3.18115,  -8.96910,
,,,3.20581, -14.96910,
,,,3.23047, -14.96910,
,,,3.25513, -16.56910,
,,,3.27979, -17.36910,
,,,3.30445, -15.36910,
,,,3.32911, -15.76910,
,,,3.35377, -21.76910,
,,,3.37843, -25.36910,
,,,3.40309, -20.96910,
,,,3.42775, -22.16910,
,,,3.45241, -24.56910,
,,,3.47707, -32.56910,
,,,3.50173, -23.36910,
,,,3.52639, -23.36910,
,,,3.55105, -24.16910,
,,,3.57571, -24.56910,
,,,3.60037, -29.36910,
,,,3.62503, -28.96910,
,,,3.64969, -29.36910,
,,,3.67435, -33.76910,
,,,3.69901, -42.16910,
,,,3.72367, -52.56910,
,,,3.74833, -36.96910,
,,,3.77299, -36.96910,
,,,3.79765, -54.56910,
,,,3.82231, -43.76910,
,,,3.84697, -39.76910,
,,,3.87163, -37.76910,
,,,3.89629, -40.96910,
,,,3.92095, -48.56910,
,,,3.94561, -38.96910,
,,,3.97027, -33.76910,
,,,3.99493, -35.36910,
,,,4.01959, -44.56910,
,,,4.04425, -55.36910,
,,,4.06891, -40.16910,
,,,4.09357, -36.56910,
,,,4.11823, -36.56910,
,,,4.14289, -38.56910,
,,,4.16755, -38.56910,
,,,4.19221, -39.36910,
,,,4.21687, -42.56910,
,,,4.24153, -45.76910,
,,,4.26619, -47.36910,
,,,4.29085, -45.36910,
,,,4.31551, -42.96910,
,,,4.34017, -42.16910,
,,,4.36483, -44.16910,
,,,4.38949, -50.16910,
,,,4.41415, -45.36910,
,,,4.43881, -45.76910,
,,,4.46347, -47.36910,
,,,4.48813, -47.36910,
,,,4.51279, -50.16910,
,,,4.53745, -47.36910,
,,,4.56211, -44.16910,
,,,4.58677, -43.36910,
,,,4.61143, -45.76910,
,,,4.63609, -50.16910,
,,,4.66075, -47.36910,
,,,4.68541, -43.76910,
,,,4.71007, -44.16910,
,,,4.73473, -47.36910,
,,,4.75939, -58.56910,
,,,4.78405, -58.56910,
,,,4.80871, -52.56910,
,,,4.83337, -50.16910,
,,,4.85803, -51.36910,
,,,4.88269, -54.56910,
,,,4.90735, -48.96910,
,,,4.93201, -50.16910,
,,,4.95667, -54.56910,
,,,4.98133, -60.96910,
,,,5.00599, -46.96910,
,,,5.03065, -44.16910,
,,,5.05531, -46.96910,
,,,5.07997, -55.36910,
,,,5.10463, -58.56910,
,,,5.12929, -54.56910,
,,,5.15395, -48.56910,
,,,5.17861, -44.96910,
,,,5.20327, -46.16910,
,,,5.22793, -51.76910,
,,,5.25259, -60.96910,
,,,5.27725, -60.96910,
,,,5.30191, -58.56910,
,,,5.32657, -54.56910,
,,,5.35123, -60.96910,
,,,5.37589, -51.76910,
,,,5.40055, -51.36910,
,,,5.42521, -48.96910,
,,,5.44987, -51.76910,
,,,5.47453, -58.56910,
,,,5.49919, -55.36910,
,,,5.52385, -55.36910,
,,,5.54851, -58.56910,
,,,5.57317, -55.36910,
,,,5.59783, -51.76910,
,,,5.62249, -49.36910,
,,,5.64715, -48.96910,
,,,5.67181, -51.36910,
,,,5.69647, -54.56910,
,,,5.72113, -58.56910,
,,,5.74579, -52.56910,
,,,5.77045, -50.16910,
,,,5.79511, -50.16910,
,,,5.81977, -51.36910,
,,,5.84443, -54.56910,
,,,5.86909, -58.56910,
,,,5.89375, -60.96910,
,,,5.91841, -54.56910,
,,,5.94307, -52.56910,
,,,5.96773, -54.56910,
,,,5.99239, -60.96910,
,,,6.01705, -54.56910,
,,,6.04171, -54.56910,
,,,6.06637, -52.56910,
,,,6.09103, -60.96910,
,,,6.11569, -54.56910,
,,,6.14035, -46.16910,
,,,6.16501, -44.16910,
,,,6.18967, -46.96910,
,,,6.21433, -51.76910,
,,,6.23899, -60.96910,
,,,6.26365, -58.56910,
,,,6.28831, -58.56910,
,,,6.31297, -54.56910,
,,,6.33763, -52.56910,
,,,6.36229, -60.96910,
,,,6.38695, -51.36910,
,,,6.41161, -48.96910,
,,,6.43627, -48.56910,
,,,6.46093, -55.36910,
,,,6.48559, -60.96910,
,,,6.51025, -60.96910,
,,,6.53491, -54.56910,
,,,6.55957, -51.36910,
,,,6.58423, -49.36910,
,,,6.60889, -51.76910,
,,,6.63355, -55.36910,
,,,6.65821, -60.96910,
,,,6.68287, -55.36910,
,,,6.70753, -58.56910,
,,,6.73219, -54.56910,
,,,6.75685, -58.56910,
,,,6.78151, -55.36910,
,,,6.80617, -55.36910,
,,,6.83083, -54.56910,
,,,6.85549, -58.56910,
,,,6.88015, -60.96910,
,,,6.90481, -60.96910,
,,,6.92947, -60.96910,
,,,6.95413, -60.96910,
,,,6.97879, -60.96910,
,,,7.00345, -58.56910,
,,,7.02811, -54.56910,
,,,7.05277, -54.56910,
,,,7.07743, -54.56910,
,,,7.10209, -55.36910,
,,,7.12675, -55.36910,
,,,7.15141, -58.56910,
,,,7.17607, -58.56910,
,,,7.20073, -60.96910,
,,,7.22539, -60.96910,
,,,7.25005, -60.96910,
,,,7.27471, -60.96910,
,,,7.29937, -60.96910,
,,,7.32403, -55.36910,
,,,7.34869, -54.56910,
,,,7.37335, -58.56910,
,,,7.39801, -60.96910,
,,,7.42267, -60.96910,
,,,7.44733, -58.56910,
,,,7.47199, -54.56910,
,,,7.49665, -60.96910,
,,,7.52131, -60.96910,
,,,7.54597, -60.96910,
,,,7.57063, -58.56910,
,,,7.59529, -54.56910,
,,,7.61995, -54.56910,
,,,7.64461, -60.96910,
,,,7.66927, -60.96910,
,,,7.69393, -60.96910,
,,,7.71859, -58.56910,
,,,7.74325, -55.36910,
,,,7.76791, -60.96910,
,,,7.79257, -60.96910,
,,,7.81723, -60.96910,
,,,7.84189, -60.96910,
,,,7.86655, -60.96910,
,,,7.89121, -60.96910,
,,,7.91587, -60.96910,
,,,7.94053, -60.96910,
,,,7.96519, -60.96910,
,,,7.98985, -54.56910,
,,,8.01451, -55.36910,
,,,8.03917, -55.36910,
,,,8.06383, -58.56910,
,,,8.08849, -60.96910,
,,,8.11315, -58.56910,
,,,8.13781, -58.56910,
,,,8.16247, -58.56910,
,,,8.18713, -60.96910,
,,,8.21179, -60.96910,
,,,8.23645, -60.96910,
,,,8.26111, -58.56910,
,,,8.28577, -58.56910,
,,,8.31043, -58.56910,
,,,8.33509, -60.96910,
,,,8.35975, -60.96910,
,,,8.38441, -54.56910,
,,,8.40907, -58.56910,
,,,8.43373, -60.96910,
,,,8.45839, -60.96910,
,,,8.48305, -60.96910,
,,,8.50771, -60.96910,
,,,8.53237, -60.96910,
,,,8.55703, -60.96910,
,,,8.58169, -60.96910,
,,,8.60635, -60.96910,
,,,8.63101, -60.96910,
,,,8.65567, -60.96910,
,,,8.68033, -60.96910,
,,,8.70499, -60.96910,
,,,8.72965, -60.96910,
,,,8.75431, -58.56910,
,,,8.77897, -52.56910,
,,,8.80363, -51.36910,
,,,8.82829, -55.36910,
,,,8.85295, -60.96910,
,,,8.87761, -60.96910,
,,,8.90227, -60.96910,
,,,8.92693, -58.56910,
,,,8.95159, -60.96910,
,,,8.97625, -60.96910,
,,,9.00091, -58.56910,
,,,9.02557, -60.96910,
,,,9.05023, -60.96910,
,,,9.07489, -58.56910,
,,,9.09955, -60.96910,
,,,9.12421, -54.56910,
,,,9.14887, -48.96910,
,,,9.17353, -48.56910,
,,,9.19819, -48.96910,
,,,9.22285, -51.36910,
,,,9.24751, -48.96910,
,,,9.27217, -48.96910,
,,,9.29683, -47.36910,
,,,9.32149, -48.96910,
,,,9.34615, -50.16910,
,,,9.37081, -58.56910,
,,,9.39547, -60.96910,
,,,9.42013, -60.96910,
,,,9.44479, -58.56910,
,,,9.46945, -60.96910,
,,,9.49411, -58.56910,
,,,9.51877, -51.36910,
,,,9.54343, -54.56910,
,,,9.56809, -50.16910,
,,,9.59275, -52.56910,
,,,9.61741, -60.96910,
,,,9.64207, -60.96910,
,,,9.66673, -60.96910,
,,,9.69139, -58.56910,
,,,9.71605, -60.96910,
,,,9.74071, -60.96910,
,,,9.76537, -58.56910,
,,,9.79003, -60.96910,
,,,9.81469, -60.96910,
,,,9.83935, -60.96910,
,,,9.86401, -60.96910,
,,,9.88867, -60.96910,
,,,9.91333, -60.96910,
,,,9.93799, -60.96910,
,,,9.96265, -60.96910,
,,,9.98731, -60.96910,
,,,10.01197, -58.56910,
,,,10.03663, -54.56910,
,,,10.06129, -55.36910,
,,,10.08595, -58.56910,
,,,10.11061, -58.56910,
,,,10.13527, -60.96910,
,,,10.15993, -60.96910,
,,,10.18459, -60.96910,
,,,10.20925, -60.96910,
,,,10.23391, -60.96910,
,,,10.25857, -60.96910,
,,,10.28323, -60.96910,
,,,10.30789, -60.96910,
,,,10.33255, -60.96910,
,,,10.35721, -58.56910,
,,,10.38187, -60.96910,
,,,10.40653, -58.56910,
,,,10.43119, -58.56910,
,,,10.45585, -54.56910,
,,,10.48051, -54.56910,
,,,10.50517, -60.96910,
,,,10.52983, -60.96910,
,,,10.55449, -60.96910,
,,,10.57915, -55.36910,
,,,10.60381, -58.56910,
,,,10.62847, -58.56910,
,,,10.65313, -58.56910,
,,,10.67779, -60.96910,
,,,10.70245, -60.96910,
,,,10.72711, -60.96910,
,,,10.75177, -54.56910,
,,,10.77643, -60.96910,
,,,10.80109, -55.36910,
,,,10.82575, -58.56910,
,,,10.85041, -60.96910,
,,,10.87507, -60.96910,
,,,10.89973, -60.96910,
,,,10.92439, -58.56910,
,,,10.94905, -60.96910,
,,,10.97371, -60.96910,
,,,10.99837, -60.96910,
,,,11.02303, -58.56910,
,,,11.04769, -60.96910,
,,,11.07235, -60.96910,
,,,11.09701, -60.96910,
,,,11.12167, -58.56910,
,,,11.14633, -60.96910,
,,,11.17099, -60.96910,
,,,11.19565, -60.96910,
,,,11.22031, -60.96910,
,,,11.24497, -60.96910,
,,,11.26963, -58.56910,
,,,11.29429, -60.96910,
,,,11.31895, -55.36910,
,,,11.34361, -58.56910,
,,,11.36827, -60.96910,
,,,11.39293, -58.56910,
,,,11.41759, -60.96910,
,,,11.44225, -55.36910,
,,,11.46691, -55.36910,
,,,11.49157, -51.76910,
,,,11.51623, -60.96910,
,,,11.54089, -60.96910,
,,,11.56555, -58.56910,
,,,11.59021, -54.56910,
,,,11.61487, -54.56910,
,,,11.63953, -60.96910,
,,,11.66419, -60.96910,
,,,11.68885, -60.96910,
,,,11.71351, -60.96910,
,,,11.73817, -60.96910,
,,,11.76283, -58.56910,
,,,11.78749, -54.56910,
,,,11.81215, -60.96910,
,,,11.83681, -58.56910,
,,,11.86147, -60.96910,
,,,11.88613, -58.56910,
,,,11.91079, -60.96910,
,,,11.93545, -60.96910,
,,,11.96011, -55.36910,
,,,11.98477, -60.96910,
,,,12.00943, -60.96910,
,,,12.03409, -60.96910,
,,,12.05875, -58.56910,
,,,12.08341, -60.96910,
,,,12.10807, -60.96910,
,,,12.13273, -60.96910,
,,,12.15739, -60.96910,
,,,12.18205, -58.56910,
,,,12.20671, -60.96910,
,,,12.23137, -60.96910,
,,,12.25603, -58.56910,
,,,12.28069, -60.96910,
,,,12.30535, -58.56910,
,,,12.33001, -58.56910,
,,,12.35467, -58.56910,
,,,12.37933, -60.96910,
,,,12.40399, -54.56910,
,,,12.42865, -58.56910,
,,,12.45331, -58.56910,
,,,12.47797, -60.96910,
,,,12.50263, -60.96910,
,,,12.52729, -60.96910,
,,,12.55195, -60.96910,
,,,12.57661, -60.96910,
,,,12.60127, -60.96910,
,,,12.62593, -54.56910,
,,,12.65059, -54.56910,
,,,12.67525, -54.56910,
,,,12.69991, -60.96910,
,,,12.72457, -60.96910,
,,,12.74923, -60.96910,
,,,12.77389, -60.96910,
,,,12.79855, -60.96910,
,,,12.82321, -54.56910,
,,,12.84787, -51.76910,
,,,12.87253, -55.36910,
,,,12.89719, -55.36910,
,,,12.92185, -60.96910,
,,,12.94651, -60.96910,
,,,12.97117, -60.96910,
,,,12.99583, -60.96910,
,,,13.02049, -60.96910,
,,,13.04515, -60.96910,
,,,13.06981, -60.96910,
,,,13.09447, -60.96910,
,,,13.11913, -60.96910,
,,,13.14379, -60.96910,
,,,13.16845, -60.96910,
,,,13.19311, -60.96910,
,,,13.21777, -60.96910,
,,,13.24243, -58.56910,
,,,13.26709, -60.96910,
,,,13.29175, -60.96910,
,,,13.31641, -60.96910,
,,,13.34107, -60.96910,
,,,13.36573, -60.96910,
,,,13.39039, -60.96910,
,,,13.41505, -60.96910,
,,,13.43971, -60.96910,
,,,13.46437, -60.96910,
,,,13.48903, -60.96910,
,,,13.51369, -54.56910,
,,,13.53835, -54.56910,
,,,13.56301, -54.56910,
,,,13.58767, -55.36910,
,,,13.61233, -58.56910,
,,,13.63699, -60.96910,
,,,13.66165, -60.96910,
,,,13.68631, -60.96910,
,,,13.71097, -60.96910,
,,,13.73563, -60.96910,
,,,13.76029, -60.96910,
,,,13.78495, -60.96910,
,,,13.80961, -60.96910,
,,,13.83427, -60.96910,
,,,13.85893, -60.96910,
,,,13.88359, -60.96910,
,,,13.90825, -60.96910,
,,,13.93291, -60.96910,
,,,13.95757, -60.96910,
,,,13.98223, -58.56910,
,,,14.00689, -55.36910,
,,,14.03155, -54.56910,
,,,14.05621, -60.96910,
,,,14.08087, -55.36910,
,,,14.10553, -60.96910,
,,,14.13019, -58.56910,
,,,14.15485, -60.96910,
,,,14.17951, -60.96910,
,,,14.20417, -60.96910,
,,,14.22883, -58.56910,
,,,14.25349, -60.96910,
,,,14.27815, -60.96910,
,,,14.30281, -60.96910,
,,,14.32747, -60.96910,
,,,14.35213, -60.96910,
,,,14.37679, -60.96910,
,,,14.40145, -60.96910,
,,,14.42611, -60.96910,
,,,14.45077, -60.96910,
,,,14.47543, -58.56910,
,,,14.50009, -60.96910,
,,,14.52475, -60.96910,
,,,14.54941, -60.96910,
,,,14.57407, -60.96910,
,,,14.59873, -60.96910,
,,,14.62339, -58.56910,
,,,14.64805, -60.96910,
,,,14.67271, -58.56910,
,,,14.69737, -58.56910,
,,,14.72203, -58.56910,
,,,14.74669, -60.96910,
,,,14.77135, -58.56910,
,,,14.79601, -54.56910,
,,,14.82067, -54.56910,
,,,14.84533, -58.56910,
,,,14.86999, -58.56910,
,,,14.89465, -60.96910,
,,,14.91931, -60.96910,
,,,14.94397, -60.96910,
,,,14.96863, -60.96910,
,,,14.99329, -60.96910,
,,,15.01795, -60.96910,
,,,15.04261, -60.96910,
,,,15.06727, -58.56910,
,,,15.09193, -52.56910,
,,,15.11659, -54.56910,
,,,15.14125, -60.96910,
,,,15.16591, -60.96910,
,,,15.19057, -60.96910,
,,,15.21523, -60.96910,
,,,15.23989, -60.96910,
,,,15.26455, -60.96910,
,,,15.28921, -60.96910,
,,,15.31387, -60.96910,
,,,15.33853, -58.56910,
,,,15.36319, -58.56910,
,,,15.38785, -55.36910,
,,,15.41251, -55.36910,
,,,15.43717, -60.96910,
,,,15.46183, -58.56910,
,,,15.48649, -58.56910,
,,,15.51115, -54.56910,
,,,15.53581, -58.56910,
,,,15.56047, -60.96910,
,,,15.58513, -60.96910,
,,,15.60979, -60.96910,
,,,15.63445, -60.96910,
,,,15.65911, -60.96910,
,,,15.68377, -54.56910,
,,,15.70843, -54.56910,
,,,15.73309, -58.56910,
,,,15.75775, -60.96910,
,,,15.78241, -58.56910,
,,,15.80707, -58.56910,
,,,15.83173, -60.96910,
,,,15.85639, -58.56910,
,,,15.88105, -60.96910,
,,,15.90571, -60.96910,
,,,15.93037, -60.96910,
,,,15.95503, -58.56910,
,,,15.97969, -60.96910,
,,,16.00435, -60.96910,
,,,16.02901, -60.96910,
,,,16.05367, -60.96910,
,,,16.07833, -60.96910,
,,,16.10299, -60.96910,
,,,16.12765, -60.96910,
,,,16.15231, -60.96910,
,,,16.17697, -60.96910,
,,,16.20163, -58.56910,
,,,16.22629, -54.56910,
,,,16.25095, -55.36910,
,,,16.27561, -55.36910,
,,,16.30027, -60.96910,
,,,16.32493, -60.96910,
,,,16.34959, -60.96910,
,,,16.37425, -60.96910,
,,,16.39891, -60.96910,
,,,16.42357, -58.56910,
,,,16.44823, -60.96910,
,,,16.47289, -58.56910,
,,,16.49755, -60.96910,
,,,16.52221, -60.96910,
,,,16.54687, -58.56910,
,,,16.57153, -58.56910,
,,,16.59619, -58.56910,
,,,16.62085, -60.96910,
,,,16.64551, -58.56910,
,,,16.67017, -54.56910,
,,,16.69483, -55.36910,
,,,16.71949, -60.96910,
,,,16.74415, -60.96910,
,,,16.76881, -60.96910,
,,,16.79347, -60.96910,
,,,16.81813, -54.56910,
,,,16.84279, -55.36910,
,,,16.86745, -58.56910,
,,,16.89211, -58.56910,
,,,16.91677, -60.96910,
,,,16.94143, -60.96910,
,,,16.96609, -60.96910,
,,,16.99075, -60.96910,
,,,17.01541, -60.96910,
,,,17.04007, -60.96910,
,,,17.06473, -60.96910,
,,,17.08939, -60.96910,
,,,17.11405, -54.56910,
,,,17.13871, -60.96910,
,,,17.16337, -60.96910,
,,,17.18803, -60.96910,
,,,17.21269, -60.96910,
,,,17.23735, -55.36910,
,,,17.26201, -55.36910,
,,,17.28667, -60.96910,
,,,17.31133, -60.96910,
,,,17.33599, -60.96910,
,,,17.36065, -58.56910,
,,,17.38531, -60.96910,
,,,17.40997, -60.96910,
,,,17.43463, -60.96910,
,,,17.45929, -58.56910,
,,,17.48395, -58.56910,
,,,17.50861, -60.96910,
,,,17.53327, -60.96910,
,,,17.55793, -60.96910,
,,,17.58259, -60.96910,
,,,17.60725, -60.96910,
,,,17.63191, -60.96910,
,,,17.65657, -60.96910,
,,,17.68123, -58.56910,
,,,17.70589, -58.56910,
,,,17.73055, -58.56910,
,,,17.75521, -60.96910,
,,,17.77987, -60.96910,
,,,17.80453, -60.96910,
,,,17.82919, -58.56910,
,,,17.85385, -54.56910,
,,,17.87851, -55.36910,
,,,17.90317, -54.56910,
,,,17.92783, -60.96910,
,,,17.95249, -60.96910,
,,,17.97715, -60.96910,
,,,18.00181, -60.96910,
,,,18.02647, -60.96910,
,,,18.05113, -60.96910,
,,,18.07579, -60.96910,
,,,18.10045, -58.56910,
,,,18.12511, -60.96910,
,,,18.14977, -60.96910,
,,,18.17443, -60.96910,
,,,18.19909, -58.56910,
,,,18.22375, -60.96910,
,,,18.24841, -60.96910,
,,,18.27307, -55.36910,
,,,18.29773, -60.96910,
,,,18.32239, -60.96910,
,,,18.34705, -55.36910,
,,,18.37171, -51.76910,
,,,18.39637, -60.96910,
,,,18.42103, -60.96910,
,,,18.44569, -58.56910,
,,,18.47035, -58.56910,
,,,18.49501, -60.96910,
,,,18.51967, -60.96910,
,,,18.54433, -60.96910,
,,,18.56899, -60.96910,
,,,18.59365, -60.96910,
,,,18.61831, -60.96910,
,,,18.64297, -60.96910,
,,,18.66763, -60.96910,
,,,18.69229, -60.96910,
,,,18.71695, -60.96910,
,,,18.74161, -58.56910,
,,,18.76627, -60.96910,
,,,18.79093, -60.96910,
,,,18.81559, -60.96910,
,,,18.84025, -60.96910,
,,,18.86491, -60.96910,
,,,18.88957, -55.36910,
,,,18.91423, -58.56910,
,,,18.93889, -58.56910,
,,,18.96355, -60.96910,
,,,18.98821, -60.96910,
,,,19.01287, -60.96910,
,,,19.03753, -60.96910,
,,,19.06219, -60.96910,
,,,19.08685, -58.56910,
,,,19.11151, -58.56910,
,,,19.13617, -60.96910,
,,,19.16083, -60.96910,
,,,19.18549, -60.96910,
,,,19.21015, -60.96910,
,,,19.23481, -58.56910,
,,,19.25947, -58.56910,
,,,19.28413, -58.56910,
,,,19.30879, -54.56910,
,,,19.33345, -60.96910,
,,,19.35811, -60.96910,
,,,19.38277, -60.96910,
,,,19.40743, -60.96910,
,,,19.43209, -60.96910,
,,,19.45675, -60.96910,
,,,19.48141, -60.96910,
,,,19.50607, -54.56910,
,,,19.53073, -58.56910,
,,,19.55539, -60.96910,
,,,19.58005, -60.96910,
,,,19.60471, -60.96910,
,,,19.62937, -60.96910,
,,,19.65403, -60.96910,
,,,19.67869, -60.96910,
,,,19.70335, -60.96910,
,,,19.72801, -58.56910,
,,,19.75267, -60.96910,
,,,19.77733, -60.96910,
,,,19.80199, -60.96910,
,,,19.82665, -60.96910,
,,,19.85131, -60.96910,
,,,19.87597, -60.96910,
,,,19.90063, -60.96910,
,,,19.92529, -60.96910,
,,,19.94995, -60.96910,
,,,19.97461, -60.96910,
,,,19.99927, -60.96910,
,,,20.02393, -60.96910,
,,,20.04859, -60.96910,
,,,20.07325, -60.96910,
,,,20.09791, -60.96910,
,,,20.12257, -60.96910,
,,,20.14723, -58.56910,
,,,20.17189, -58.56910,
,,,20.19655, -58.56910,
,,,20.22121, -60.96910,
,,,20.24587, -60.96910,
,,,20.27053, -58.56910,
,,,20.29519, -60.96910,
,,,20.31985, -60.96910,
,,,20.34451, -60.96910,
,,,20.36917, -60.96910,
,,,20.39383, -58.56910,
,,,20.41849, -58.56910,
