Data/ALL0029/F0029MTH.CSV

Record Length,1.024000e+03,,          0.00000, -25.36910,
Sample Interval,4.932134e+00,,          4.93213, -22.96910,
Trigger Point,0.000000000000e+00,,          9.86427, -29.76910,
,,,         14.79640, -54.56910,
,,,         19.72854, -58.56910,
,,,         24.66067, -55.36910,
Source,MATH,,         29.59280, -58.56910,
Vertical Units,dB,,         34.52494, -51.76910,
Vertical Scale,1.000000e+01,,         39.45707, -44.56910,
Vertical Offset,0.000000e+00,,         44.38920, -40.56910,
Horizontal Units,Hz,,         49.32134, -38.96910,
Horizontal Scale,5.050505e+02,,         54.25347, -39.76910,
Pt Fmt,Y,,         59.18561, -44.96910,
Yzero,-2.096910e+01,,         64.11774, -48.56910,
Probe Atten,1.000000e+00,,         69.04987, -58.56910,
Model Number,TDS1012C-EDU,,         73.98201, -48.96910,
Serial Number,C013699,,         78.91414, -52.56910,
Firmware Version,FV:v25.07,,         83.84628, -42.16910,
,,,88.77841, -28.56910,
,,,93.71054,  -2.16910,
,,,98.64267,   3.03090,
,,,103.57480,   3.43090,
,,,108.50693,   2.63090,
,,,113.43906,  -5.36910,
,,,118.37119, -32.56910,
,,,123.30332, -43.36910,
,,,128.23545, -60.96910,
,,,133.16758, -55.36910,
,,,138.09971, -54.56910,
,,,143.03184, -54.56910,
,,,147.96397, -48.56910,
,,,152.89610, -46.16910,
,,,157.82823, -50.16910,
,,,162.76036, -54.56910,
,,,167.69249, -55.36910,
,,,172.62462, -55.36910,
,,,177.55675, -58.56910,
,,,182.48888, -54.56910,
,,,187.42101, -54.56910,
,,,192.35314, -54.56910,
,,,197.28527, -51.76910,
,,,202.21740, -50.16910,
,,,207.14953, -50.16910,
,,,212.08166, -47.36910,
,,,217.01379, -55.36910,
,,,221.94592, -60.96910,
,,,226.87805, -58.56910,
,,,231.81018, -60.96910,
,,,236.74231, -60.96910,
,,,241.67444, -54.56910,
,,,246.60657, -47.36910,
,,,251.53870, -45.76910,
,,,256.47083, -45.76910,
,,,261.40296, -48.96910,
,,,266.33509, -58.56910,
,,,271.26722, -60.96910,
,,,276.19935, -60.96910,
,,,281.13148, -60.96910,
,,,286.06361, -60.96910,
,,,290.99574, -60.96910,
,,,295.92787, -60.96910,
,,,300.86000, -48.56910,
,,,305.79213, -44.96910,
,,,310.72426, -44.96910,
,,,315.65639, -46.96910,
,,,320.58852, -58.56910,
,,,325.52065, -60.96910,
,,,330.45278, -55.36910,
,,,335.38491, -60.96910,
,,,340.31704, -60.96910,
,,,345.24917, -60.96910,
,,,350.18130, -60.96910,
,,,355.11343, -60.96910,
,,,360.04556, -60.96910,
,,,364.97769, -60.96910,
,,,369.90982, -60.96910,
,,,374.84195, -55.36910,
,,,379.77408, -54.56910,
,,,384.70621, -60.96910,
,,,389.63834, -60.96910,
,,,394.57047, -60.96910,
,,,399.50260, -60.96910,
,,,404.43473, -60.96910,
,,,409.36686, -58.56910,
,,,414.29899, -58.56910,
,,,419.23112, -58.56910,
,,,424.16325, -60.96910,
,,,429.09538, -58.56910,
,,,434.02751, -60.96910,
,,,438.95964, -60.96910,
,,,443.89177, -60.96910,
,,,448.82390, -58.56910,
,,,453.75603, -60.96910,
,,,458.68816, -60.96910,
,,,463.62029, -60.96910,
,,,468.55242, -60.96910,
,,,473.48455, -60.96910,
,,,478.41668, -60.96910,
,,,483.34881, -60.96910,
,,,488.28094, -60.96910,
,,,493.21307, -60.96910,
,,,498.14520, -60.96910,
,,,503.07733, -60.96910,
,,,508.00946, -55.36910,
,,,512.94159, -51.36910,
,,,517.87372, -51.76910,
,,,522.80585, -55.36910,
,,,527.73798, -54.56910,
,,,532.67011, -54.56910,
,,,537.60224, -60.96910,
,,,542.53437, -60.96910,
,,,547.46650, -60.96910,
,,,552.39863, -60.96910,
,,,557.33076, -60.96910,
,,,562.26289, -60.96910,
,,,567.19502, -60.96910,
,,,572.12715, -60.96910,
,,,577.05928, -60.96910,
,,,581.99141, -60.96910,
,,,586.92354, -60.96910,
,,,591.85567, -60.96910,
,,,596.78780, -60.96910,
,,,601.71993, -60.96910,
,,,606.65206, -60.96910,
,,,611.58419, -58.56910,
,,,616.51632, -58.56910,
,,,621.44845, -60.96910,
,,,626.38058, -60.96910,
,,,631.31271, -58.56910,
,,,636.24484, -60.96910,
,,,641.17697, -60.96910,
,,,646.10910, -60.96910,
,,,651.04123, -60.96910,
,,,655.97336, -60.96910,
,,,660.90549, -60.96910,
,,,665.83762, -60.96910,
,,,670.76975, -60.96910,
,,,675.70188, -54.56910,
,,,680.63401, -54.56910,
,,,685.56614, -60.96910,
,,,690.49827, -55.36910,
,,,695.43040, -60.96910,
,,,700.36253, -58.56910,
,,,705.29466, -60.96910,
,,,710.22679, -55.36910,
,,,715.15892, -54.56910,
,,,720.09105, -54.56910,
,,,725.02318, -54.56910,
,,,729.95531, -60.96910,
,,,734.88744, -60.96910,
,,,739.81957, -60.96910,
,,,744.75170, -60.96910,
,,,749.68383, -58.56910,
,,,754.61596, -60.96910,
,,,759.54809, -58.56910,
,,,764.48022, -58.56910,
,,,769.41235, -55.36910,
,,,774.34448, -58.56910,
,,,779.27661, -60.96910,
,,,784.20874, -60.96910,
,,,789.14087, -60.96910,
,,,794.07300, -60.96910,
,,,799.00513, -60.96910,
,,,803.93726, -60.96910,
,,,808.86939, -58.56910,
,,,813.80152, -58.56910,
,,,818.73365, -55.36910,
,,,823.66578, -58.56910,
,,,828.59791, -60.96910,
,,,833.53004, -60.96910,
,,,838.46217, -60.96910,
,,,843.39430, -60.96910,
,,,848.32643, -60.96910,
,,,853.25856, -58.56910,
,,,858.19069, -55.36910,
,,,863.12282, -52.56910,
,,,868.05495, -58.56910,
,,,872.98708, -60.96910,
,,,877.91921, -58.56910,
,,,882.85134, -60.96910,
,,,887.78347, -60.96910,
,,,892.71560, -60.96910,
,,,897.64773, -58.56910,
,,,902.57986, -58.56910,
,,,907.51199, -60.96910,
,,,912.44412, -60.96910,
,,,917.37625, -60.96910,
,,,922.30838, -58.56910,
,,,927.24051, -58.56910,
,,,932.17264, -60.96910,
,,,937.10477, -60.96910,
,,,942.03690, -58.56910,
,,,946.96903, -60.96910,
,,,951.90116, -58.56910,
,,,956.83329, -60.96910,
,,,961.76542, -60.96910,
,,,966.69755, -60.96910,
,,,971.62968, -60.96910,
,,,976.56181, -60.96910,
,,,981.49394, -60.96910,
,,,986.42607, -60.96910,
,,,991.35820, -60.96910,
,,,996.29033, -60.96910,
,,,1001.22246, -60.96910,
,,,1006.15459, -60.96910,
,,,1011.08672, -60.96910,
,,,1016.01885, -60.96910,
,,,1020.95098, -60.96910,
,,,1025.88311, -60.96910,
,,,1030.81524, -60.96910,
,,,1035.74737, -60.96910,
,,,1040.67950, -60.96910,
,,,1045.61163, -60.96910,
,,,1050.54376, -60.96910,
,,,1055.47589, -60.96910,
,,,1060.40802, -55.36910,
,,,1065.34015, -58.56910,
,,,1070.27228, -60.96910,
,,,1075.20441, -60.96910,
,,,1080.13654, -60.96910,
,,,1085.06867, -60.96910,
,,,1090.00080, -60.96910,
,,,1094.93293, -60.96910,
,,,1099.86506, -60.96910,
,,,1104.79719, -60.96910,
,,,1109.72932, -60.96910,
,,,1114.66145, -60.96910,
,,,1119.59358, -60.96910,
,,,1124.52571, -60.96910,
,,,1129.45784, -60.96910,
,,,1134.38997, -58.56910,
,,,1139.32210, -58.56910,
,,,1144.25423, -60.96910,
,,,1149.18636, -60.96910,
,,,1154.11849, -60.96910,
,,,1159.05062, -58.56910,
,,,1163.98275, -58.56910,
,,,1168.91488, -60.96910,
,,,1173.84701, -58.56910,
,,,1178.77914, -60.96910,
,,,1183.71127, -60.96910,
,,,1188.64340, -60.96910,
,,,1193.57553, -60.96910,
,,,1198.50766, -60.96910,
,,,1203.43979, -60.96910,
,,,1208.37192, -60.96910,
,,,1213.30405, -60.96910,
,,,1218.23618, -60.96910,
,,,1223.16831, -60.96910,
,,,1228.10044, -58.56910,
,,,1233.03257, -58.56910,
,,,1237.96470, -60.96910,
,,,1242.89683, -60.96910,
,,,1247.82896, -60.96910,
,,,1252.76109, -60.96910,
,,,1257.69322, -60.96910,
,,,1262.62535, -60.96910,
,,,1267.55748, -58.56910,
,,,1272.48961, -60.96910,
,,,1277.42174, -60.96910,
,,,1282.35387, -60.96910,
,,,1287.28600, -60.96910,
,,,1292.21813, -58.56910,
,,,1297.15026, -54.56910,
,,,1302.08239, -54.56910,
,,,1307.01452, -55.36910,
,,,1311.94665, -55.36910,
,,,1316.87878, -58.56910,
,,,1321.81091, -60.96910,
,,,1326.74304, -60.96910,
,,,1331.67517, -60.96910,
,,,1336.60730, -55.36910,
,,,1341.53943, -55.36910,
,,,1346.47156, -54.56910,
,,,1351.40369, -60.96910,
,,,1356.33582, -60.96910,
,,,1361.26795, -60.96910,
,,,1366.20008, -60.96910,
,,,1371.13221, -58.56910,
,,,1376.06434, -58.56910,
,,,1380.99647, -55.36910,
,,,1385.92860, -58.56910,
,,,1390.86073, -60.96910,
,,,1395.79286, -60.96910,
,,,1400.72499, -60.96910,
,,,1405.65712, -60.96910,
,,,1410.58925, -60.96910,
,,,1415.52138, -51.76910,
,,,1420.45351, -55.36910,
,,,1425.38564, -54.56910,
,,,1430.31777, -60.96910,
,,,1435.24990, -60.96910,
,,,1440.18203, -60.96910,
,,,1445.11416, -58.56910,
,,,1450.04629, -58.56910,
,,,1454.97842, -54.56910,
,,,1459.91055, -60.96910,
,,,1464.84268, -58.56910,
,,,1469.77481, -60.96910,
,,,1474.70694, -55.36910,
,,,1479.63907, -55.36910,
,,,1484.57120, -54.56910,
,,,1489.50333, -55.36910,
,,,1494.43546, -58.56910,
,,,1499.36759, -58.56910,
,,,1504.29972, -60.96910,
,,,1509.23185, -60.96910,
,,,1514.16398, -60.96910,
,,,1519.09611, -60.96910,
,,,1524.02824, -60.96910,
,,,1528.96037, -60.96910,
,,,1533.89250, -60.96910,
,,,1538.82463, -58.56910,
,,,1543.75676, -58.56910,
,,,1548.68889, -60.96910,
,,,1553.62102, -60.96910,
,,,1558.55315, -60.96910,
,,,1563.48528, -58.56910,
,,,1568.41741, -60.96910,
,,,1573.34954, -58.56910,
,,,1578.28167, -54.56910,
,,,1583.21380, -60.96910,
,,,1588.14593, -58.56910,
,,,1593.07806, -60.96910,
,,,1598.01019, -60.96910,
,,,1602.94232, -60.96910,
,,,1607.87445, -60.96910,
,,,1612.80658, -55.36910,
,,,1617.73871, -60.96910,
,,,1622.67084, -60.96910,
,,,1627.60297, -58.56910,
,,,1632.53510, -60.96910,
,,,1637.46723, -60.96910,
,,,1642.39936, -60.96910,
,,,1647.33149, -60.96910,
,,,1652.26362, -58.56910,
,,,1657.19575, -58.56910,
,,,1662.12788, -58.56910,
,,,1667.06001, -60.96910,
,,,1671.99214, -58.56910,
,,,1676.92427, -58.56910,
,,,1681.85640, -58.56910,
,,,1686.78853, -60.96910,
,,,1691.72066, -60.96910,
,,,1696.65279, -60.96910,
,,,1701.58492, -55.36910,
,,,1706.51705, -60.96910,
,,,1711.44918, -60.96910,
,,,1716.38131, -60.96910,
,,,1721.31344, -60.96910,
,,,1726.24557, -55.36910,
,,,1731.17770, -58.56910,
,,,1736.10983, -58.56910,
,,,1741.04196, -58.56910,
,,,1745.97409, -60.96910,
,,,1750.90622, -60.96910,
,,,1755.83835, -60.96910,
,,,1760.77048, -60.96910,
,,,1765.70261, -60.96910,
,,,1770.63474, -58.56910,
,,,1775.56687, -60.96910,
,,,1780.49900, -60.96910,
,,,1785.43113, -60.96910,
,,,1790.36326, -60.96910,
,,,1795.29539, -60.96910,
,,,1800.22752, -60.96910,
,,,1805.15965, -60.96910,
,,,1810.09178, -60.96910,
,,,1815.02391, -60.96910,
,,,1819.95604, -60.96910,
,,,1824.88817, -60.96910,
,,,1829.82030, -58.56910,
,,,1834.75243, -60.96910,
,,,1839.68456, -60.96910,
,,,1844.61669, -60.96910,
,,,1849.54882, -60.96910,
,,,1854.48095, -60.96910,
,,,1859.41308, -60.96910,
,,,1864.34521, -60.96910,
,,,1869.27734, -60.96910,
,,,1874.20947, -60.96910,
,,,1879.14160, -60.96910,
,,,1884.07373, -60.96910,
,,,1889.00586, -60.96910,
,,,1893.93799, -60.96910,
,,,1898.87012, -60.96910,
,,,1903.80225, -58.56910,
,,,1908.73438, -54.56910,
,,,1913.66651, -60.96910,
,,,1918.59864, -60.96910,
,,,1923.53077, -60.96910,
,,,1928.46290, -60.96910,
,,,1933.39503, -58.56910,
,,,1938.32716, -54.56910,
,,,1943.25929, -60.96910,
,,,1948.19142, -60.96910,
,,,1953.12355, -58.56910,
,,,1958.05568, -58.56910,
,,,1962.98781, -55.36910,
,,,1967.91994, -60.96910,
,,,1972.85207, -60.96910,
,,,1977.78420, -60.96910,
,,,1982.71633, -58.56910,
,,,1987.64846, -58.56910,
,,,1992.58059, -58.56910,
,,,1997.51272, -60.96910,
,,,2002.44485, -60.96910,
,,,2007.37698, -60.96910,
,,,2012.30911, -60.96910,
,,,2017.24124, -58.56910,
,,,2022.17337, -60.96910,
,,,2027.10550, -60.96910,
,,,2032.03763, -58.56910,
,,,2036.96976, -58.56910,
,,,2041.90189, -60.96910,
,,,2046.83402, -60.96910,
,,,2051.76615, -60.96910,
,,,2056.69828, -60.96910,
,,,2061.63041, -60.96910,
,,,2066.56254, -60.96910,
,,,2071.49467, -58.56910,
,,,2076.42680, -58.56910,
,,,2081.35893, -60.96910,
,,,2086.29106, -60.96910,
,,,2091.22319, -60.96910,
,,,2096.15532, -58.56910,
,,,2101.08745, -54.56910,
,,,2106.01958, -60.96910,
,,,2110.95171, -58.56910,
,,,2115.88384, -60.96910,
,,,2120.81597, -60.96910,
,,,2125.74810, -60.96910,
,,,2130.68023, -60.96910,
,,,2135.61236, -60.96910,
,,,2140.54449, -58.56910,
,,,2145.47662, -60.96910,
,,,2150.40875, -60.96910,
,,,2155.34088, -60.96910,
,,,2160.27301, -58.56910,
,,,2165.20514, -54.56910,
,,,2170.13727, -54.56910,
,,,2175.06940, -54.56910,
,,,2180.00153, -55.36910,
,,,2184.93366, -54.56910,
,,,2189.86579, -58.56910,
,,,2194.79792, -60.96910,
,,,2199.73005, -60.96910,
,,,2204.66218, -60.96910,
,,,2209.59431, -60.96910,
,,,2214.52644, -60.96910,
,,,2219.45857, -58.56910,
,,,2224.39070, -58.56910,
,,,2229.32283, -60.96910,
,,,2234.25496, -60.96910,
,,,2239.18709, -58.56910,
,,,2244.11922, -60.96910,
,,,2249.05135, -60.96910,
,,,2253.98348, -60.96910,
,,,2258.91561, -60.96910,
,,,2263.84774, -60.96910,
,,,2268.77987, -60.96910,
,,,2273.71200, -60.96910,
,,,2278.64413, -58.56910,
,,,2283.57626, -51.36910,
,,,2288.50839, -54.56910,
,,,2293.44052, -60.96910,
,,,2298.37265, -60.96910,
,,,2303.30478, -60.96910,
,,,2308.23691, -58.56910,
,,,2313.16904, -60.96910,
,,,2318.10117, -60.96910,
,,,2323.03330, -60.96910,
,,,2327.96543, -60.96910,
,,,2332.89756, -54.56910,
,,,2337.82969, -58.56910,
,,,2342.76182, -58.56910,
,,,2347.69395, -58.56910,
,,,2352.62608, -54.56910,
,,,2357.55821, -58.56910,
,,,2362.49034, -60.96910,
,,,2367.42247, -58.56910,
,,,2372.35460, -54.56910,
,,,2377.28673, -58.56910,
,,,2382.21886, -58.56910,
,,,2387.15099, -60.96910,
,,,2392.08312, -60.96910,
,,,2397.01525, -60.96910,
,,,2401.94738, -58.56910,
,,,2406.87951, -58.56910,
,,,2411.81164, -55.36910,
,,,2416.74377, -60.96910,
,,,2421.67590, -58.56910,
,,,2426.60803, -58.56910,
,,,2431.54016, -60.96910,
,,,2436.47229, -60.96910,
,,,2441.40442, -60.96910,
,,,2446.33655, -60.96910,
,,,2451.26868, -58.56910,
,,,2456.20081, -54.56910,
,,,2461.13294, -60.96910,
,,,2466.06507, -60.96910,
,,,2470.99720, -58.56910,
,,,2475.92933, -54.56910,
,,,2480.86146, -58.56910,
,,,2485.79359, -58.56910,
,,,2490.72572, -60.96910,
,,,2495.65785, -58.56910,
,,,2500.58998, -60.96910,
,,,2505.52211, -60.96910,
,,,2510.45424, -60.96910,
,,,2515.38637, -58.56910,
,,,2520.31850, -60.96910,
,,,2525.25063, -52.56910,
,,,2530.18276, -58.56910,
,,,2535.11489, -60.96910,
,,,2540.04702, -60.96910,
,,,2544.97915, -60.96910,
,,,2549.91128, -60.96910,
,,,2554.84341, -58.56910,
,,,2559.77554, -60.96910,
,,,2564.70767, -58.56910,
,,,2569.63980, -55.36910,
,,,2574.57193, -55.36910,
,,,2579.50406, -60.96910,
,,,2584.43619, -60.96910,
,,,2589.36832, -60.96910,
,,,2594.30045, -60.96910,
,,,2599.23258, -58.56910,
,,,2604.16471, -60.96910,
,,,2609.09684, -60.96910,
,,,2614.02897, -60.96910,
,,,2618.96110, -60.96910,
,,,2623.89323, -60.96910,
,,,2628.82536, -54.56910,
,,,2633.75749, -60.96910,
,,,2638.68962, -60.96910,
,,,2643.62175, -60.96910,
,,,2648.55388, -60.96910,
,,,2653.48601, -60.96910,
,,,2658.41814, -60.96910,
,,,2663.35027, -60.96910,
,,,2668.28240, -60.96910,
,,,2673.21453, -58.56910,
,,,2678.14666, -60.96910,
,,,2683.07879, -60.96910,
,,,2688.01092, -60.96910,
,,,2692.94305, -58.56910,
,,,2697.87518, -60.96910,
,,,2702.80731, -60.96910,
,,,2707.73944, -60.96910,
,,,2712.67157, -58.56910,
,,,2717.60370, -55.36910,
,,,2722.53583, -60.96910,
,,,2727.46796, -60.96910,
,,,2732.40009, -58.56910,
,,,2737.33222, -54.56910,
,,,2742.26435, -60.96910,
,,,2747.19648, -60.96910,
,,,2752.12861, -60.96910,
,,,2757.06074, -60.96910,
,,,2761.99287, -60.96910,
,,,2766.92500, -60.96910,
,,,2771.85713, -58.56910,
,,,2776.78926, -58.56910,
,,,2781.72139, -60.96910,
,,,2786.65352, -60.96910,
,,,2791.58565, -60.96910,
,,,2796.51778, -60.96910,
,,,2801.44991, -60.96910,
,,,2806.38204, -60.96910,
,,,2811.31417, -58.56910,
,,,2816.24630, -60.96910,
,,,2821.17843, -60.96910,
,,,2826.11056, -55.36910,
,,,2831.04269, -60.96910,
,,,2835.97482, -60.96910,
,,,2840.90695, -60.96910,
,,,2845.83908, -60.96910,
,,,2850.77121, -60.96910,
,,,2855.70334, -60.96910,
,,,2860.63547, -60.96910,
,,,2865.56760, -60.96910,
,,,2870.49973, -60.96910,
,,,2875.43186, -60.96910,
,,,2880.36399, -60.96910,
,,,2885.29612, -60.96910,
,,,2890.22825, -58.56910,
,,,2895.16038, -58.56910,
,,,2900.09251, -58.56910,
,,,2905.02464, -60.96910,
,,,2909.95677, -58.56910,
,,,2914.88890, -60.96910,
,,,2919.82103, -60.96910,
,,,2924.75316, -60.96910,
,,,2929.68529, -60.96910,
,,,2934.61742, -60.96910,
,,,2939.54955, -60.96910,
,,,2944.48168, -60.96910,
,,,2949.41381, -60.96910,
,,,2954.34594, -60.96910,
,,,2959.27807, -60.96910,
,,,2964.21020, -60.96910,
,,,2969.14233, -60.96910,
,,,2974.07446, -58.56910,
,,,2979.00659, -58.56910,
,,,2983.93872, -60.96910,
,,,2988.87085, -60.96910,
,,,2993.80298, -55.36910,
,,,2998.73511, -58.56910,
,,,3003.66724, -58.56910,
,,,3008.59937, -60.96910,
,,,3013.53150, -60.96910,
,,,3018.46363, -60.96910,
,,,3023.39576, -60.96910,
,,,3028.32789, -54.56910,
,,,3033.26002, -58.56910,
,,,3038.19215, -60.96910,
,,,3043.12428, -60.96910,
,,,3048.05641, -60.96910,
,,,3052.98854, -60.96910,
,,,3057.92067, -54.56910,
,,,3062.85280, -60.96910,
,,,3067.78493, -60.96910,
,,,3072.71706, -60.96910,
,,,3077.64919, -60.96910,
,,,3082.58132, -60.96910,
,,,3087.51345, -60.96910,
,,,3092.44558, -58.56910,
,,,3097.37771, -58.56910,
,,,3102.30984, -54.56910,
,,,3107.24197, -54.56910,
,,,3112.17410, -55.36910,
,,,3117.10623, -60.96910,
,,,3122.03836, -60.96910,
,,,3126.97049, -58.56910,
,,,3131.90262, -54.56910,
,,,3136.83475, -55.36910,
,,,3141.76688, -60.96910,
,,,3146.69901, -60.96910,
,,,3151.63114, -60.96910,
,,,3156.56327, -60.96910,
,,,3161.49540, -60.96910,
,,,3166.42753, -60.96910,
,,,3171.35966, -60.96910,
,,,3176.29179, -58.56910,
,,,3181.22392, -60.96910,
,,,3186.15605, -54.56910,
,,,3191.08818, -52.56910,
,,,3196.02031, -52.56910,
,,,3200.95244, -58.56910,
,,,3205.88457, -60.96910,
,,,3210.81670, -60.96910,
,,,3215.74883, -60.96910,
,,,3220.68096, -58.56910,
,,,3225.61309, -60.96910,
,,,3230.54522, -60.96910,
,,,3235.47735, -58.56910,
,,,3240.40948, -58.56910,
,,,3245.34161, -58.56910,
,,,3250.27374, -60.96910,
,,,3255.20587, -60.96910,
,,,3260.13800, -60.96910,
,,,3265.07013, -60.96910,
,,,3270.00226, -60.96910,
,,,3274.93439, -60.96910,
,,,3279.86652, -60.96910,
,,,3284.79865, -55.36910,
,,,3289.73078, -60.96910,
,,,3294.66291, -60.96910,
,,,3299.59504, -60.96910,
,,,3304.52717, -60.96910,
,,,3309.45930, -60.96910,
,,,3314.39143, -60.96910,
,,,3319.32356, -58.56910,
,,,3324.25569, -58.56910,
,,,3329.18782, -58.56910,
,,,3334.11995, -60.96910,
,,,3339.05208, -55.36910,
,,,3343.98421, -60.96910,
,,,3348.91634, -60.96910,
,,,3353.84847, -60.96910,
,,,3358.78060, -60.96910,
,,,3363.71273, -60.96910,
,,,3368.64486, -60.96910,
,,,3373.57699, -60.96910,
,,,3378.50912, -58.56910,
,,,3383.44125, -58.56910,
,,,3388.37338, -54.56910,
,,,3393.30551, -58.56910,
,,,3398.23764, -55.36910,
,,,3403.16977, -60.96910,
,,,3408.10190, -58.56910,
,,,3413.03403, -58.56910,
,,,3417.96616, -60.96910,
,,,3422.89829, -60.96910,
,,,3427.83042, -60.96910,
,,,3432.76255, -60.96910,
,,,3437.69468, -58.56910,
,,,3442.62681, -58.56910,
,,,3447.55894, -58.56910,
,,,3452.49107, -60.96910,
,,,3457.42320, -60.96910,
,,,3462.35533, -58.56910,
,,,3467.28746, -60.96910,
,,,3472.21959, -60.96910,
,,,3477.15172, -60.96910,
,,,3482.08385, -60.96910,
,,,3487.01598, -60.96910,
,,,3491.94811, -58.56910,
,,,3496.88024, -58.56910,
,,,3501.81237, -54.56910,
,,,3506.74450, -60.96910,
,,,3511.67663, -54.56910,
,,,3516.60876, -60.96910,
,,,3521.54089, -60.96910,
,,,3526.47302, -60.96910,
,,,3531.40515, -60.96910,
,,,3536.33728, -60.96910,
,,,3541.26941, -60.96910,
,,,3546.20154, -55.36910,
,,,3551.13367, -60.96910,
,,,3556.06580, -60.96910,
,,,3560.99793, -60.96910,
,,,3565.93006, -58.56910,
,,,3570.86219, -60.96910,
,,,3575.79432, -60.96910,
,,,3580.72645, -60.96910,
,,,3585.65858, -58.56910,
,,,3590.59071, -60.96910,
,,,3595.52284, -54.56910,
,,,3600.45497, -58.56910,
,,,3605.38710, -60.96910,
,,,3610.31923, -60.96910,
,,,3615.25136, -60.96910,
,,,3620.18349, -60.96910,
,,,3625.11562, -60.96910,
,,,3630.04775, -60.96910,
,,,3634.97988, -60.96910,
,,,3639.91201, -60.96910,
,,,3644.84414, -60.96910,
,,,3649.77627, -60.96910,
,,,3654.70840, -60.96910,
,,,3659.64053, -60.96910,
,,,3664.57266, -55.36910,
,,,3669.50479, -54.56910,
,,,3674.43692, -58.56910,
,,,3679.36905, -58.56910,
,,,3684.30118, -60.96910,
,,,3689.23331, -60.96910,
,,,3694.16544, -60.96910,
,,,3699.09757, -60.96910,
,,,3704.02970, -60.96910,
,,,3708.96183, -60.96910,
,,,3713.89396, -60.96910,
,,,3718.82609, -60.96910,
,,,3723.75822, -60.96910,
,,,3728.69035, -58.56910,
,,,3733.62248, -54.56910,
,,,3738.55461, -58.56910,
