Data/ALL0017/F0017MTH.CSV

Record Length,1.024000e+03,,          0.00000, -10.96910,
Sample Interval,1.220703e+05,,     122070.31250, -11.36910,
Trigger Point,0.000000000000e+00,,     244140.62500, -27.76910,
,,,     366210.93750, -39.76910,
,,,     488281.25000, -47.76910,
,,,     610351.56250, -53.76910,
Source,MATH,,     732421.87500, -60.96910,
Vertical Units,dB,,     854492.18750, -60.96910,
Vertical Scale,1.000000e+01,,     976562.50000, -57.36910,
Vertical Offset,0.000000e+00,,    1098632.81250, -57.36910,
Horizontal Units,Hz,,    1220703.12500, -59.76910,
Horizontal Scale,1.250000e+07,,    1342773.43750, -59.76910,
Pt Fmt,Y,,    1464843.75000, -55.76910,
Yzero,-2.096910e+01,,    1586914.06250, -60.96910,
Probe Atten,1.000000e+00,,    1708984.37500, -60.96910,
Model Number,TDS1012C-EDU,,    1831054.68750, -59.76910,
Serial Number,C013699,,    1953125.00000, -60.96910,
Firmware Version,FV:v25.07,,    2075195.31250, -60.96910,
,,,2197265.62500, -60.96910,
,,,2319335.93750, -60.96910,
,,,2441406.25000, -60.96910,
,,,2563476.56250, -60.96910,
,,,2685546.87500, -56.96910,
,,,2807617.18750, -56.96910,
,,,2929687.50000, -60.96910,
,,,3051757.81250, -60.96910,
,,,3173828.12500, -60.96910,
,,,3295898.43750, -60.96910,
,,,3417968.75000, -60.96910,
,,,3540039.06250, -60.96910,
,,,3662109.37500, -60.96910,
,,,3784179.68750, -60.96910,
,,,3906250.00000, -60.96910,
,,,4028320.31250, -60.96910,
,,,4150390.62500, -59.76910,
,,,4272460.93750, -59.76910,
,,,4394531.25000, -60.96910,
,,,4516601.56250, -60.96910,
,,,4638671.87500, -59.76910,
,,,4760742.18750, -60.96910,
,,,4882812.50000, -60.96910,
,,,5004882.81250, -60.96910,
,,,5126953.12500, -57.36910,
,,,5249023.43750, -60.96910,
,,,5371093.75000, -57.76910,
,,,5493164.06250, -57.36910,
,,,5615234.37500, -57.76910,
,,,5737304.68750, -60.96910,
,,,5859375.00000, -60.96910,
,,,5981445.31250, -60.96910,
,,,6103515.62500, -57.36910,
,,,6225585.93750, -55.76910,
,,,6347656.25000, -60.96910,
,,,6469726.56250, -60.96910,
,,,6591796.87500, -60.96910,
,,,6713867.18750, -60.96910,
,,,6835937.50000, -59.76910,
,,,6958007.81250, -60.96910,
,,,7080078.12500, -60.96910,
,,,7202148.43750, -60.96910,
,,,7324218.75000, -57.76910,
,,,7446289.06250, -57.36910,
,,,7568359.37500, -53.76910,
,,,7690429.68750, -56.96910,
,,,7812500.00000, -60.96910,
,,,7934570.31250, -60.96910,
,,,8056640.62500, -60.96910,
,,,8178710.93750, -57.76910,
,,,8300781.25000, -59.76910,
,,,8422851.56250, -60.96910,
,,,8544921.87500, -60.96910,
,,,8666992.18750, -60.96910,
,,,8789062.50000, -59.76910,
,,,8911132.81250, -59.76910,
,,,9033203.12500, -59.76910,
,,,9155273.43750, -59.76910,
,,,9277343.75000, -60.96910,
,,,9399414.06250, -57.76910,
,,,9521484.37500, -55.76910,
,,,9643554.68750, -57.36910,
,,,9765625.00000, -60.96910,
,,,9887695.31250, -60.96910,
,,,10009765.62500, -60.96910,
,,,10131835.93750, -60.96910,
,,,10253906.25000, -60.96910,
,,,10375976.56250, -56.96910,
,,,10498046.87500, -60.96910,
,,,10620117.18750, -60.96910,
,,,10742187.50000, -60.96910,
,,,10864257.81250, -60.96910,
,,,10986328.12500, -60.96910,
,,,11108398.43750, -56.96910,
,,,11230468.75000, -55.76910,
,,,11352539.06250, -60.96910,
,,,11474609.37500, -59.76910,
,,,11596679.68750, -60.96910,
,,,11718750.00000, -57.36910,
,,,11840820.31250, -56.96910,
,,,11962890.62500, -59.76910,
,,,12084960.93750, -60.96910,
,,,12207031.25000, -60.96910,
,,,12329101.56250, -60.96910,
,,,12451171.87500, -60.96910,
,,,12573242.18750, -60.96910,
,,,12695312.50000, -60.96910,
,,,12817382.81250, -60.96910,
,,,12939453.12500, -60.96910,
,,,13061523.43750, -57.36910,
,,,13183593.75000, -56.96910,
,,,13305664.06250, -60.96910,
,,,13427734.37500, -60.96910,
,,,13549804.68750, -60.96910,
,,,13671875.00000, -60.96910,
,,,13793945.31250, -59.76910,
,,,13916015.62500, -60.96910,
,,,14038085.93750, -60.96910,
,,,14160156.25000, -60.96910,
,,,14282226.56250, -60.96910,
,,,14404296.87500, -59.76910,
,,,14526367.18750, -60.96910,
,,,14648437.50000, -59.76910,
,,,14770507.81250, -60.96910,
,,,14892578.12500, -60.96910,
,,,15014648.43750, -60.96910,
,,,15136718.75000, -59.76910,
,,,15258789.06250, -60.96910,
,,,15380859.37500, -60.96910,
,,,15502929.68750, -60.96910,
,,,15625000.00000, -59.76910,
,,,15747070.31250, -60.96910,
,,,15869140.62500, -60.96910,
,,,15991210.93750, -59.76910,
,,,16113281.25000, -60.96910,
,,,16235351.56250, -60.96910,
,,,16357421.87500, -60.96910,
,,,16479492.18750, -60.96910,
,,,16601562.50000, -59.76910,
,,,16723632.81250, -60.96910,
,,,16845703.12500, -60.96910,
,,,16967773.43750, -60.96910,
,,,17089843.75000, -60.96910,
,,,17211914.06250, -60.96910,
,,,17333984.37500, -60.96910,
,,,17456054.68750, -60.96910,
,,,17578125.00000, -59.76910,
,,,17700195.31250, -55.76910,
,,,17822265.62500, -60.96910,
,,,17944335.93750, -60.96910,
,,,18066406.25000, -60.96910,
,,,18188476.56250, -59.76910,
,,,18310546.87500, -59.76910,
,,,18432617.18750, -60.96910,
,,,18554687.50000, -60.96910,
,,,18676757.81250, -60.96910,
,,,18798828.12500, -57.36910,
,,,18920898.43750, -56.96910,
,,,19042968.75000, -59.76910,
,,,19165039.06250, -60.96910,
,,,19287109.37500, -59.76910,
,,,19409179.68750, -57.36910,
,,,19531250.00000, -57.36910,
,,,19653320.31250, -52.96910,
,,,19775390.62500, -54.56910,
,,,19897460.93750, -56.96910,
,,,20019531.25000, -60.96910,
,,,20141601.56250, -56.96910,
,,,20263671.87500, -54.96910,
,,,20385742.18750, -54.96910,
,,,20507812.50000, -59.76910,
,,,20629882.81250, -60.96910,
,,,20751953.12500, -60.96910,
,,,20874023.43750, -60.96910,
,,,20996093.75000, -60.96910,
,,,21118164.06250, -60.96910,
,,,21240234.37500, -60.96910,
,,,21362304.68750, -60.96910,
,,,21484375.00000, -60.96910,
,,,21606445.31250, -59.76910,
,,,21728515.62500, -57.76910,
,,,21850585.93750, -56.96910,
,,,21972656.25000, -56.96910,
,,,22094726.56250, -53.76910,
,,,22216796.87500, -52.96910,
,,,22338867.18750, -60.96910,
,,,22460937.50000, -60.96910,
,,,22583007.81250, -60.96910,
,,,22705078.12500, -59.76910,
,,,22827148.43750, -60.96910,
,,,22949218.75000, -60.96910,
,,,23071289.06250, -60.96910,
,,,23193359.37500, -60.96910,
,,,23315429.68750, -59.76910,
,,,23437500.00000, -60.96910,
,,,23559570.31250, -60.96910,
,,,23681640.62500, -59.76910,
,,,23803710.93750, -56.96910,
,,,23925781.25000, -55.76910,
,,,24047851.56250, -59.76910,
,,,24169921.87500, -57.36910,
,,,24291992.18750, -60.96910,
,,,24414062.50000, -57.36910,
,,,24536132.81250, -60.96910,
,,,24658203.12500, -60.96910,
,,,24780273.43750, -59.76910,
,,,24902343.75000, -60.96910,
,,,25024414.06250, -60.96910,
,,,25146484.37500, -56.96910,
,,,25268554.68750, -50.96910,
,,,25390625.00000, -59.76910,
,,,25512695.31250, -60.96910,
,,,25634765.62500, -60.96910,
,,,25756835.93750, -57.76910,
,,,25878906.25000, -60.96910,
,,,26000976.56250, -60.96910,
,,,26123046.87500, -56.96910,
,,,26245117.18750, -57.76910,
,,,26367187.50000, -60.96910,
,,,26489257.81250, -57.76910,
,,,26611328.12500, -55.76910,
,,,26733398.43750, -57.76910,
,,,26855468.75000, -60.96910,
,,,26977539.06250, -60.96910,
,,,27099609.37500, -60.96910,
,,,27221679.68750, -59.76910,
,,,27343750.00000, -60.96910,
,,,27465820.31250, -60.96910,
,,,27587890.62500, -56.96910,
,,,27709960.93750, -52.96910,
,,,27832031.25000, -54.96910,
,,,27954101.56250, -56.96910,
,,,28076171.87500, -55.76910,
,,,28198242.18750, -59.76910,
,,,28320312.50000, -60.96910,
,,,28442382.81250, -60.96910,
,,,28564453.12500, -60.96910,
,,,28686523.43750, -60.96910,
,,,28808593.75000, -60.96910,
,,,28930664.06250, -60.96910,
,,,29052734.37500, -56.96910,
,,,29174804.68750, -56.96910,
,,,29296875.00000, -60.96910,
,,,29418945.31250, -60.96910,
,,,29541015.62500, -60.96910,
,,,29663085.93750, -60.96910,
,,,29785156.25000, -59.76910,
,,,29907226.56250, -60.96910,
,,,30029296.87500, -60.96910,
,,,30151367.18750, -60.96910,
,,,30273437.50000, -54.56910,
,,,30395507.81250, -59.76910,
,,,30517578.12500, -60.96910,
,,,30639648.43750, -56.96910,
,,,30761718.75000, -60.96910,
,,,30883789.06250, -60.96910,
,,,31005859.37500, -59.76910,
,,,31127929.68750, -60.96910,
,,,31250000.00000, -59.76910,
,,,31372070.31250, -59.76910,
,,,31494140.62500, -60.96910,
,,,31616210.93750, -60.96910,
,,,31738281.25000, -60.96910,
,,,31860351.56250, -57.36910,
,,,31982421.87500, -55.76910,
,,,32104492.18750, -59.76910,
,,,32226562.50000, -60.96910,
,,,32348632.81250, -56.96910,
,,,32470703.12500, -56.96910,
,,,32592773.43750, -57.76910,
,,,32714843.75000, -60.96910,
,,,32836914.06250, -60.96910,
,,,32958984.37500, -60.96910,
,,,33081054.68750, -60.96910,
,,,33203125.00000, -59.76910,
,,,33325195.31250, -59.76910,
,,,33447265.62500, -59.76910,
,,,33569335.93750, -57.36910,
,,,33691406.25000, -60.96910,
,,,33813476.56250, -60.96910,
,,,33935546.87500, -59.76910,
,,,34057617.18750, -59.76910,
,,,34179687.50000, -59.76910,
,,,34301757.81250, -60.96910,
,,,34423828.12500, -60.96910,
,,,34545898.43750, -60.96910,
,,,34667968.75000, -60.96910,
,,,34790039.06250, -60.96910,
,,,34912109.37500, -60.96910,
,,,35034179.68750, -59.76910,
,,,35156250.00000, -60.96910,
,,,35278320.31250, -60.96910,
,,,35400390.62500, -60.96910,
,,,35522460.93750, -60.96910,
,,,35644531.25000, -60.96910,
,,,35766601.56250, -60.96910,
,,,35888671.87500, -60.96910,
,,,36010742.18750, -60.96910,
,,,36132812.50000, -60.96910,
,,,36254882.81250, -57.76910,
,,,36376953.12500, -59.76910,
,,,36499023.43750, -60.96910,
,,,36621093.75000, -60.96910,
,,,36743164.06250, -59.76910,
,,,36865234.37500, -60.96910,
,,,36987304.68750, -56.96910,
,,,37109375.00000, -59.76910,
,,,37231445.31250, -59.76910,
,,,37353515.62500, -59.76910,
,,,37475585.93750, -59.76910,
,,,37597656.25000, -56.96910,
,,,37719726.56250, -60.96910,
,,,37841796.87500, -55.76910,
,,,37963867.18750, -57.76910,
,,,38085937.50000, -60.96910,
,,,38208007.81250, -60.96910,
,,,38330078.12500, -60.96910,
,,,38452148.43750, -57.36910,
,,,38574218.75000, -60.96910,
,,,38696289.06250, -60.96910,
,,,38818359.37500, -59.76910,
,,,38940429.68750, -57.36910,
,,,39062500.00000, -60.96910,
,,,39184570.31250, -59.76910,
,,,39306640.62500, -60.96910,
,,,39428710.93750, -60.96910,
,,,39550781.25000, -60.96910,
,,,39672851.56250, -60.96910,
,,,39794921.87500, -60.96910,
,,,39916992.18750, -60.96910,
,,,40039062.50000, -60.96910,
,,,40161132.81250, -59.76910,
,,,40283203.12500, -52.96910,
,,,40405273.43750, -48.96910,
,,,40527343.75000, -54.56910,
,,,40649414.06250, -59.76910,
,,,40771484.37500, -59.76910,
,,,40893554.68750, -60.96910,
,,,41015625.00000, -60.96910,
,,,41137695.31250, -59.76910,
,,,41259765.62500, -60.96910,
,,,41381835.93750, -60.96910,
,,,41503906.25000, -60.96910,
,,,41625976.56250, -60.96910,
,,,41748046.87500, -60.96910,
,,,41870117.18750, -55.76910,
,,,41992187.50000, -59.76910,
,,,42114257.81250, -60.96910,
,,,42236328.12500, -60.96910,
,,,42358398.43750, -59.76910,
,,,42480468.75000, -60.96910,
,,,42602539.06250, -60.96910,
,,,42724609.37500, -60.96910,
,,,42846679.68750, -56.96910,
,,,42968750.00000, -52.16910,
,,,43090820.31250, -60.96910,
,,,43212890.62500, -60.96910,
,,,43334960.93750, -59.76910,
,,,43457031.25000, -56.96910,
,,,43579101.56250, -56.96910,
,,,43701171.87500, -60.96910,
,,,43823242.18750, -60.96910,
,,,43945312.50000, -60.96910,
,,,44067382.81250, -59.76910,
,,,44189453.12500, -60.96910,
,,,44311523.43750, -56.96910,
,,,44433593.75000, -60.96910,
,,,44555664.06250, -60.96910,
,,,44677734.37500, -60.96910,
,,,44799804.68750, -60.96910,
,,,44921875.00000, -60.96910,
,,,45043945.31250, -60.96910,
,,,45166015.62500, -57.36910,
,,,45288085.93750, -60.96910,
,,,45410156.25000, -52.96910,
,,,45532226.56250, -52.16910,
,,,45654296.87500, -60.96910,
,,,45776367.18750, -59.76910,
,,,45898437.50000, -60.96910,
,,,46020507.81250, -60.96910,
,,,46142578.12500, -60.96910,
,,,46264648.43750, -56.96910,
,,,46386718.75000, -59.76910,
,,,46508789.06250, -60.96910,
,,,46630859.37500, -60.96910,
,,,46752929.68750, -60.96910,
,,,46875000.00000, -60.96910,
,,,46997070.31250, -60.96910,
,,,47119140.62500, -60.96910,
,,,47241210.93750, -59.76910,
,,,47363281.25000, -60.96910,
,,,47485351.56250, -60.96910,
,,,47607421.87500, -60.96910,
,,,47729492.18750, -56.96910,
,,,47851562.50000, -57.36910,
,,,47973632.81250, -60.96910,
,,,48095703.12500, -52.96910,
,,,48217773.43750, -52.96910,
,,,48339843.75000, -59.76910,
,,,48461914.06250, -60.96910,
,,,48583984.37500, -59.76910,
,,,48706054.68750, -60.96910,
,,,48828125.00000, -60.96910,
,,,48950195.31250, -59.76910,
,,,49072265.62500, -59.76910,
,,,49194335.93750, -60.96910,
,,,49316406.25000, -60.96910,
,,,49438476.56250, -60.96910,
,,,49560546.87500, -60.96910,
,,,49682617.18750, -60.96910,
,,,49804687.50000, -55.76910,
,,,49926757.81250, -56.96910,
,,,50048828.12500, -60.96910,
,,,50170898.43750, -52.96910,
,,,50292968.75000, -59.76910,
,,,50415039.06250, -54.96910,
,,,50537109.37500, -54.56910,
,,,50659179.68750, -60.96910,
,,,50781250.00000, -60.96910,
,,,50903320.31250, -60.96910,
,,,51025390.62500, -60.96910,
,,,51147460.93750, -60.96910,
,,,51269531.25000, -60.96910,
,,,51391601.56250, -59.76910,
,,,51513671.87500, -59.76910,
,,,51635742.18750, -60.96910,
,,,51757812.50000, -60.96910,
,,,51879882.81250, -59.76910,
,,,52001953.12500, -57.76910,
,,,52124023.43750, -59.76910,
,,,52246093.75000, -60.96910,
,,,52368164.06250, -60.96910,
,,,52490234.37500, -59.76910,
,,,52612304.68750, -59.76910,
,,,52734375.00000, -59.76910,
,,,52856445.31250, -56.96910,
,,,52978515.62500, -57.76910,
,,,53100585.93750, -59.76910,
,,,53222656.25000, -60.96910,
,,,53344726.56250, -59.76910,
,,,53466796.87500, -55.76910,
,,,53588867.18750, -59.76910,
,,,53710937.50000, -60.96910,
,,,53833007.81250, -60.96910,
,,,53955078.12500, -60.96910,
,,,54077148.43750, -60.96910,
,,,54199218.75000, -57.36910,
,,,54321289.06250, -56.96910,
,,,54443359.37500, -59.76910,
,,,54565429.68750, -60.96910,
,,,54687500.00000, -60.96910,
,,,54809570.31250, -59.76910,
,,,54931640.62500, -60.96910,
,,,55053710.93750, -60.96910,
,,,55175781.25000, -60.96910,
,,,55297851.56250, -60.96910,
,,,55419921.87500, -57.76910,
,,,55541992.18750, -57.76910,
,,,55664062.50000, -60.96910,
,,,55786132.81250, -57.36910,
,,,55908203.12500, -57.36910,
,,,56030273.43750, -60.96910,
,,,56152343.75000, -60.96910,
,,,56274414.06250, -59.76910,
,,,56396484.37500, -60.96910,
,,,56518554.68750, -54.56910,
,,,56640625.00000, -59.76910,
,,,56762695.31250, -60.96910,
,,,56884765.62500, -60.96910,
,,,57006835.93750, -60.96910,
,,,57128906.25000, -59.76910,
,,,57250976.56250, -60.96910,
,,,57373046.87500, -60.96910,
,,,57495117.18750, -59.76910,
,,,57617187.50000, -54.56910,
,,,57739257.81250, -59.76910,
,,,57861328.12500, -60.96910,
,,,57983398.43750, -60.96910,
,,,58105468.75000, -60.96910,
,,,58227539.06250, -60.96910,
,,,58349609.37500, -57.36910,
,,,58471679.68750, -59.76910,
,,,58593750.00000, -60.96910,
,,,58715820.31250, -60.96910,
,,,58837890.62500, -55.76910,
,,,58959960.93750, -59.76910,
,,,59082031.25000, -60.96910,
,,,59204101.56250, -57.76910,
,,,59326171.87500, -59.76910,
,,,59448242.18750, -60.96910,
,,,59570312.50000, -60.96910,
,,,59692382.81250, -60.96910,
,,,59814453.12500, -59.76910,
,,,59936523.43750, -60.96910,
,,,60058593.75000, -59.76910,
,,,60180664.06250, -60.96910,
,,,60302734.37500, -60.96910,
,,,60424804.68750, -57.76910,
,,,60546875.00000, -45.76910,
,,,60668945.31250, -45.76910,
,,,60791015.62500, -57.76910,
,,,60913085.93750, -56.96910,
,,,61035156.25000, -56.96910,
,,,61157226.56250, -60.96910,
,,,61279296.87500, -54.96910,
,,,61401367.18750, -59.76910,
,,,61523437.50000, -60.96910,
,,,61645507.81250, -60.96910,
,,,61767578.12500, -60.96910,
,,,61889648.43750, -59.76910,
,,,62011718.75000, -59.76910,
,,,62133789.06250, -60.96910,
,,,62255859.37500, -60.96910,
,,,62377929.68750, -60.96910,
,,,62500000.00000, -55.76910,
,,,62622070.31250, -54.96910,
,,,62744140.62500, -59.76910,
,,,62866210.93750, -60.96910,
,,,62988281.25000, -60.96910,
,,,63110351.56250, -59.76910,
,,,63232421.87500, -60.96910,
,,,63354492.18750, -60.96910,
,,,63476562.50000, -60.96910,
,,,63598632.81250, -60.96910,
,,,63720703.12500, -60.96910,
,,,63842773.43750, -60.96910,
,,,63964843.75000, -57.36910,
,,,64086914.06250, -60.96910,
,,,64208984.37500, -60.96910,
,,,64331054.68750, -59.76910,
,,,64453125.00000, -57.36910,
,,,64575195.31250, -56.96910,
,,,64697265.62500, -59.76910,
,,,64819335.93750, -60.96910,
,,,64941406.25000, -59.76910,
,,,65063476.56250, -56.96910,
,,,65185546.87500, -60.96910,
,,,65307617.18750, -59.76910,
,,,65429687.50000, -59.76910,
,,,65551757.81250, -60.96910,
,,,65673828.12500, -59.76910,
,,,65795898.43750, -53.76910,
,,,65917968.75000, -52.96910,
,,,66040039.06250, -57.76910,
,,,66162109.37500, -60.96910,
,,,66284179.68750, -60.96910,
,,,66406250.00000, -60.96910,
,,,66528320.31250, -60.96910,
,,,66650390.62500, -60.96910,
,,,66772460.93750, -60.96910,
,,,66894531.25000, -60.96910,
,,,67016601.56250, -60.96910,
,,,67138671.87500, -60.96910,
,,,67260742.18750, -54.56910,
,,,67382812.50000, -54.96910,
,,,67504882.81250, -60.96910,
,,,67626953.12500, -56.96910,
,,,67749023.43750, -56.96910,
,,,67871093.75000, -56.96910,
,,,67993164.06250, -56.96910,
,,,68115234.37500, -59.76910,
,,,68237304.68750, -54.96910,
,,,68359375.00000, -57.76910,
,,,68481445.31250, -60.96910,
,,,68603515.62500, -60.96910,
,,,68725585.93750, -59.76910,
,,,68847656.25000, -60.96910,
,,,68969726.56250, -55.76910,
,,,69091796.87500, -59.76910,
,,,69213867.18750, -56.96910,
,,,69335937.50000, -59.76910,
,,,69458007.81250, -57.36910,
,,,69580078.12500, -57.36910,
,,,69702148.43750, -57.36910,
,,,69824218.75000, -59.76910,
,,,69946289.06250, -60.96910,
,,,70068359.37500, -60.96910,
,,,70190429.68750, -60.96910,
,,,70312500.00000, -60.96910,
,,,70434570.31250, -60.96910,
,,,70556640.62500, -60.96910,
,,,70678710.93750, -60.96910,
,,,70800781.25000, -60.96910,
,,,70922851.56250, -60.96910,
,,,71044921.87500, -60.96910,
,,,71166992.18750, -59.76910,
,,,71289062.50000, -60.96910,
,,,71411132.81250, -60.96910,
,,,71533203.12500, -60.96910,
,,,71655273.43750, -60.96910,
,,,71777343.75000, -59.76910,
,,,71899414.06250, -55.76910,
,,,72021484.37500, -54.56910,
,,,72143554.68750, -54.96910,
,,,72265625.00000, -57.36910,
,,,72387695.31250, -60.96910,
,,,72509765.62500, -59.76910,
,,,72631835.93750, -60.96910,
,,,72753906.25000, -59.76910,
,,,72875976.56250, -59.76910,
,,,72998046.87500, -60.96910,
,,,73120117.18750, -60.96910,
,,,73242187.50000, -60.96910,
,,,73364257.81250, -60.96910,
,,,73486328.12500, -60.96910,
,,,73608398.43750, -59.76910,
,,,73730468.75000, -59.76910,
,,,73852539.06250, -56.96910,
,,,73974609.37500, -59.76910,
,,,74096679.68750, -60.96910,
,,,74218750.00000, -60.96910,
,,,74340820.31250, -60.96910,
,,,74462890.62500, -60.96910,
,,,74584960.93750, -60.96910,
,,,74707031.25000, -60.96910,
,,,74829101.56250, -60.96910,
,,,74951171.87500, -53.76910,
,,,75073242.18750, -51.76910,
,,,75195312.50000, -55.76910,
,,,75317382.81250, -60.96910,
,,,75439453.12500, -54.56910,
,,,75561523.43750, -56.96910,
,,,75683593.75000, -60.96910,
,,,75805664.06250, -59.76910,
,,,75927734.37500, -60.96910,
,,,76049804.68750, -59.76910,
,,,76171875.00000, -60.96910,
,,,76293945.31250, -60.96910,
,,,76416015.62500, -60.96910,
,,,76538085.93750, -60.96910,
,,,76660156.25000, -60.96910,
,,,76782226.56250, -60.96910,
,,,76904296.87500, -59.76910,
,,,77026367.18750, -57.76910,
,,,77148437.50000, -57.76910,
,,,77270507.81250, -59.76910,
,,,77392578.12500, -57.76910,
,,,77514648.43750, -57.76910,
,,,77636718.75000, -60.96910,
,,,77758789.06250, -60.96910,
,,,77880859.37500, -59.76910,
,,,78002929.68750, -59.76910,
,,,78125000.00000, -59.76910,
,,,78247070.31250, -56.96910,
,,,78369140.62500, -54.96910,
,,,78491210.93750, -59.76910,
,,,78613281.25000, -59.76910,
,,,78735351.56250, -60.96910,
,,,78857421.87500, -59.76910,
,,,78979492.18750, -57.36910,
,,,79101562.50000, -60.96910,
,,,79223632.81250, -60.96910,
,,,79345703.12500, -60.96910,
,,,79467773.43750, -60.96910,
,,,79589843.75000, -60.96910,
,,,79711914.06250, -59.76910,
,,,79833984.37500, -59.76910,
,,,79956054.68750, -60.96910,
