Data/ALL0056/F0056MTH.CSV

Record Length,1.024000e+03,,          0.00000, -45.76910,
Sample Interval,2.466067e+02,,        246.60669, -44.56910,
Trigger Point,0.000000000000e+00,,        493.21338, -42.16910,
,,,        739.82008, -42.56910,
,,,        986.42677, -46.56910,
,,,       1233.03346, -43.76910,
Source,MATH,,       1479.64015, -48.56910,
Vertical Units,dB,,       1726.24684, -49.76910,
Vertical Scale,1.000000e+01,,       1972.85354, -51.76910,
Vertical Offset,0.000000e+00,,       2219.46023, -57.36910,
Horizontal Units,Hz,,       2466.06692, -52.96910,
Horizontal Scale,2.525253e+04,,       2712.67361, -44.16910,
Pt Fmt,Y,,       2959.28030, -35.76910,
Yzero,-2.096910e+01,,       3205.88699, -40.56910,
Probe Atten,1.000000e+00,,       3452.49369, -31.36910,
Model Number,TDS1012C-EDU,,       3699.10038, -29.36910,
Serial Number,C013699,,       3945.70707, -39.76910,
Firmware Version,FV:v25.07,,       4192.31376, -45.76910,
,,,4438.92045, -49.76910,
,,,4685.52714, -54.56910,
,,,4932.13383, -54.96910,
,,,5178.74052, -49.76910,
,,,5425.34721, -44.96910,
,,,5671.95390, -46.96910,
,,,5918.56059, -41.76910,
,,,6165.16728, -43.76910,
,,,6411.77397, -43.76910,
,,,6658.38066, -40.96910,
,,,6904.98735, -45.76910,
,,,7151.59404, -40.56910,
,,,7398.20073, -42.56910,
,,,7644.80742, -44.96910,
,,,7891.41411, -43.36910,
,,,8138.02080, -48.96910,
,,,8384.62749, -44.96910,
,,,8631.23418, -59.76910,
,,,8877.84087, -47.36910,
,,,9124.44756, -43.36910,
,,,9371.05425, -35.36910,
,,,9617.66094, -26.96910,
,,,9864.26763,  -9.76910,
,,,10110.87432,   4.23090,
,,,10357.48101,   4.23090,
,,,10604.08770,  -9.76910,
,,,10850.69439, -26.16910,
,,,11097.30108, -36.96910,
,,,11343.90777, -42.96910,
,,,11590.51446, -48.56910,
,,,11837.12115, -45.36910,
,,,12083.72784, -50.16910,
,,,12330.33453, -46.56910,
,,,12576.94122, -42.96910,
,,,12823.54791, -44.96910,
,,,13070.15460, -42.16910,
,,,13316.76129, -41.76910,
,,,13563.36798, -44.16910,
,,,13809.97467, -41.36910,
,,,14056.58136, -43.36910,
,,,14303.18805, -42.96910,
,,,14549.79474, -42.16910,
,,,14796.40143, -46.96910,
,,,15043.00812, -45.36910,
,,,15289.61481, -48.96910,
,,,15536.22150, -53.76910,
,,,15782.82819, -57.36910,
,,,16029.43488, -51.76910,
,,,16276.04157, -46.96910,
,,,16522.64826, -40.16910,
,,,16769.25495, -29.76910,
,,,17015.86164, -31.76910,
,,,17262.46833, -40.56910,
,,,17509.07502, -35.36910,
,,,17755.68171, -44.56910,
,,,18002.28840, -52.96910,
,,,18248.89509, -55.76910,
,,,18495.50178, -50.96910,
,,,18742.10847, -49.36910,
,,,18988.71516, -48.96910,
,,,19235.32185, -44.16910,
,,,19481.92854, -46.96910,
,,,19728.53523, -42.56910,
,,,19975.14192, -42.16910,
,,,20221.74861, -44.16910,
,,,20468.35530, -40.56910,
,,,20714.96199, -44.16910,
,,,20961.56868, -42.16910,
,,,21208.17537, -42.96910,
,,,21454.78206, -46.16910,
,,,21701.38875, -43.76910,
,,,21947.99544, -47.76910,
,,,22194.60213, -51.36910,
,,,22441.20882, -51.36910,
,,,22687.81551, -57.76910,
,,,22934.42220, -52.16910,
,,,23181.02889, -44.56910,
,,,23427.63558, -35.76910,
,,,23674.24227, -40.56910,
,,,23920.84896, -30.56910,
,,,24167.45565, -28.96910,
,,,24414.06234, -39.76910,
,,,24660.66903, -46.96910,
,,,24907.27572, -50.56910,
,,,25153.88241, -55.76910,
,,,25400.48910, -52.96910,
,,,25647.09579, -49.76910,
,,,25893.70248, -45.36910,
,,,26140.30917, -47.76910,
,,,26386.91586, -42.96910,
,,,26633.52255, -44.16910,
,,,26880.12924, -43.36910,
,,,27126.73593, -40.56910,
,,,27373.34262, -44.16910,
,,,27619.94931, -40.56910,
,,,27866.55600, -42.16910,
,,,28113.16269, -45.36910,
,,,28359.76938, -42.96910,
,,,28606.37607, -48.96910,
,,,28852.98276, -46.16910,
,,,29099.58945, -52.16910,
,,,29346.19614, -57.76910,
,,,29592.80283, -51.76910,
,,,29839.40952, -41.76910,
,,,30086.01621, -35.76910,
,,,30332.62290, -18.96910,
,,,30579.22959,  -5.36910,
,,,30825.83628,  -5.36910,
,,,31072.44297, -19.76910,
,,,31319.04966, -33.76910,
,,,31565.65635, -46.16910,
,,,31812.26304, -52.96910,
,,,32058.86973, -55.76910,
,,,32305.47642, -48.96910,
,,,32552.08311, -48.16910,
,,,32798.68980, -47.76910,
,,,33045.29649, -42.16910,
,,,33291.90318, -44.16910,
,,,33538.50987, -42.56910,
,,,33785.11656, -40.96910,
,,,34031.72325, -44.56910,
,,,34278.32994, -40.96910,
,,,34524.93663, -43.76910,
,,,34771.54332, -43.76910,
,,,35018.15001, -42.16910,
,,,35264.75670, -47.76910,
,,,35511.36339, -44.96910,
,,,35757.97008, -48.96910,
,,,36004.57677, -56.96910,
,,,36251.18346, -54.56910,
,,,36497.79015, -51.36910,
,,,36744.39684, -46.16910,
,,,36991.00353, -40.56910,
,,,37237.61022, -30.16910,
,,,37484.21691, -32.16910,
,,,37730.82360, -39.76910,
,,,37977.43029, -34.96910,
,,,38224.03698, -44.16910,
,,,38470.64367, -51.76910,
,,,38717.25036, -54.56910,
,,,38963.85705, -50.96910,
,,,39210.46374, -49.76910,
,,,39457.07043, -48.96910,
,,,39703.67712, -44.16910,
,,,39950.28381, -47.36910,
,,,40196.89050, -43.76910,
,,,40443.49719, -42.56910,
,,,40690.10388, -44.56910,
,,,40936.71057, -41.36910,
,,,41183.31726, -44.96910,
,,,41429.92395, -41.76910,
,,,41676.53064, -41.76910,
,,,41923.13733, -46.16910,
,,,42169.74402, -43.76910,
,,,42416.35071, -48.96910,
,,,42662.95740, -48.96910,
,,,42909.56409, -50.56910,
,,,43156.17078, -60.96910,
,,,43402.77747, -57.76910,
,,,43649.38416, -45.36910,
,,,43895.99085, -35.76910,
,,,44142.59754, -40.16910,
,,,44389.20423, -30.56910,
,,,44635.81092, -28.56910,
,,,44882.41761, -39.36910,
,,,45129.02430, -46.16910,
,,,45375.63099, -49.76910,
,,,45622.23768, -54.96910,
,,,45868.84437, -56.96910,
,,,46115.45106, -48.96910,
,,,46362.05775, -46.16910,
,,,46608.66444, -47.76910,
,,,46855.27113, -42.96910,
,,,47101.87782, -43.36910,
,,,47348.48451, -43.36910,
,,,47595.09120, -40.56910,
,,,47841.69789, -44.96910,
,,,48088.30458, -40.56910,
,,,48334.91127, -42.96910,
,,,48581.51796, -46.16910,
,,,48828.12465, -43.76910,
,,,49074.73134, -48.96910,
,,,49321.33803, -46.96910,
,,,49567.94472, -49.76910,
,,,49814.55141, -57.76910,
,,,50061.15810, -55.76910,
,,,50307.76479, -44.16910,
,,,50554.37148, -38.96910,
,,,50800.97817, -23.36910,
,,,51047.58486,  -9.76910,
,,,51294.19155, -10.16910,
,,,51540.79824, -24.56910,
,,,51787.40493, -36.56910,
,,,52034.01162, -46.96910,
,,,52280.61831, -57.76910,
,,,52527.22500, -56.96910,
,,,52773.83169, -48.56910,
,,,53020.43838, -48.96910,
,,,53267.04507, -48.96910,
,,,53513.65176, -42.96910,
,,,53760.25845, -44.56910,
,,,54006.86514, -42.56910,
,,,54253.47183, -41.76910,
,,,54500.07852, -44.96910,
,,,54746.68521, -41.36910,
,,,54993.29190, -43.36910,
,,,55239.89859, -42.16910,
,,,55486.50528, -41.76910,
,,,55733.11197, -47.36910,
,,,55979.71866, -44.96910,
,,,56226.32535, -49.76910,
,,,56472.93204, -54.56910,
,,,56719.53873, -56.96910,
,,,56966.14542, -49.76910,
,,,57212.75211, -46.16910,
,,,57459.35880, -41.36910,
,,,57705.96549, -30.16910,
,,,57952.57218, -32.56910,
,,,58199.17887, -39.76910,
,,,58445.78556, -34.96910,
,,,58692.39225, -44.16910,
,,,58938.99894, -53.76910,
,,,59185.60563, -56.96910,
,,,59432.21232, -49.76910,
,,,59678.81901, -50.96910,
,,,59925.42570, -50.96910,
,,,60172.03239, -44.56910,
,,,60418.63908, -47.76910,
,,,60665.24577, -42.96910,
,,,60911.85246, -41.76910,
,,,61158.45915, -43.76910,
,,,61405.06584, -40.56910,
,,,61651.67253, -44.56910,
,,,61898.27922, -41.36910,
,,,62144.88591, -42.56910,
,,,62391.49260, -46.16910,
,,,62638.09929, -43.76910,
,,,62884.70598, -47.76910,
,,,63131.31267, -48.16910,
,,,63377.91936, -49.76910,
,,,63624.52605, -60.96910,
,,,63871.13274, -56.96910,
,,,64117.73943, -44.16910,
,,,64364.34612, -35.76910,
,,,64610.95281, -39.76910,
,,,64857.55950, -29.76910,
,,,65104.16619, -28.16910,
,,,65350.77288, -38.96910,
,,,65597.37957, -45.36910,
,,,65843.98626, -51.36910,
,,,66090.59295, -54.56910,
,,,66337.19964, -55.76910,
,,,66583.80633, -50.96910,
,,,66830.41302, -45.76910,
,,,67077.01971, -48.96910,
,,,67323.62640, -42.96910,
,,,67570.23309, -44.16910,
,,,67816.83978, -43.36910,
,,,68063.44647, -40.16910,
,,,68310.05316, -44.16910,
,,,68556.65985, -40.96910,
,,,68803.26654, -42.96910,
,,,69049.87323, -45.36910,
,,,69296.47992, -43.76910,
,,,69543.08661, -49.76910,
,,,69789.69330, -46.56910,
,,,70036.29999, -51.76910,
,,,70282.90668, -60.96910,
,,,70529.51337, -56.96910,
,,,70776.12006, -45.36910,
,,,71022.72675, -40.16910,
,,,71269.33344, -26.16910,
,,,71515.94013, -12.96910,
,,,71762.54682, -12.96910,
,,,72009.15351, -27.76910,
,,,72255.76020, -37.76910,
,,,72502.36689, -47.36910,
,,,72748.97358, -57.36910,
,,,72995.58027, -60.96910,
,,,73242.18696, -49.36910,
,,,73488.79365, -47.76910,
,,,73735.40034, -49.36910,
,,,73982.00703, -42.96910,
,,,74228.61372, -44.96910,
,,,74475.22041, -42.96910,
,,,74721.82710, -41.36910,
,,,74968.43379, -44.96910,
,,,75215.04048, -40.56910,
,,,75461.64717, -43.36910,
,,,75708.25386, -43.36910,
,,,75954.86055, -42.16910,
,,,76201.46724, -46.96910,
,,,76448.07393, -44.16910,
,,,76694.68062, -48.16910,
,,,76941.28731, -52.96910,
,,,77187.89400, -52.96910,
,,,77434.50069, -51.76910,
,,,77681.10738, -46.96910,
,,,77927.71407, -41.36910,
,,,78174.32076, -30.56910,
,,,78420.92745, -32.96910,
,,,78667.53414, -38.96910,
,,,78914.14083, -34.96910,
,,,79160.74752, -44.16910,
,,,79407.35421, -51.36910,
,,,79653.96090, -57.76910,
,,,79900.56759, -51.36910,
,,,80147.17428, -49.76910,
,,,80393.78097, -48.16910,
,,,80640.38766, -43.76910,
,,,80886.99435, -47.36910,
,,,81133.60104, -42.16910,
,,,81380.20773, -42.56910,
,,,81626.81442, -45.36910,
,,,81873.42111, -40.56910,
,,,82120.02780, -44.56910,
,,,82366.63449, -41.76910,
,,,82613.24118, -42.56910,
,,,82859.84787, -46.96910,
,,,83106.45456, -44.16910,
,,,83353.06125, -48.56910,
,,,83599.66794, -49.36910,
,,,83846.27463, -50.56910,
,,,84092.88132, -59.76910,
,,,84339.48801, -57.36910,
,,,84586.09470, -44.96910,
,,,84832.70139, -36.16910,
,,,85079.30808, -40.56910,
,,,85325.91477, -29.36910,
,,,85572.52146, -27.76910,
,,,85819.12815, -39.36910,
,,,86065.73484, -45.36910,
,,,86312.34153, -51.76910,
,,,86558.94822, -52.96910,
,,,86805.55491, -60.96910,
,,,87052.16160, -50.56910,
,,,87298.76829, -45.76910,
,,,87545.37498, -47.76910,
,,,87791.98167, -42.56910,
,,,88038.58836, -43.36910,
,,,88285.19505, -43.36910,
,,,88531.80174, -40.56910,
,,,88778.40843, -45.36910,
,,,89025.01512, -41.36910,
,,,89271.62181, -42.96910,
,,,89518.22850, -44.96910,
,,,89764.83519, -43.36910,
,,,90011.44188, -48.96910,
,,,90258.04857, -46.96910,
,,,90504.65526, -49.76910,
,,,90751.26195, -59.76910,
,,,90997.86864, -57.76910,
,,,91244.47533, -46.16910,
,,,91491.08202, -40.96910,
,,,91737.68871, -27.76910,
,,,91984.29540, -14.96910,
,,,92230.90209, -15.36910,
,,,92477.50878, -30.16910,
,,,92724.11547, -38.16910,
,,,92970.72216, -46.56910,
,,,93217.32885, -60.96910,
,,,93463.93554, -60.96910,
,,,93710.54223, -48.96910,
,,,93957.14892, -48.16910,
,,,94203.75561, -47.76910,
,,,94450.36230, -43.36910,
,,,94696.96899, -45.76910,
,,,94943.57568, -42.96910,
,,,95190.18237, -41.76910,
,,,95436.78906, -44.16910,
,,,95683.39575, -40.56910,
,,,95930.00244, -43.76910,
,,,96176.60913, -42.96910,
,,,96423.21582, -41.76910,
,,,96669.82251, -47.76910,
,,,96916.42920, -44.16910,
,,,97163.03589, -48.56910,
,,,97409.64258, -52.96910,
,,,97656.24927, -52.96910,
,,,97902.85596, -51.36910,
,,,98149.46265, -47.76910,
,,,98396.06934, -41.36910,
,,,98642.67603, -30.96910,
,,,98889.28272, -33.36910,
,,,99135.88941, -38.56910,
,,,99382.49610, -34.96910,
,,,99629.10279, -44.16910,
,,,99875.70948, -52.96910,
,,,100122.31617, -59.76910,
,,,100368.92286, -52.96910,
,,,100615.52955, -49.76910,
,,,100862.13624, -48.16910,
,,,101108.74293, -45.36910,
,,,101355.34962, -48.16910,
,,,101601.95631, -42.56910,
,,,101848.56300, -42.16910,
,,,102095.16969, -43.36910,
,,,102341.77638, -40.56910,
,,,102588.38307, -44.56910,
,,,102834.98976, -41.36910,
,,,103081.59645, -42.56910,
,,,103328.20314, -46.96910,
,,,103574.80983, -43.36910,
,,,103821.41652, -48.56910,
,,,104068.02321, -48.16910,
,,,104314.62990, -49.76910,
,,,104561.23659, -56.96910,
,,,104807.84328, -56.96910,
,,,105054.44997, -44.56910,
,,,105301.05666, -36.56910,
,,,105547.66335, -40.96910,
,,,105794.27004, -28.56910,
,,,106040.87673, -27.36910,
,,,106287.48342, -38.16910,
,,,106534.09011, -45.36910,
,,,106780.69680, -49.76910,
,,,107027.30349, -56.96910,
,,,107273.91018, -57.36910,
,,,107520.51687, -49.76910,
,,,107767.12356, -45.76910,
,,,108013.73025, -48.16910,
,,,108260.33694, -42.16910,
,,,108506.94363, -43.36910,
,,,108753.55032, -43.36910,
,,,109000.15701, -40.96910,
,,,109246.76370, -45.76910,
,,,109493.37039, -41.76910,
,,,109739.97708, -43.76910,
,,,109986.58377, -43.76910,
,,,110233.19046, -42.96910,
,,,110479.79715, -48.16910,
,,,110726.40384, -46.16910,
,,,110973.01053, -48.96910,
,,,111219.61722, -60.96910,
,,,111466.22391, -59.76910,
,,,111712.83060, -46.56910,
,,,111959.43729, -41.36910,
,,,112206.04398, -29.76910,
,,,112452.65067, -16.56910,
,,,112699.25736, -16.96910,
,,,112945.86405, -31.76910,
,,,113192.47074, -37.76910,
,,,113439.07743, -46.96910,
,,,113685.68412, -60.96910,
,,,113932.29081, -60.96910,
,,,114178.89750, -48.96910,
,,,114425.50419, -48.96910,
,,,114672.11088, -48.16910,
,,,114918.71757, -42.96910,
,,,115165.32426, -45.36910,
,,,115411.93095, -42.56910,
,,,115658.53764, -40.96910,
,,,115905.14433, -45.36910,
,,,116151.75102, -40.16910,
,,,116398.35771, -43.36910,
,,,116644.96440, -43.36910,
,,,116891.57109, -42.56910,
,,,117138.17778, -48.16910,
,,,117384.78447, -44.56910,
,,,117631.39116, -48.96910,
,,,117877.99785, -54.56910,
,,,118124.60454, -52.96910,
,,,118371.21123, -52.96910,
,,,118617.81792, -47.76910,
,,,118864.42461, -41.76910,
,,,119111.03130, -31.36910,
,,,119357.63799, -33.76910,
,,,119604.24468, -37.76910,
,,,119850.85137, -34.56910,
,,,120097.45806, -43.36910,
,,,120344.06475, -51.36910,
,,,120590.67144, -53.76910,
,,,120837.27813, -53.76910,
,,,121083.88482, -52.16910,
,,,121330.49151, -47.76910,
,,,121577.09820, -44.56910,
,,,121823.70489, -46.96910,
,,,122070.31158, -42.56910,
,,,122316.91827, -42.56910,
,,,122563.52496, -44.16910,
,,,122810.13165, -40.16910,
,,,123056.73834, -43.76910,
,,,123303.34503, -41.76910,
,,,123549.95172, -42.16910,
,,,123796.55841, -46.16910,
,,,124043.16510, -43.76910,
,,,124289.77179, -48.16910,
,,,124536.37848, -48.96910,
,,,124782.98517, -51.36910,
,,,125029.59186, -56.96910,
,,,125276.19855, -54.56910,
,,,125522.80524, -44.96910,
,,,125769.41193, -36.56910,
,,,126016.01862, -40.96910,
,,,126262.62531, -28.16910,
,,,126509.23200, -26.96910,
,,,126755.83869, -37.76910,
,,,127002.44538, -44.96910,
,,,127249.05207, -49.76910,
,,,127495.65876, -59.76910,
,,,127742.26545, -59.76910,
,,,127988.87214, -48.16910,
,,,128235.47883, -45.76910,
,,,128482.08552, -47.36910,
,,,128728.69221, -42.16910,
,,,128975.29890, -43.36910,
,,,129221.90559, -42.96910,
,,,129468.51228, -40.96910,
,,,129715.11897, -46.16910,
,,,129961.72566, -41.76910,
,,,130208.33235, -43.76910,
,,,130454.93904, -44.96910,
,,,130701.54573, -42.56910,
,,,130948.15242, -48.56910,
,,,131194.75911, -45.76910,
,,,131441.36580, -48.96910,
,,,131687.97249, -60.96910,
,,,131934.57918, -60.96910,
,,,132181.18587, -46.96910,
,,,132427.79256, -41.76910,
,,,132674.39925, -30.96910,
,,,132921.00594, -18.16910,
,,,133167.61263, -18.56910,
,,,133414.21932, -33.76910,
,,,133660.82601, -38.56910,
,,,133907.43270, -47.36910,
,,,134154.03939, -60.96910,
,,,134400.64608, -60.96910,
,,,134647.25277, -50.56910,
,,,134893.85946, -49.76910,
,,,135140.46615, -48.16910,
,,,135387.07284, -42.96910,
,,,135633.67953, -44.96910,
,,,135880.28622, -42.16910,
,,,136126.89291, -40.96910,
,,,136373.49960, -45.36910,
,,,136620.10629, -40.16910,
,,,136866.71298, -42.96910,
,,,137113.31967, -42.96910,
,,,137359.92636, -42.96910,
,,,137606.53305, -48.16910,
,,,137853.13974, -44.96910,
,,,138099.74643, -48.96910,
,,,138346.35312, -53.76910,
,,,138592.95981, -53.76910,
,,,138839.56650, -51.36910,
,,,139086.17319, -48.16910,
,,,139332.77988, -42.16910,
,,,139579.38657, -31.36910,
,,,139825.99326, -34.16910,
,,,140072.59995, -37.36910,
,,,140319.20664, -34.16910,
,,,140565.81333, -43.36910,
,,,140812.42002, -52.96910,
,,,141059.02671, -54.56910,
,,,141305.63340, -52.96910,
,,,141552.24009, -51.36910,
,,,141798.84678, -48.16910,
,,,142045.45347, -43.76910,
,,,142292.06016, -46.16910,
,,,142538.66685, -42.16910,
,,,142785.27354, -42.56910,
,,,143031.88023, -44.56910,
,,,143278.48692, -40.56910,
,,,143525.09361, -44.16910,
,,,143771.70030, -42.16910,
,,,144018.30699, -42.96910,
,,,144264.91368, -46.16910,
,,,144511.52037, -43.76910,
,,,144758.12706, -47.76910,
,,,145004.73375, -48.96910,
,,,145251.34044, -50.96910,
,,,145497.94713, -56.96910,
,,,145744.55382, -54.96910,
,,,145991.16051, -44.56910,
,,,146237.76720, -36.56910,
,,,146484.37389, -40.96910,
,,,146730.98058, -27.76910,
,,,146977.58727, -26.56910,
,,,147224.19396, -37.76910,
,,,147470.80065, -44.96910,
,,,147717.40734, -49.76910,
,,,147964.01403, -57.36910,
,,,148210.62072, -59.76910,
,,,148457.22741, -47.76910,
,,,148703.83410, -44.56910,
,,,148950.44079, -48.16910,
,,,149197.04748, -42.16910,
,,,149443.65417, -43.36910,
,,,149690.26086, -42.96910,
,,,149936.86755, -41.36910,
,,,150183.47424, -44.56910,
,,,150430.08093, -40.96910,
,,,150676.68762, -42.96910,
,,,150923.29431, -43.36910,
,,,151169.90100, -42.16910,
,,,151416.50769, -48.56910,
,,,151663.11438, -46.96910,
,,,151909.72107, -49.76910,
,,,152156.32776, -60.96910,
,,,152402.93445, -59.76910,
,,,152649.54114, -47.76910,
,,,152896.14783, -41.76910,
,,,153142.75452, -31.76910,
,,,153389.36121, -19.36910,
,,,153635.96790, -19.76910,
,,,153882.57459, -34.96910,
,,,154129.18128, -38.56910,
,,,154375.78797, -46.96910,
,,,154622.39466, -60.96910,
,,,154869.00135, -60.96910,
,,,155115.60804, -50.56910,
,,,155362.21473, -49.36910,
,,,155608.82142, -48.16910,
,,,155855.42811, -42.96910,
,,,156102.03480, -44.96910,
,,,156348.64149, -42.96910,
,,,156595.24818, -41.76910,
,,,156841.85487, -46.16910,
,,,157088.46156, -40.96910,
,,,157335.06825, -44.16910,
,,,157581.67494, -42.16910,
,,,157828.28163, -41.76910,
,,,158074.88832, -47.76910,
,,,158321.49501, -44.96910,
,,,158568.10170, -48.56910,
,,,158814.70839, -54.56910,
,,,159061.31508, -54.56910,
,,,159307.92177, -50.96910,
,,,159554.52846, -48.96910,
,,,159801.13515, -42.16910,
,,,160047.74184, -31.76910,
,,,160294.34853, -34.56910,
,,,160540.95522, -37.76910,
,,,160787.56191, -33.76910,
,,,161034.16860, -43.76910,
,,,161280.77529, -50.56910,
,,,161527.38198, -52.96910,
,,,161773.98867, -53.76910,
,,,162020.59536, -51.76910,
,,,162267.20205, -48.56910,
,,,162513.80874, -43.76910,
,,,162760.41543, -46.16910,
,,,163007.02212, -41.76910,
,,,163253.62881, -42.16910,
,,,163500.23550, -43.76910,
,,,163746.84219, -40.56910,
,,,163993.44888, -43.76910,
,,,164240.05557, -42.56910,
,,,164486.66226, -42.96910,
,,,164733.26895, -46.56910,
,,,164979.87564, -44.16910,
,,,165226.48233, -48.96910,
,,,165473.08902, -49.76910,
,,,165719.69571, -52.16910,
,,,165966.30240, -60.96910,
,,,166212.90909, -54.56910,
,,,166459.51578, -45.36910,
,,,166706.12247, -36.96910,
,,,166952.72916, -41.36910,
,,,167199.33585, -27.36910,
,,,167445.94254, -25.76910,
,,,167692.54923, -37.36910,
,,,167939.15592, -43.76910,
,,,168185.76261, -47.76910,
,,,168432.36930, -59.76910,
,,,168678.97599, -57.36910,
,,,168925.58268, -48.16910,
,,,169172.18937, -45.36910,
,,,169418.79606, -48.96910,
,,,169665.40275, -42.56910,
,,,169912.00944, -43.36910,
,,,170158.61613, -44.16910,
,,,170405.22282, -42.16910,
,,,170651.82951, -45.36910,
,,,170898.43620, -40.96910,
,,,171145.04289, -42.16910,
,,,171391.64958, -44.16910,
,,,171638.25627, -42.96910,
,,,171884.86296, -47.76910,
,,,172131.46965, -45.36910,
,,,172378.07634, -49.76910,
,,,172624.68303, -60.96910,
,,,172871.28972, -57.36910,
,,,173117.89641, -47.76910,
,,,173364.50310, -42.16910,
,,,173611.10979, -32.96910,
,,,173857.71648, -20.56910,
,,,174104.32317, -20.96910,
,,,174350.92986, -36.56910,
,,,174597.53655, -38.16910,
,,,174844.14324, -46.96910,
,,,175090.74993, -60.96910,
,,,175337.35662, -60.96910,
,,,175583.96331, -48.96910,
,,,175830.57000, -48.96910,
