Data/ALL0027/F0027MTH.CSV

Record Length,1.024000e+03,,          0.00000, -24.96910,
Sample Interval,2.466067e+01,,         24.66067, -22.56910,
Trigger Point,0.000000000000e+00,,         49.32134, -29.36910,
,,,         73.98201, -55.36910,
,,,         98.64268, -60.96910,
,,,        123.30335, -60.96910,
Source,MATH,,        147.96402, -60.96910,
Vertical Units,dB,,        172.62468, -60.96910,
Vertical Scale,1.000000e+01,,        197.28535, -58.56910,
Vertical Offset,0.000000e+00,,        221.94602, -54.56910,
Horizontal Units,Hz,,        246.60669, -54.56910,
Horizontal Scale,2.525253e+03,,        271.26736, -58.56910,
Pt Fmt,Y,,        295.92803, -60.96910,
Yzero,-2.096910e+01,,        320.58870, -60.96910,
Probe Atten,1.000000e+00,,        345.24937, -60.96910,
Model Number,TDS1012C-EDU,,        369.91004, -60.96910,
Serial Number,C013699,,        394.57071, -58.56910,
Firmware Version,FV:v25.07,,        419.23138, -60.96910,
,,,443.89205, -60.96910,
,,,468.55272, -51.76910,
,,,493.21339, -51.76910,
,,,517.87406, -51.76910,
,,,542.53473, -55.36910,
,,,567.19540, -58.56910,
,,,591.85607, -60.96910,
,,,616.51674, -58.56910,
,,,641.17741, -58.56910,
,,,665.83808, -60.96910,
,,,690.49875, -60.96910,
,,,715.15942, -60.96910,
,,,739.82009, -60.96910,
,,,764.48076, -60.96910,
,,,789.14143, -60.96910,
,,,813.80210, -60.96910,
,,,838.46277, -58.56910,
,,,863.12344, -54.56910,
,,,887.78411, -60.96910,
,,,912.44478, -60.96910,
,,,937.10545, -60.96910,
,,,961.76612, -60.96910,
,,,986.42679, -60.96910,
,,,1011.08746, -58.56910,
,,,1035.74813, -60.96910,
,,,1060.40880, -60.96910,
,,,1085.06947, -60.96910,
,,,1109.73014, -60.96910,
,,,1134.39081, -58.56910,
,,,1159.05148, -60.96910,
,,,1183.71215, -60.96910,
,,,1208.37282, -58.56910,
,,,1233.03349, -60.96910,
,,,1257.69416, -60.96910,
,,,1282.35483, -60.96910,
,,,1307.01550, -60.96910,
,,,1331.67617, -60.96910,
,,,1356.33684, -60.96910,
,,,1380.99751, -60.96910,
,,,1405.65818, -60.96910,
,,,1430.31885, -60.96910,
,,,1454.97952, -60.96910,
,,,1479.64019, -58.56910,
,,,1504.30086, -60.96910,
,,,1528.96153, -60.96910,
,,,1553.62220, -60.96910,
,,,1578.28287, -60.96910,
,,,1602.94354, -60.96910,
,,,1627.60421, -60.96910,
,,,1652.26488, -60.96910,
,,,1676.92555, -60.96910,
,,,1701.58622, -60.96910,
,,,1726.24689, -58.56910,
,,,1750.90756, -60.96910,
,,,1775.56823, -60.96910,
,,,1800.22890, -58.56910,
,,,1824.88957, -60.96910,
,,,1849.55024, -60.96910,
,,,1874.21091, -60.96910,
,,,1898.87158, -60.96910,
,,,1923.53225, -60.96910,
,,,1948.19292, -60.96910,
,,,1972.85359, -60.96910,
,,,1997.51426, -60.96910,
,,,2022.17493, -60.96910,
,,,2046.83560, -60.96910,
,,,2071.49627, -60.96910,
,,,2096.15694, -60.96910,
,,,2120.81761, -60.96910,
,,,2145.47828, -60.96910,
,,,2170.13895, -58.56910,
,,,2194.79962, -60.96910,
,,,2219.46029, -58.56910,
,,,2244.12096, -60.96910,
,,,2268.78163, -60.96910,
,,,2293.44230, -58.56910,
,,,2318.10297, -58.56910,
,,,2342.76364, -60.96910,
,,,2367.42431, -54.56910,
,,,2392.08498, -58.56910,
,,,2416.74565, -54.56910,
,,,2441.40632, -60.96910,
,,,2466.06699, -60.96910,
,,,2490.72766, -60.96910,
,,,2515.38833, -60.96910,
,,,2540.04900, -60.96910,
,,,2564.70967, -55.36910,
,,,2589.37034, -58.56910,
,,,2614.03101, -58.56910,
,,,2638.69168, -60.96910,
,,,2663.35235, -60.96910,
,,,2688.01302, -58.56910,
,,,2712.67369, -58.56910,
,,,2737.33436, -60.96910,
,,,2761.99503, -55.36910,
,,,2786.65570, -55.36910,
,,,2811.31637, -58.56910,
,,,2835.97704, -52.56910,
,,,2860.63771, -58.56910,
,,,2885.29838, -60.96910,
,,,2909.95905, -60.96910,
,,,2934.61972, -60.96910,
,,,2959.28039, -58.56910,
,,,2983.94106, -58.56910,
,,,3008.60173, -58.56910,
,,,3033.26240, -60.96910,
,,,3057.92307, -60.96910,
,,,3082.58374, -60.96910,
,,,3107.24441, -60.96910,
,,,3131.90508, -58.56910,
,,,3156.56575, -60.96910,
,,,3181.22642, -60.96910,
,,,3205.88709, -58.56910,
,,,3230.54776, -54.56910,
,,,3255.20843, -60.96910,
,,,3279.86910, -60.96910,
,,,3304.52977, -60.96910,
,,,3329.19044, -60.96910,
,,,3353.85111, -60.96910,
,,,3378.51178, -60.96910,
,,,3403.17245, -60.96910,
,,,3427.83312, -60.96910,
,,,3452.49379, -60.96910,
,,,3477.15446, -60.96910,
,,,3501.81513, -60.96910,
,,,3526.47580, -60.96910,
,,,3551.13647, -58.56910,
,,,3575.79714, -58.56910,
,,,3600.45781, -58.56910,
,,,3625.11848, -60.96910,
,,,3649.77915, -60.96910,
,,,3674.43982, -60.96910,
,,,3699.10049, -60.96910,
,,,3723.76116, -60.96910,
,,,3748.42183, -60.96910,
,,,3773.08250, -60.96910,
,,,3797.74317, -60.96910,
,,,3822.40384, -60.96910,
,,,3847.06451, -60.96910,
,,,3871.72518, -60.96910,
,,,3896.38585, -58.56910,
,,,3921.04652, -60.96910,
,,,3945.70719, -60.96910,
,,,3970.36786, -60.96910,
,,,3995.02853, -60.96910,
,,,4019.68920, -58.56910,
,,,4044.34987, -58.56910,
,,,4069.01054, -58.56910,
,,,4093.67121, -58.56910,
,,,4118.33188, -55.36910,
,,,4142.99255, -60.96910,
,,,4167.65322, -55.36910,
,,,4192.31389, -60.96910,
,,,4216.97456, -60.96910,
,,,4241.63523, -60.96910,
,,,4266.29590, -60.96910,
,,,4290.95657, -60.96910,
,,,4315.61724, -60.96910,
,,,4340.27791, -60.96910,
,,,4364.93858, -60.96910,
,,,4389.59925, -60.96910,
,,,4414.25992, -60.96910,
,,,4438.92059, -60.96910,
,,,4463.58126, -60.96910,
,,,4488.24193, -58.56910,
,,,4512.90260, -58.56910,
,,,4537.56327, -58.56910,
,,,4562.22394, -60.96910,
,,,4586.88461, -60.96910,
,,,4611.54528, -58.56910,
,,,4636.20595, -58.56910,
,,,4660.86662, -60.96910,
,,,4685.52729, -60.96910,
,,,4710.18796, -60.96910,
,,,4734.84863, -60.96910,
,,,4759.50930, -60.96910,
,,,4784.16997, -58.56910,
,,,4808.83064, -60.96910,
,,,4833.49131, -58.56910,
,,,4858.15198, -60.96910,
,,,4882.81265, -58.56910,
,,,4907.47332, -58.56910,
,,,4932.13399, -60.96910,
,,,4956.79466, -60.96910,
,,,4981.45533, -58.56910,
,,,5006.11600, -60.96910,
,,,5030.77667, -60.96910,
,,,5055.43734, -58.56910,
,,,5080.09801, -58.56910,
,,,5104.75868, -60.96910,
,,,5129.41935, -60.96910,
,,,5154.08002, -58.56910,
,,,5178.74069, -60.96910,
,,,5203.40136, -60.96910,
,,,5228.06203, -55.36910,
,,,5252.72270, -58.56910,
,,,5277.38337, -60.96910,
,,,5302.04404, -60.96910,
,,,5326.70471, -60.96910,
,,,5351.36538, -60.96910,
,,,5376.02605, -60.96910,
,,,5400.68672, -60.96910,
,,,5425.34739, -60.96910,
,,,5450.00806, -60.96910,
,,,5474.66873, -60.96910,
,,,5499.32940, -58.56910,
,,,5523.99007, -60.96910,
,,,5548.65074, -58.56910,
,,,5573.31141, -60.96910,
,,,5597.97208, -58.56910,
,,,5622.63275, -60.96910,
,,,5647.29342, -60.96910,
,,,5671.95409, -60.96910,
,,,5696.61476, -60.96910,
,,,5721.27543, -58.56910,
,,,5745.93610, -58.56910,
,,,5770.59677, -58.56910,
,,,5795.25744, -55.36910,
,,,5819.91811, -55.36910,
,,,5844.57878, -60.96910,
,,,5869.23945, -60.96910,
,,,5893.90012, -60.96910,
,,,5918.56079, -60.96910,
,,,5943.22146, -58.56910,
,,,5967.88213, -60.96910,
,,,5992.54280, -58.56910,
,,,6017.20347, -60.96910,
,,,6041.86414, -60.96910,
,,,6066.52481, -60.96910,
,,,6091.18548, -60.96910,
,,,6115.84615, -60.96910,
,,,6140.50682, -60.96910,
,,,6165.16749, -60.96910,
,,,6189.82816, -60.96910,
,,,6214.48883, -58.56910,
,,,6239.14950, -60.96910,
,,,6263.81017, -58.56910,
,,,6288.47084, -60.96910,
,,,6313.13151, -55.36910,
,,,6337.79218, -60.96910,
,,,6362.45285, -60.96910,
,,,6387.11352, -60.96910,
,,,6411.77419, -58.56910,
,,,6436.43486, -58.56910,
,,,6461.09553, -60.96910,
,,,6485.75620, -60.96910,
,,,6510.41687, -60.96910,
,,,6535.07754, -60.96910,
,,,6559.73821, -60.96910,
,,,6584.39888, -60.96910,
,,,6609.05955, -60.96910,
,,,6633.72022, -60.96910,
,,,6658.38089, -60.96910,
,,,6683.04156, -60.96910,
,,,6707.70223, -60.96910,
,,,6732.36290, -60.96910,
,,,6757.02357, -60.96910,
,,,6781.68424, -58.56910,
,,,6806.34491, -60.96910,
,,,6831.00558, -60.96910,
,,,6855.66625, -60.96910,
,,,6880.32692, -60.96910,
,,,6904.98759, -55.36910,
,,,6929.64826, -60.96910,
,,,6954.30893, -58.56910,
,,,6978.96960, -58.56910,
,,,7003.63027, -54.56910,
,,,7028.29094, -58.56910,
,,,7052.95161, -60.96910,
,,,7077.61228, -60.96910,
,,,7102.27295, -58.56910,
,,,7126.93362, -60.96910,
,,,7151.59429, -58.56910,
,,,7176.25496, -60.96910,
,,,7200.91563, -60.96910,
,,,7225.57630, -60.96910,
,,,7250.23697, -60.96910,
,,,7274.89764, -60.96910,
,,,7299.55831, -60.96910,
,,,7324.21898, -55.36910,
,,,7348.87965, -55.36910,
,,,7373.54032, -58.56910,
,,,7398.20099, -60.96910,
,,,7422.86166, -60.96910,
,,,7447.52233, -60.96910,
,,,7472.18300, -60.96910,
,,,7496.84367, -58.56910,
,,,7521.50434, -58.56910,
,,,7546.16501, -58.56910,
,,,7570.82568, -60.96910,
,,,7595.48635, -60.96910,
,,,7620.14702, -60.96910,
,,,7644.80769, -60.96910,
,,,7669.46836, -60.96910,
,,,7694.12903, -60.96910,
,,,7718.78970, -60.96910,
,,,7743.45037, -58.56910,
,,,7768.11104, -60.96910,
,,,7792.77171, -60.96910,
,,,7817.43238, -58.56910,
,,,7842.09305, -60.96910,
,,,7866.75372, -60.96910,
,,,7891.41439, -58.56910,
,,,7916.07506, -60.96910,
,,,7940.73573, -58.56910,
,,,7965.39640, -54.56910,
,,,7990.05707, -52.56910,
,,,8014.71774, -58.56910,
,,,8039.37841, -58.56910,
,,,8064.03908, -60.96910,
,,,8088.69975, -60.96910,
,,,8113.36042, -60.96910,
,,,8138.02109, -60.96910,
,,,8162.68176, -60.96910,
,,,8187.34243, -60.96910,
,,,8212.00310, -60.96910,
,,,8236.66377, -54.56910,
,,,8261.32444, -51.36910,
,,,8285.98511, -60.96910,
,,,8310.64578, -58.56910,
,,,8335.30645, -60.96910,
,,,8359.96712, -60.96910,
,,,8384.62779, -60.96910,
,,,8409.28846, -60.96910,
,,,8433.94913, -60.96910,
,,,8458.60980, -60.96910,
,,,8483.27047, -60.96910,
,,,8507.93114, -60.96910,
,,,8532.59181, -58.56910,
,,,8557.25248, -54.56910,
,,,8581.91315, -54.56910,
,,,8606.57382, -55.36910,
,,,8631.23449, -55.36910,
,,,8655.89516, -58.56910,
,,,8680.55583, -55.36910,
,,,8705.21650, -55.36910,
,,,8729.87717, -55.36910,
,,,8754.53784, -60.96910,
,,,8779.19851, -60.96910,
,,,8803.85918, -60.96910,
,,,8828.51985, -58.56910,
,,,8853.18052, -58.56910,
,,,8877.84119, -58.56910,
,,,8902.50186, -58.56910,
,,,8927.16253, -60.96910,
,,,8951.82320, -58.56910,
,,,8976.48387, -60.96910,
,,,9001.14454, -58.56910,
,,,9025.80521, -58.56910,
,,,9050.46588, -60.96910,
,,,9075.12655, -60.96910,
,,,9099.78722, -58.56910,
,,,9124.44789, -55.36910,
,,,9149.10856, -58.56910,
,,,9173.76923, -58.56910,
,,,9198.42990, -58.56910,
,,,9223.09057, -60.96910,
,,,9247.75124, -60.96910,
,,,9272.41191, -60.96910,
,,,9297.07258, -60.96910,
,,,9321.73325, -60.96910,
,,,9346.39392, -60.96910,
,,,9371.05459, -60.96910,
,,,9395.71526, -60.96910,
,,,9420.37593, -60.96910,
,,,9445.03660, -58.56910,
,,,9469.69727, -58.56910,
,,,9494.35794, -60.96910,
,,,9519.01861, -60.96910,
,,,9543.67928, -60.96910,
,,,9568.33995, -60.96910,
,,,9593.00062, -60.96910,
,,,9617.66129, -60.96910,
,,,9642.32196, -60.96910,
,,,9666.98263, -60.96910,
,,,9691.64330, -60.96910,
,,,9716.30397, -58.56910,
,,,9740.96464, -60.96910,
,,,9765.62531, -58.56910,
,,,9790.28598, -55.36910,
,,,9814.94665, -60.96910,
,,,9839.60732, -43.36910,
,,,9864.26799, -50.16910,
,,,9888.92866, -36.96910,
,,,9913.58933, -28.16910,
,,,9938.25000, -11.76910,
,,,9962.91067,   1.03090,
,,,9987.57134,   3.43090,
,,,10012.23201,   3.43090,
,,,10036.89268,   0.63090,
,,,10061.55335, -14.16910,
,,,10086.21402, -30.16910,
,,,10110.87469, -40.56910,
,,,10135.53536, -39.76910,
,,,10160.19603, -51.36910,
,,,10184.85670, -45.36910,
,,,10209.51737, -60.96910,
,,,10234.17804, -55.36910,
,,,10258.83871, -60.96910,
,,,10283.49938, -54.56910,
,,,10308.16005, -60.96910,
,,,10332.82072, -60.96910,
,,,10357.48139, -60.96910,
,,,10382.14206, -58.56910,
,,,10406.80273, -60.96910,
,,,10431.46340, -60.96910,
,,,10456.12407, -60.96910,
,,,10480.78474, -60.96910,
,,,10505.44541, -60.96910,
,,,10530.10608, -58.56910,
,,,10554.76675, -60.96910,
,,,10579.42742, -60.96910,
,,,10604.08809, -60.96910,
,,,10628.74876, -58.56910,
,,,10653.40943, -58.56910,
,,,10678.07010, -60.96910,
,,,10702.73077, -60.96910,
,,,10727.39144, -60.96910,
,,,10752.05211, -60.96910,
,,,10776.71278, -58.56910,
,,,10801.37345, -58.56910,
,,,10826.03412, -60.96910,
,,,10850.69479, -60.96910,
,,,10875.35546, -60.96910,
,,,10900.01613, -60.96910,
,,,10924.67680, -60.96910,
,,,10949.33747, -60.96910,
,,,10973.99814, -60.96910,
,,,10998.65881, -58.56910,
,,,11023.31948, -58.56910,
,,,11047.98015, -54.56910,
,,,11072.64082, -58.56910,
,,,11097.30149, -60.96910,
,,,11121.96216, -60.96910,
,,,11146.62283, -54.56910,
,,,11171.28350, -58.56910,
,,,11195.94417, -60.96910,
,,,11220.60484, -58.56910,
,,,11245.26551, -58.56910,
,,,11269.92618, -60.96910,
,,,11294.58685, -58.56910,
,,,11319.24752, -55.36910,
,,,11343.90819, -55.36910,
,,,11368.56886, -58.56910,
,,,11393.22953, -60.96910,
,,,11417.89020, -60.96910,
,,,11442.55087, -60.96910,
,,,11467.21154, -60.96910,
,,,11491.87221, -60.96910,
,,,11516.53288, -60.96910,
,,,11541.19355, -60.96910,
,,,11565.85422, -60.96910,
,,,11590.51489, -58.56910,
,,,11615.17556, -60.96910,
,,,11639.83623, -60.96910,
,,,11664.49690, -60.96910,
,,,11689.15757, -60.96910,
,,,11713.81824, -60.96910,
,,,11738.47891, -60.96910,
,,,11763.13958, -60.96910,
,,,11787.80025, -60.96910,
,,,11812.46092, -60.96910,
,,,11837.12159, -60.96910,
,,,11861.78226, -60.96910,
,,,11886.44293, -58.56910,
,,,11911.10360, -58.56910,
,,,11935.76427, -58.56910,
,,,11960.42494, -60.96910,
,,,11985.08561, -60.96910,
,,,12009.74628, -60.96910,
,,,12034.40695, -60.96910,
,,,12059.06762, -60.96910,
,,,12083.72829, -55.36910,
,,,12108.38896, -60.96910,
,,,12133.04963, -58.56910,
,,,12157.71030, -60.96910,
,,,12182.37097, -60.96910,
,,,12207.03164, -60.96910,
,,,12231.69231, -58.56910,
,,,12256.35298, -55.36910,
,,,12281.01365, -60.96910,
,,,12305.67432, -60.96910,
,,,12330.33499, -60.96910,
,,,12354.99566, -60.96910,
,,,12379.65633, -60.96910,
,,,12404.31700, -58.56910,
,,,12428.97767, -58.56910,
,,,12453.63834, -60.96910,
,,,12478.29901, -60.96910,
,,,12502.95968, -58.56910,
,,,12527.62035, -60.96910,
,,,12552.28102, -60.96910,
,,,12576.94169, -58.56910,
,,,12601.60236, -60.96910,
,,,12626.26303, -60.96910,
,,,12650.92370, -58.56910,
,,,12675.58437, -60.96910,
,,,12700.24504, -60.96910,
,,,12724.90571, -60.96910,
,,,12749.56638, -60.96910,
,,,12774.22705, -55.36910,
,,,12798.88772, -54.56910,
,,,12823.54839, -58.56910,
,,,12848.20906, -58.56910,
,,,12872.86973, -58.56910,
,,,12897.53040, -60.96910,
,,,12922.19107, -60.96910,
,,,12946.85174, -60.96910,
,,,12971.51241, -55.36910,
,,,12996.17308, -58.56910,
,,,13020.83375, -58.56910,
,,,13045.49442, -54.56910,
,,,13070.15509, -58.56910,
,,,13094.81576, -58.56910,
,,,13119.47643, -60.96910,
,,,13144.13710, -58.56910,
,,,13168.79777, -54.56910,
,,,13193.45844, -58.56910,
,,,13218.11911, -60.96910,
,,,13242.77978, -55.36910,
,,,13267.44045, -60.96910,
,,,13292.10112, -60.96910,
,,,13316.76179, -58.56910,
,,,13341.42246, -54.56910,
,,,13366.08313, -58.56910,
,,,13390.74380, -58.56910,
,,,13415.40447, -58.56910,
,,,13440.06514, -58.56910,
,,,13464.72581, -60.96910,
,,,13489.38648, -60.96910,
,,,13514.04715, -60.96910,
,,,13538.70782, -58.56910,
,,,13563.36849, -60.96910,
,,,13588.02916, -54.56910,
,,,13612.68983, -58.56910,
,,,13637.35050, -60.96910,
,,,13662.01117, -58.56910,
,,,13686.67184, -58.56910,
,,,13711.33251, -60.96910,
,,,13735.99318, -60.96910,
,,,13760.65385, -58.56910,
,,,13785.31452, -60.96910,
,,,13809.97519, -60.96910,
,,,13834.63586, -58.56910,
,,,13859.29653, -60.96910,
,,,13883.95720, -60.96910,
,,,13908.61787, -60.96910,
,,,13933.27854, -60.96910,
,,,13957.93921, -60.96910,
,,,13982.59988, -60.96910,
,,,14007.26055, -60.96910,
,,,14031.92122, -60.96910,
,,,14056.58189, -60.96910,
,,,14081.24256, -60.96910,
,,,14105.90323, -60.96910,
,,,14130.56390, -60.96910,
,,,14155.22457, -60.96910,
,,,14179.88524, -60.96910,
,,,14204.54591, -60.96910,
,,,14229.20658, -60.96910,
,,,14253.86725, -60.96910,
,,,14278.52792, -60.96910,
,,,14303.18859, -60.96910,
,,,14327.84926, -60.96910,
,,,14352.50993, -60.96910,
,,,14377.17060, -60.96910,
,,,14401.83127, -58.56910,
,,,14426.49194, -58.56910,
,,,14451.15261, -60.96910,
,,,14475.81328, -58.56910,
,,,14500.47395, -60.96910,
,,,14525.13462, -58.56910,
,,,14549.79529, -60.96910,
,,,14574.45596, -58.56910,
,,,14599.11663, -58.56910,
,,,14623.77730, -60.96910,
,,,14648.43797, -60.96910,
,,,14673.09864, -60.96910,
,,,14697.75931, -60.96910,
,,,14722.41998, -55.36910,
,,,14747.08065, -58.56910,
,,,14771.74132, -58.56910,
,,,14796.40199, -58.56910,
,,,14821.06266, -58.56910,
,,,14845.72333, -58.56910,
,,,14870.38400, -58.56910,
,,,14895.04467, -60.96910,
,,,14919.70534, -60.96910,
,,,14944.36601, -60.96910,
,,,14969.02668, -60.96910,
,,,14993.68735, -60.96910,
,,,15018.34802, -55.36910,
,,,15043.00869, -60.96910,
,,,15067.66936, -60.96910,
,,,15092.33003, -58.56910,
,,,15116.99070, -58.56910,
,,,15141.65137, -58.56910,
,,,15166.31204, -60.96910,
,,,15190.97271, -58.56910,
,,,15215.63338, -60.96910,
,,,15240.29405, -60.96910,
,,,15264.95472, -60.96910,
,,,15289.61539, -60.96910,
,,,15314.27606, -60.96910,
,,,15338.93673, -60.96910,
,,,15363.59740, -60.96910,
,,,15388.25807, -54.56910,
,,,15412.91874, -54.56910,
,,,15437.57941, -54.56910,
,,,15462.24008, -58.56910,
,,,15486.90075, -55.36910,
,,,15511.56142, -60.96910,
,,,15536.22209, -60.96910,
,,,15560.88276, -60.96910,
,,,15585.54343, -60.96910,
,,,15610.20410, -60.96910,
,,,15634.86477, -60.96910,
,,,15659.52544, -58.56910,
,,,15684.18611, -60.96910,
,,,15708.84678, -60.96910,
,,,15733.50745, -60.96910,
,,,15758.16812, -60.96910,
,,,15782.82879, -60.96910,
,,,15807.48946, -60.96910,
,,,15832.15013, -58.56910,
,,,15856.81080, -60.96910,
,,,15881.47147, -58.56910,
,,,15906.13214, -58.56910,
,,,15930.79281, -60.96910,
,,,15955.45348, -58.56910,
,,,15980.11415, -58.56910,
,,,16004.77482, -60.96910,
,,,16029.43549, -60.96910,
,,,16054.09616, -60.96910,
,,,16078.75683, -60.96910,
,,,16103.41750, -58.56910,
,,,16128.07817, -58.56910,
,,,16152.73884, -58.56910,
,,,16177.39951, -60.96910,
,,,16202.06018, -60.96910,
,,,16226.72085, -58.56910,
,,,16251.38152, -54.56910,
,,,16276.04219, -58.56910,
,,,16300.70286, -58.56910,
,,,16325.36353, -55.36910,
,,,16350.02420, -54.56910,
,,,16374.68487, -55.36910,
,,,16399.34554, -60.96910,
,,,16424.00621, -58.56910,
,,,16448.66688, -58.56910,
,,,16473.32755, -60.96910,
,,,16497.98822, -60.96910,
,,,16522.64889, -60.96910,
,,,16547.30956, -60.96910,
,,,16571.97023, -60.96910,
,,,16596.63090, -60.96910,
,,,16621.29157, -60.96910,
,,,16645.95224, -60.96910,
,,,16670.61291, -60.96910,
,,,16695.27358, -60.96910,
,,,16719.93425, -60.96910,
,,,16744.59492, -60.96910,
,,,16769.25559, -60.96910,
,,,16793.91626, -60.96910,
,,,16818.57693, -60.96910,
,,,16843.23760, -60.96910,
,,,16867.89827, -60.96910,
,,,16892.55894, -54.56910,
,,,16917.21961, -58.56910,
,,,16941.88028, -58.56910,
,,,16966.54095, -58.56910,
,,,16991.20162, -58.56910,
,,,17015.86229, -55.36910,
,,,17040.52296, -60.96910,
,,,17065.18363, -58.56910,
,,,17089.84430, -60.96910,
,,,17114.50497, -60.96910,
,,,17139.16564, -54.56910,
,,,17163.82631, -54.56910,
,,,17188.48698, -52.56910,
,,,17213.14765, -54.56910,
,,,17237.80832, -54.56910,
,,,17262.46899, -58.56910,
,,,17287.12966, -60.96910,
,,,17311.79033, -60.96910,
,,,17336.45100, -58.56910,
,,,17361.11167, -58.56910,
,,,17385.77234, -58.56910,
,,,17410.43301, -58.56910,
,,,17435.09368, -58.56910,
,,,17459.75435, -60.96910,
,,,17484.41502, -60.96910,
,,,17509.07569, -60.96910,
,,,17533.73636, -60.96910,
,,,17558.39703, -58.56910,
,,,17583.05770, -60.96910,
,,,17607.71837, -60.96910,
,,,17632.37904, -58.56910,
,,,17657.03971, -60.96910,
,,,17681.70038, -60.96910,
,,,17706.36105, -60.96910,
,,,17731.02172, -58.56910,
,,,17755.68239, -60.96910,
,,,17780.34306, -58.56910,
,,,17805.00373, -60.96910,
,,,17829.66440, -58.56910,
,,,17854.32507, -60.96910,
,,,17878.98574, -60.96910,
,,,17903.64641, -60.96910,
,,,17928.30708, -60.96910,
,,,17952.96775, -60.96910,
,,,17977.62842, -60.96910,
,,,18002.28909, -60.96910,
,,,18026.94976, -60.96910,
,,,18051.61043, -60.96910,
,,,18076.27110, -54.56910,
,,,18100.93177, -54.56910,
,,,18125.59244, -54.56910,
,,,18150.25311, -54.56910,
,,,18174.91378, -60.96910,
,,,18199.57445, -58.56910,
