Data/ALL0014/F0014MTH.CSV

Record Length,1.024000e+03,,          0.00000, -10.96910,
Sample Interval,4.882812e+05,,     488281.25000, -13.76910,
Trigger Point,0.000000000000e+00,,     976562.50000, -39.36910,
,,,    1464843.75000, -50.56910,
,,,    1953125.00000, -59.76910,
,,,    2441406.25000, -60.96910,
Source,MATH,,    2929687.50000, -59.76910,
Vertical Units,dB,,    3417968.75000, -59.76910,
Vertical Scale,1.000000e+01,,    3906250.00000, -57.76910,
Vertical Offset,0.000000e+00,,    4394531.25000, -56.96910,
Horizontal Units,Hz,,    4882812.50000, -60.96910,
Horizontal Scale,5.000000e+07,,    5371093.75000, -59.76910,
Pt Fmt,Y,,    5859375.00000, -57.76910,
Yzero,-2.096910e+01,,    6347656.25000, -56.96910,
Probe Atten,1.000000e+00,,    6835937.50000, -60.96910,
Model Number,TDS1012C-EDU,,    7324218.75000, -60.96910,
Serial Number,C013699,,    7812500.00000, -59.76910,
Firmware Version,FV:v25.07,,    8300781.25000, -60.96910,
,,,8789062.50000, -60.96910,
,,,9277343.75000, -60.96910,
,,,9765625.00000, -60.96910,
,,,10253906.25000, -60.96910,
,,,10742187.50000, -60.96910,
,,,11230468.75000, -60.96910,
,,,11718750.00000, -60.96910,
,,,12207031.25000, -60.96910,
,,,12695312.50000, -60.96910,
,,,13183593.75000, -60.96910,
,,,13671875.00000, -60.96910,
,,,14160156.25000, -54.96910,
,,,14648437.50000, -54.96910,
,,,15136718.75000, -59.76910,
,,,15625000.00000, -60.96910,
,,,16113281.25000, -60.96910,
,,,16601562.50000, -60.96910,
,,,17089843.75000, -60.96910,
,,,17578125.00000, -53.76910,
,,,18066406.25000, -52.96910,
,,,18554687.50000, -59.76910,
,,,19042968.75000, -60.96910,
,,,19531250.00000, -60.96910,
,,,20019531.25000, -60.96910,
,,,20507812.50000, -60.96910,
,,,20996093.75000, -60.96910,
,,,21484375.00000, -60.96910,
,,,21972656.25000, -60.96910,
,,,22460937.50000, -60.96910,
,,,22949218.75000, -59.76910,
,,,23437500.00000, -57.76910,
,,,23925781.25000, -55.76910,
,,,24414062.50000, -54.56910,
,,,24902343.75000, -59.76910,
,,,25390625.00000, -60.96910,
,,,25878906.25000, -57.76910,
,,,26367187.50000, -56.96910,
,,,26855468.75000, -60.96910,
,,,27343750.00000, -60.96910,
,,,27832031.25000, -60.96910,
,,,28320312.50000, -60.96910,
,,,28808593.75000, -60.96910,
,,,29296875.00000, -59.76910,
,,,29785156.25000, -56.96910,
,,,30273437.50000, -52.96910,
,,,30761718.75000, -57.76910,
,,,31250000.00000, -59.76910,
,,,31738281.25000, -55.76910,
,,,32226562.50000, -60.96910,
,,,32714843.75000, -60.96910,
,,,33203125.00000, -60.96910,
,,,33691406.25000, -56.96910,
,,,34179687.50000, -54.96910,
,,,34667968.75000, -53.76910,
,,,35156250.00000, -52.96910,
,,,35644531.25000, -54.96910,
,,,36132812.50000, -60.96910,
,,,36621093.75000, -53.76910,
,,,37109375.00000, -54.56910,
,,,37597656.25000, -56.96910,
,,,38085937.50000, -60.96910,
,,,38574218.75000, -56.96910,
,,,39062500.00000, -56.96910,
,,,39550781.25000, -57.76910,
,,,40039062.50000, -50.56910,
,,,40527343.75000, -49.36910,
,,,41015625.00000, -60.96910,
,,,41503906.25000, -60.96910,
,,,41992187.50000, -60.96910,
,,,42480468.75000, -60.96910,
,,,42968750.00000, -60.96910,
,,,43457031.25000, -60.96910,
,,,43945312.50000, -59.76910,
,,,44433593.75000, -59.76910,
,,,44921875.00000, -60.96910,
,,,45410156.25000, -60.96910,
,,,45898437.50000, -57.36910,
,,,46386718.75000, -59.76910,
,,,46875000.00000, -59.76910,
,,,47363281.25000, -60.96910,
,,,47851562.50000, -60.96910,
,,,48339843.75000, -60.96910,
,,,48828125.00000, -60.96910,
,,,49316406.25000, -60.96910,
,,,49804687.50000, -60.96910,
,,,50292968.75000, -60.96910,
,,,50781250.00000, -60.96910,
,,,51269531.25000, -60.96910,
,,,51757812.50000, -60.96910,
,,,52246093.75000, -60.96910,
,,,52734375.00000, -60.96910,
,,,53222656.25000, -60.96910,
,,,53710937.50000, -57.36910,
,,,54199218.75000, -59.76910,
,,,54687500.00000, -59.76910,
,,,55175781.25000, -60.96910,
,,,55664062.50000, -60.96910,
,,,56152343.75000, -60.96910,
,,,56640625.00000, -59.76910,
,,,57128906.25000, -56.96910,
,,,57617187.50000, -59.76910,
,,,58105468.75000, -60.96910,
,,,58593750.00000, -60.96910,
,,,59082031.25000, -59.76910,
,,,59570312.50000, -60.96910,
,,,60058593.75000, -49.76910,
,,,60546875.00000, -43.36910,
,,,61035156.25000, -49.36910,
,,,61523437.50000, -57.76910,
,,,62011718.75000, -60.96910,
,,,62500000.00000, -60.96910,
,,,62988281.25000, -60.96910,
,,,63476562.50000, -60.96910,
,,,63964843.75000, -60.96910,
,,,64453125.00000, -60.96910,
,,,64941406.25000, -60.96910,
,,,65429687.50000, -60.96910,
,,,65917968.75000, -59.76910,
,,,66406250.00000, -59.76910,
,,,66894531.25000, -60.96910,
,,,67382812.50000, -60.96910,
,,,67871093.75000, -60.96910,
,,,68359375.00000, -59.76910,
,,,68847656.25000, -56.96910,
,,,69335937.50000, -60.96910,
,,,69824218.75000, -60.96910,
,,,70312500.00000, -57.76910,
,,,70800781.25000, -56.96910,
,,,71289062.50000, -59.76910,
,,,71777343.75000, -55.76910,
,,,72265625.00000, -59.76910,
,,,72753906.25000, -56.96910,
,,,73242187.50000, -57.36910,
,,,73730468.75000, -55.76910,
,,,74218750.00000, -54.56910,
,,,74707031.25000, -59.76910,
,,,75195312.50000, -60.96910,
,,,75683593.75000, -60.96910,
,,,76171875.00000, -60.96910,
,,,76660156.25000, -60.96910,
,,,77148437.50000, -60.96910,
,,,77636718.75000, -57.76910,
,,,78125000.00000, -59.76910,
,,,78613281.25000, -60.96910,
,,,79101562.50000, -60.96910,
,,,79589843.75000, -60.96910,
,,,80078125.00000, -60.96910,
,,,80566406.25000, -56.96910,
,,,81054687.50000, -60.96910,
,,,81542968.75000, -59.76910,
,,,82031250.00000, -60.96910,
,,,82519531.25000, -60.96910,
,,,83007812.50000, -59.76910,
,,,83496093.75000, -60.96910,
,,,83984375.00000, -59.76910,
,,,84472656.25000, -53.76910,
,,,84960937.50000, -54.56910,
,,,85449218.75000, -59.76910,
,,,85937500.00000, -54.96910,
,,,86425781.25000, -52.96910,
,,,86914062.50000, -60.96910,
,,,87402343.75000, -60.96910,
,,,87890625.00000, -60.96910,
,,,88378906.25000, -60.96910,
,,,88867187.50000, -60.96910,
,,,89355468.75000, -60.96910,
,,,89843750.00000, -60.96910,
,,,90332031.25000, -55.76910,
,,,90820312.50000, -52.96910,
,,,91308593.75000, -60.96910,
,,,91796875.00000, -56.96910,
,,,92285156.25000, -60.96910,
,,,92773437.50000, -60.96910,
,,,93261718.75000, -59.76910,
,,,93750000.00000, -60.96910,
,,,94238281.25000, -59.76910,
,,,94726562.50000, -60.96910,
,,,95214843.75000, -60.96910,
,,,95703125.00000, -60.96910,
,,,96191406.25000, -56.96910,
,,,96679687.50000, -56.96910,
,,,97167968.75000, -60.96910,
,,,97656250.00000, -59.76910,
,,,98144531.25000, -57.76910,
,,,98632812.50000, -60.96910,
,,,99121093.75000, -57.76910,
,,,99609375.00000, -60.96910,
,,,100097656.25000, -60.96910,
,,,100585937.50000, -60.96910,
,,,101074218.75000, -60.96910,
,,,101562500.00000, -56.96910,
,,,102050781.25000, -59.76910,
,,,102539062.50000, -59.76910,
,,,103027343.75000, -55.76910,
,,,103515625.00000, -57.36910,
,,,104003906.25000, -60.96910,
,,,104492187.50000, -60.96910,
,,,104980468.75000, -59.76910,
,,,105468750.00000, -57.76910,
,,,105957031.25000, -60.96910,
,,,106445312.50000, -60.96910,
,,,106933593.75000, -60.96910,
,,,107421875.00000, -59.76910,
,,,107910156.25000, -60.96910,
,,,108398437.50000, -60.96910,
,,,108886718.75000, -59.76910,
,,,109375000.00000, -57.36910,
,,,109863281.25000, -56.96910,
,,,110351562.50000, -57.36910,
,,,110839843.75000, -60.96910,
,,,111328125.00000, -60.96910,
,,,111816406.25000, -59.76910,
,,,112304687.50000, -57.36910,
,,,112792968.75000, -56.96910,
,,,113281250.00000, -60.96910,
,,,113769531.25000, -60.96910,
,,,114257812.50000, -60.96910,
,,,114746093.75000, -60.96910,
,,,115234375.00000, -60.96910,
,,,115722656.25000, -60.96910,
,,,116210937.50000, -59.76910,
,,,116699218.75000, -60.96910,
,,,117187500.00000, -60.96910,
,,,117675781.25000, -60.96910,
,,,118164062.50000, -53.76910,
,,,118652343.75000, -57.76910,
,,,119140625.00000, -57.36910,
,,,119628906.25000, -56.96910,
,,,120117187.50000, -54.96910,
,,,120605468.75000, -55.76910,
,,,121093750.00000, -60.96910,
,,,121582031.25000, -60.96910,
,,,122070312.50000, -56.96910,
,,,122558593.75000, -59.76910,
,,,123046875.00000, -60.96910,
,,,123535156.25000, -60.96910,
,,,124023437.50000, -54.96910,
,,,124511718.75000, -60.96910,
,,,125000000.00000, -59.76910,
,,,125488281.25000, -60.96910,
,,,125976562.50000, -60.96910,
,,,126464843.75000, -60.96910,
,,,126953125.00000, -57.76910,
,,,127441406.25000, -59.76910,
,,,127929687.50000, -60.96910,
,,,128417968.75000, -60.96910,
,,,128906250.00000, -60.96910,
,,,129394531.25000, -60.96910,
,,,129882812.50000, -60.96910,
,,,130371093.75000, -59.76910,
,,,130859375.00000, -59.76910,
,,,131347656.25000, -59.76910,
,,,131835937.50000, -59.76910,
,,,132324218.75000, -57.36910,
,,,132812500.00000, -59.76910,
,,,133300781.25000, -60.96910,
,,,133789062.50000, -60.96910,
,,,134277343.75000, -60.96910,
,,,134765625.00000, -60.96910,
,,,135253906.25000, -60.96910,
,,,135742187.50000, -60.96910,
,,,136230468.75000, -57.36910,
,,,136718750.00000, -54.56910,
,,,137207031.25000, -56.96910,
,,,137695312.50000, -60.96910,
,,,138183593.75000, -60.96910,
,,,138671875.00000, -59.76910,
,,,139160156.25000, -59.76910,
,,,139648437.50000, -57.76910,
,,,140136718.75000, -60.96910,
,,,140625000.00000, -60.96910,
,,,141113281.25000, -60.96910,
,,,141601562.50000, -54.56910,
,,,142089843.75000, -56.96910,
,,,142578125.00000, -60.96910,
,,,143066406.25000, -60.96910,
,,,143554687.50000, -60.96910,
,,,144042968.75000, -60.96910,
,,,144531250.00000, -60.96910,
,,,145019531.25000, -56.96910,
,,,145507812.50000, -57.76910,
,,,145996093.75000, -60.96910,
,,,146484375.00000, -59.76910,
,,,146972656.25000, -59.76910,
,,,147460937.50000, -57.36910,
,,,147949218.75000, -60.96910,
,,,148437500.00000, -60.96910,
,,,148925781.25000, -60.96910,
,,,149414062.50000, -60.96910,
,,,149902343.75000, -59.76910,
,,,150390625.00000, -55.76910,
,,,150878906.25000, -57.36910,
,,,151367187.50000, -54.56910,
,,,151855468.75000, -52.16910,
,,,152343750.00000, -52.96910,
,,,152832031.25000, -60.96910,
,,,153320312.50000, -59.76910,
,,,153808593.75000, -59.76910,
,,,154296875.00000, -60.96910,
,,,154785156.25000, -60.96910,
,,,155273437.50000, -60.96910,
,,,155761718.75000, -60.96910,
,,,156250000.00000, -56.96910,
,,,156738281.25000, -56.96910,
,,,157226562.50000, -54.56910,
,,,157714843.75000, -60.96910,
,,,158203125.00000, -60.96910,
,,,158691406.25000, -60.96910,
,,,159179687.50000, -60.96910,
,,,159667968.75000, -60.96910,
,,,160156250.00000, -59.76910,
,,,160644531.25000, -57.76910,
,,,161132812.50000, -60.96910,
,,,161621093.75000, -59.76910,
,,,162109375.00000, -59.76910,
,,,162597656.25000, -59.76910,
,,,163085937.50000, -59.76910,
,,,163574218.75000, -60.96910,
,,,164062500.00000, -59.76910,
,,,164550781.25000, -56.96910,
,,,165039062.50000, -60.96910,
,,,165527343.75000, -60.96910,
,,,166015625.00000, -60.96910,
,,,166503906.25000, -57.76910,
,,,166992187.50000, -60.96910,
,,,167480468.75000, -60.96910,
,,,167968750.00000, -60.96910,
,,,168457031.25000, -60.96910,
,,,168945312.50000, -60.96910,
,,,169433593.75000, -60.96910,
,,,169921875.00000, -60.96910,
,,,170410156.25000, -60.96910,
,,,170898437.50000, -59.76910,
,,,171386718.75000, -60.96910,
,,,171875000.00000, -60.96910,
,,,172363281.25000, -60.96910,
,,,172851562.50000, -60.96910,
,,,173339843.75000, -60.96910,
,,,173828125.00000, -60.96910,
,,,174316406.25000, -60.96910,
,,,174804687.50000, -60.96910,
,,,175292968.75000, -60.96910,
,,,175781250.00000, -56.96910,
,,,176269531.25000, -59.76910,
,,,176757812.50000, -59.76910,
,,,177246093.75000, -60.96910,
,,,177734375.00000, -60.96910,
,,,178222656.25000, -60.96910,
,,,178710937.50000, -60.96910,
,,,179199218.75000, -59.76910,
,,,179687500.00000, -60.96910,
,,,180175781.25000, -60.96910,
,,,180664062.50000, -60.96910,
,,,181152343.75000, -60.96910,
,,,181640625.00000, -60.96910,
,,,182128906.25000, -59.76910,
,,,182617187.50000, -59.76910,
,,,183105468.75000, -57.36910,
,,,183593750.00000, -59.76910,
,,,184082031.25000, -60.96910,
,,,184570312.50000, -60.96910,
,,,185058593.75000, -60.96910,
,,,185546875.00000, -60.96910,
,,,186035156.25000, -60.96910,
,,,186523437.50000, -60.96910,
,,,187011718.75000, -60.96910,
,,,187500000.00000, -60.96910,
,,,187988281.25000, -59.76910,
,,,188476562.50000, -60.96910,
,,,188964843.75000, -60.96910,
,,,189453125.00000, -60.96910,
,,,189941406.25000, -59.76910,
,,,190429687.50000, -60.96910,
,,,190917968.75000, -56.96910,
,,,191406250.00000, -56.96910,
,,,191894531.25000, -60.96910,
,,,192382812.50000, -60.96910,
,,,192871093.75000, -59.76910,
,,,193359375.00000, -60.96910,
,,,193847656.25000, -60.96910,
,,,194335937.50000, -60.96910,
,,,194824218.75000, -60.96910,
,,,195312500.00000, -60.96910,
,,,195800781.25000, -60.96910,
,,,196289062.50000, -60.96910,
,,,196777343.75000, -60.96910,
,,,197265625.00000, -59.76910,
,,,197753906.25000, -56.96910,
,,,198242187.50000, -54.56910,
,,,198730468.75000, -57.36910,
,,,199218750.00000, -56.96910,
,,,199707031.25000, -60.96910,
,,,200195312.50000, -60.96910,
,,,200683593.75000, -60.96910,
,,,201171875.00000, -60.96910,
,,,201660156.25000, -57.36910,
,,,202148437.50000, -60.96910,
,,,202636718.75000, -60.96910,
,,,203125000.00000, -60.96910,
,,,203613281.25000, -60.96910,
,,,204101562.50000, -60.96910,
,,,204589843.75000, -60.96910,
,,,205078125.00000, -60.96910,
,,,205566406.25000, -59.76910,
,,,206054687.50000, -60.96910,
,,,206542968.75000, -60.96910,
,,,207031250.00000, -60.96910,
,,,207519531.25000, -60.96910,
,,,208007812.50000, -60.96910,
,,,208496093.75000, -60.96910,
,,,208984375.00000, -60.96910,
,,,209472656.25000, -60.96910,
,,,209960937.50000, -60.96910,
,,,210449218.75000, -60.96910,
,,,210937500.00000, -60.96910,
,,,211425781.25000, -59.76910,
,,,211914062.50000, -57.36910,
,,,212402343.75000, -55.76910,
,,,212890625.00000, -56.96910,
,,,213378906.25000, -57.76910,
,,,213867187.50000, -54.56910,
,,,214355468.75000, -54.56910,
,,,214843750.00000, -57.76910,
,,,215332031.25000, -60.96910,
,,,215820312.50000, -59.76910,
,,,216308593.75000, -60.96910,
,,,216796875.00000, -60.96910,
,,,217285156.25000, -60.96910,
,,,217773437.50000, -59.76910,
,,,218261718.75000, -60.96910,
,,,218750000.00000, -60.96910,
,,,219238281.25000, -57.36910,
,,,219726562.50000, -55.76910,
,,,220214843.75000, -60.96910,
,,,220703125.00000, -60.96910,
,,,221191406.25000, -59.76910,
,,,221679687.50000, -59.76910,
,,,222167968.75000, -54.56910,
,,,222656250.00000, -54.56910,
,,,223144531.25000, -60.96910,
,,,223632812.50000, -60.96910,
,,,224121093.75000, -60.96910,
,,,224609375.00000, -59.76910,
,,,225097656.25000, -55.76910,
,,,225585937.50000, -60.96910,
,,,226074218.75000, -60.96910,
,,,226562500.00000, -57.36910,
,,,227050781.25000, -56.96910,
,,,227539062.50000, -56.96910,
,,,228027343.75000, -57.76910,
,,,228515625.00000, -60.96910,
,,,229003906.25000, -60.96910,
,,,229492187.50000, -60.96910,
,,,229980468.75000, -57.76910,
,,,230468750.00000, -59.76910,
,,,230957031.25000, -59.76910,
,,,231445312.50000, -59.76910,
,,,231933593.75000, -59.76910,
,,,232421875.00000, -59.76910,
,,,232910156.25000, -60.96910,
,,,233398437.50000, -60.96910,
,,,233886718.75000, -60.96910,
,,,234375000.00000, -60.96910,
,,,234863281.25000, -60.96910,
,,,235351562.50000, -60.96910,
,,,235839843.75000, -60.96910,
,,,236328125.00000, -60.96910,
,,,236816406.25000, -59.76910,
,,,237304687.50000, -59.76910,
,,,237792968.75000, -57.76910,
,,,238281250.00000, -60.96910,
,,,238769531.25000, -60.96910,
,,,239257812.50000, -60.96910,
,,,239746093.75000, -60.96910,
,,,240234375.00000, -60.96910,
,,,240722656.25000, -59.76910,
,,,241210937.50000, -57.76910,
,,,241699218.75000, -60.96910,
,,,242187500.00000, -57.36910,
,,,242675781.25000, -60.96910,
,,,243164062.50000, -60.96910,
,,,243652343.75000, -60.96910,
,,,244140625.00000, -59.76910,
,,,244628906.25000, -60.96910,
,,,245117187.50000, -57.76910,
,,,245605468.75000, -57.76910,
,,,246093750.00000, -59.76910,
,,,246582031.25000, -59.76910,
,,,247070312.50000, -60.96910,
,,,247558593.75000, -60.96910,
,,,248046875.00000, -59.76910,
,,,248535156.25000, -60.96910,
,,,249023437.50000, -60.96910,
,,,249511718.75000, -60.96910,
,,,250000000.00000, -60.96910,
,,,250488281.25000, -60.96910,
,,,250976562.50000, -57.76910,
,,,251464843.75000, -60.96910,
,,,251953125.00000, -57.76910,
,,,252441406.25000, -60.96910,
,,,252929687.50000, -60.96910,
,,,253417968.75000, -60.96910,
,,,253906250.00000, -60.96910,
,,,254394531.25000, -60.96910,
,,,254882812.50000, -55.76910,
,,,255371093.75000, -60.96910,
,,,255859375.00000, -60.96910,
,,,256347656.25000, -60.96910,
,,,256835937.50000, -59.76910,
,,,257324218.75000, -60.96910,
,,,257812500.00000, -60.96910,
,,,258300781.25000, -60.96910,
,,,258789062.50000, -60.96910,
,,,259277343.75000, -60.96910,
,,,259765625.00000, -60.96910,
,,,260253906.25000, -60.96910,
,,,260742187.50000, -60.96910,
,,,261230468.75000, -60.96910,
,,,261718750.00000, -59.76910,
,,,262207031.25000, -56.96910,
,,,262695312.50000, -57.36910,
,,,263183593.75000, -60.96910,
,,,263671875.00000, -60.96910,
,,,264160156.25000, -60.96910,
,,,264648437.50000, -60.96910,
,,,265136718.75000, -60.96910,
,,,265625000.00000, -59.76910,
,,,266113281.25000, -60.96910,
,,,266601562.50000, -59.76910,
,,,267089843.75000, -60.96910,
,,,267578125.00000, -60.96910,
,,,268066406.25000, -60.96910,
,,,268554687.50000, -59.76910,
,,,269042968.75000, -57.36910,
,,,269531250.00000, -60.96910,
,,,270019531.25000, -60.96910,
,,,270507812.50000, -60.96910,
,,,270996093.75000, -57.76910,
,,,271484375.00000, -60.96910,
,,,271972656.25000, -60.96910,
,,,272460937.50000, -57.36910,
,,,272949218.75000, -60.96910,
,,,273437500.00000, -60.96910,
,,,273925781.25000, -60.96910,
,,,274414062.50000, -60.96910,
,,,274902343.75000, -59.76910,
,,,275390625.00000, -60.96910,
,,,275878906.25000, -60.96910,
,,,276367187.50000, -59.76910,
,,,276855468.75000, -60.96910,
,,,277343750.00000, -60.96910,
,,,277832031.25000, -59.76910,
,,,278320312.50000, -57.76910,
,,,278808593.75000, -60.96910,
,,,279296875.00000, -60.96910,
,,,279785156.25000, -60.96910,
,,,280273437.50000, -60.96910,
,,,280761718.75000, -60.96910,
,,,281250000.00000, -60.96910,
,,,281738281.25000, -60.96910,
,,,282226562.50000, -59.76910,
,,,282714843.75000, -60.96910,
,,,283203125.00000, -57.76910,
,,,283691406.25000, -59.76910,
,,,284179687.50000, -60.96910,
,,,284667968.75000, -59.76910,
,,,285156250.00000, -60.96910,
,,,285644531.25000, -60.96910,
,,,286132812.50000, -60.96910,
,,,286621093.75000, -60.96910,
,,,287109375.00000, -60.96910,
,,,287597656.25000, -60.96910,
,,,288085937.50000, -60.96910,
,,,288574218.75000, -60.96910,
,,,289062500.00000, -60.96910,
,,,289550781.25000, -60.96910,
,,,290039062.50000, -60.96910,
,,,290527343.75000, -60.96910,
,,,291015625.00000, -60.96910,
,,,291503906.25000, -60.96910,
,,,291992187.50000, -60.96910,
,,,292480468.75000, -60.96910,
,,,292968750.00000, -55.76910,
,,,293457031.25000, -55.76910,
,,,293945312.50000, -57.76910,
,,,294433593.75000, -60.96910,
,,,294921875.00000, -60.96910,
,,,295410156.25000, -60.96910,
,,,295898437.50000, -60.96910,
,,,296386718.75000, -60.96910,
,,,296875000.00000, -60.96910,
,,,297363281.25000, -57.36910,
,,,297851562.50000, -55.76910,
,,,298339843.75000, -60.96910,
,,,298828125.00000, -60.96910,
,,,299316406.25000, -60.96910,
,,,299804687.50000, -60.96910,
,,,300292968.75000, -60.96910,
,,,300781250.00000, -60.96910,
,,,301269531.25000, -60.96910,
,,,301757812.50000, -60.96910,
,,,302246093.75000, -59.76910,
,,,302734375.00000, -53.76910,
,,,303222656.25000, -60.96910,
,,,303710937.50000, -59.76910,
,,,304199218.75000, -60.96910,
,,,304687500.00000, -59.76910,
,,,305175781.25000, -60.96910,
,,,305664062.50000, -60.96910,
,,,306152343.75000, -60.96910,
,,,306640625.00000, -60.96910,
,,,307128906.25000, -60.96910,
,,,307617187.50000, -60.96910,
,,,308105468.75000, -60.96910,
,,,308593750.00000, -60.96910,
,,,309082031.25000, -57.76910,
,,,309570312.50000, -60.96910,
,,,310058593.75000, -59.76910,
,,,310546875.00000, -60.96910,
,,,311035156.25000, -60.96910,
,,,311523437.50000, -59.76910,
